<?xml version="1.0" encoding="UTF-8"?>
<!DOCTYPE svg PUBLIC '-//W3C//DTD SVG 1.0//EN'
          'http://www.w3.org/TR/2001/REC-SVG-20010904/DTD/svg10.dtd'>
<svg fill-opacity="0" xmlns:xlink="http://www.w3.org/1999/xlink" color-rendering="auto" color-interpolation="auto" text-rendering="auto" stroke="rgb(0,0,0)" stroke-linecap="square" width="797" stroke-miterlimit="10" shape-rendering="auto" stroke-opacity="0" fill="rgb(0,0,0)" stroke-dasharray="none" font-weight="normal" stroke-width="1" height="537" xmlns="http://www.w3.org/2000/svg" font-family="'Dialog'" font-style="normal" stroke-linejoin="miter" font-size="12px" stroke-dashoffset="0" image-rendering="auto"
><!--Generated by the Batik Graphics2D SVG Generator--><defs id="genericDefs"
  /><g
  ><defs id="defs1"
    ><clipPath clipPathUnits="userSpaceOnUse" id="clipPath1"
      ><path d="M-7 -7 L81 -7 L81 542 L-7 542 L-7 -7 Z"
      /></clipPath
      ><clipPath clipPathUnits="userSpaceOnUse" id="clipPath2"
      ><path d="M-7 -7 L585 -7 L585 335 L-7 335 L-7 -7 Z"
      /></clipPath
      ><clipPath clipPathUnits="userSpaceOnUse" id="clipPath3"
      ><path d="M518 23 L518 38 L38 38 L38 23 ZM-7 -7 L-7 335 L585 335 L585 -7 Z"
      /></clipPath
      ><clipPath clipPathUnits="userSpaceOnUse" id="clipPath4"
      ><path d="M0 0 L0 18 L23 18 L23 0 Z"
      /></clipPath
      ><clipPath clipPathUnits="userSpaceOnUse" id="clipPath5"
      ><path d="M-7 -7 L557 -7 L557 191 L-7 191 L-7 -7 Z"
      /></clipPath
      ><clipPath clipPathUnits="userSpaceOnUse" id="clipPath6"
      ><path d="M498 23 L498 38 L38 38 L38 23 ZM-7 -7 L-7 191 L557 191 L557 -7 Z"
      /></clipPath
      ><clipPath clipPathUnits="userSpaceOnUse" id="clipPath7"
      ><path d="M-7 -7 L316 -7 L316 69 L-7 69 L-7 -7 Z"
      /></clipPath
      ><clipPath clipPathUnits="userSpaceOnUse" id="clipPath8"
      ><path d="M0 0 L0 58 L290 58 L290 0 Z"
      /></clipPath
      ><clipPath clipPathUnits="userSpaceOnUse" id="clipPath9"
      ><path d="M-7 -7 L26 -7 L26 31 L-7 31 L-7 -7 Z"
      /></clipPath
      ><clipPath clipPathUnits="userSpaceOnUse" id="clipPath10"
      ><path d="M-7 -7 L19 -7 L19 433 L-7 433 L-7 -7 Z"
      /></clipPath
      ><clipPath clipPathUnits="userSpaceOnUse" id="clipPath11"
      ><path d="M-7 -7 L557 -7 L557 60 L-7 60 L-7 -7 Z"
      /></clipPath
      ><clipPath clipPathUnits="userSpaceOnUse" id="clipPath12"
      ><path d="M0 0 L0 4 L546 4 L546 0 Z"
      /></clipPath
      ><clipPath clipPathUnits="userSpaceOnUse" id="clipPath13"
      ><path d="M-7 -7 L557 -7 L557 125 L-7 125 L-7 -7 Z"
      /></clipPath
      ><clipPath clipPathUnits="userSpaceOnUse" id="clipPath14"
      ><path d="M0 0 L0 15 L480 15 L480 0 Z"
      /></clipPath
      ><clipPath clipPathUnits="userSpaceOnUse" id="clipPath15"
      ><path d="M-7 -7 L585 -7 L585 61 L-7 61 L-7 -7 Z"
      /></clipPath
      ><clipPath clipPathUnits="userSpaceOnUse" id="clipPath16"
      ><path d="M0 0 L0 4 L574 4 L574 0 Z"
      /></clipPath
      ><clipPath clipPathUnits="userSpaceOnUse" id="clipPath17"
      ><path d="M-7 -7 L585 -7 L585 268 L-7 268 L-7 -7 Z"
      /></clipPath
      ><clipPath clipPathUnits="userSpaceOnUse" id="clipPath18"
      ><path d="M0 0 L0 15 L500 15 L500 0 Z"
      /></clipPath
      ><clipPath clipPathUnits="userSpaceOnUse" id="clipPath19"
      ><path d="M-70 -30 L140 -30 L140 60 L-70 60 L-70 -30 Z"
      /></clipPath
      ><clipPath clipPathUnits="userSpaceOnUse" id="clipPath20"
      ><path d="M0 0 L134 0 L134 124 L0 124 L0 0 Z"
      /></clipPath
      ><clipPath clipPathUnits="userSpaceOnUse" id="clipPath21"
      ><path d="M0 0 L0 124 L134 124 L134 68 L85 68 L85 53 L134 53 L134 0 Z"
      /></clipPath
      ><clipPath clipPathUnits="userSpaceOnUse" id="clipPath22"
      ><path d="M0 0 L0 124 L134 124 L134 111 L87 111 L87 96 L134 96 L134 68 L85 68 L85 53 L134 53 L134 0 Z"
      /></clipPath
      ><clipPath clipPathUnits="userSpaceOnUse" id="clipPath23"
      ><path d="M0 0 L352 0 L352 104 L0 104 L0 0 Z"
      /></clipPath
      ><clipPath clipPathUnits="userSpaceOnUse" id="clipPath24"
      ><path d="M253 29 L253 44 L92 44 L92 29 ZM0 0 L0 104 L352 104 L352 85 L339 85 L339 70 L352 70 L352 0 Z"
      /></clipPath
      ><clipPath clipPathUnits="userSpaceOnUse" id="clipPath25"
      ><path d="M0 0 L0 124 L134 124 L134 68 L83 68 L83 53 L134 53 L134 0 Z"
      /></clipPath
      ><clipPath clipPathUnits="userSpaceOnUse" id="clipPath26"
      ><path d="M0 0 L0 124 L134 124 L134 67 L87 67 L87 52 L134 52 L134 24 L85 24 L85 9 L134 9 L134 0 Z"
      /></clipPath
      ><clipPath clipPathUnits="userSpaceOnUse" id="clipPath27"
      ><path d="M0 0 L351 0 L351 104 L0 104 L0 0 Z"
      /></clipPath
      ><clipPath clipPathUnits="userSpaceOnUse" id="clipPath28"
      ><path d="M197 30 L197 45 L150 45 L150 30 ZM0 0 L0 104 L351 104 L351 0 Z"
      /></clipPath
      ><clipPath clipPathUnits="userSpaceOnUse" id="clipPath29"
      ><path d="M-47 -15 L94 -15 L94 30 L-47 30 L-47 -15 Z"
      /></clipPath
      ><clipPath clipPathUnits="userSpaceOnUse" id="clipPath30"
      ><path d="M-82 -15 L164 -15 L164 30 L-82 30 L-82 -15 Z"
      /></clipPath
      ><clipPath clipPathUnits="userSpaceOnUse" id="clipPath31"
      ><path d="M-86 -15 L172 -15 L172 30 L-86 30 L-86 -15 Z"
      /></clipPath
      ><clipPath clipPathUnits="userSpaceOnUse" id="clipPath32"
      ><path d="M-161 -15 L322 -15 L322 30 L-161 30 L-161 -15 Z"
      /></clipPath
      ><clipPath clipPathUnits="userSpaceOnUse" id="clipPath33"
      ><path d="M-247 -15 L494 -15 L494 30 L-247 30 L-247 -15 Z"
      /></clipPath
      ><clipPath clipPathUnits="userSpaceOnUse" id="clipPath34"
      ><path d="M-280 -15 L560 -15 L560 30 L-280 30 L-280 -15 Z"
      /></clipPath
    ></defs
    ><g fill="white" text-rendering="geometricPrecision" fill-opacity="1" stroke-opacity="1" stroke="white"
    ><rect x="0" width="797" height="537" y="0" stroke="none"
    /></g
    ><g font-size="11px" transform="translate(233,2)" fill-opacity="1" fill="rgb(122,207,245)" text-rendering="geometricPrecision" image-rendering="optimizeQuality" font-family="sans-serif" stroke="rgb(122,207,245)" stroke-opacity="1"
    ><rect x="0" width="69" height="35" y="0" clip-path="url(#clipPath1)" stroke="none"
    /></g
    ><g stroke-linecap="butt" font-size="11px" transform="translate(233,2)" fill-opacity="1" fill="black" text-rendering="geometricPrecision" image-rendering="optimizeQuality" font-family="sans-serif" stroke-linejoin="round" stroke="black" stroke-opacity="1" stroke-miterlimit="0"
    ><rect fill="none" x="0" width="69" height="35" y="0" clip-path="url(#clipPath1)"
      /><line clip-path="url(#clipPath1)" fill="none" x1="34" x2="34" y1="35" y2="531" stroke-linejoin="bevel" stroke-dasharray="8,3"
    /></g
    ><g fill-opacity="1" text-rendering="geometricPrecision" stroke="black" stroke-linecap="butt" transform="translate(219,158)" stroke-miterlimit="0" stroke-opacity="1" fill="black" font-weight="bold" font-family="sans-serif" stroke-linejoin="round" font-size="11px" image-rendering="optimizeQuality"
    ><rect fill="none" x="0" width="574" height="324" y="0" clip-path="url(#clipPath3)"
    /></g
    ><g font-size="11px" transform="translate(219,158)" fill-opacity="1" fill="white" text-rendering="geometricPrecision" image-rendering="optimizeQuality" font-family="sans-serif" stroke="white" font-weight="bold" stroke-opacity="1"
    ><path d="M22 0 L22 9 L16 17 L0 17 L0 0 Z" stroke="none" clip-path="url(#clipPath3)"
    /></g
    ><g fill-opacity="1" text-rendering="geometricPrecision" stroke="black" stroke-linecap="butt" transform="translate(219,158)" stroke-miterlimit="0" stroke-opacity="1" fill="black" font-weight="bold" font-family="sans-serif" stroke-linejoin="round" font-size="11px" image-rendering="optimizeQuality"
    ><path fill="none" d="M22 0 L22 9 L16 17 L0 17 L0 0 Z" clip-path="url(#clipPath3)"
    /></g
    ><g font-size="11px" transform="translate(219,158)" fill-opacity="1" fill="black" text-rendering="geometricPrecision" image-rendering="optimizeQuality" font-family="sans-serif" stroke="black" font-weight="bold" stroke-opacity="1"
    ><text x="5" xml:space="preserve" y="12" clip-path="url(#clipPath4)" stroke="none"
      >alt</text
    ></g
    ><g fill-opacity="1" text-rendering="geometricPrecision" stroke="black" stroke-linecap="butt" transform="translate(233,240)" stroke-miterlimit="0" stroke-opacity="1" fill="black" font-weight="bold" font-family="sans-serif" stroke-linejoin="round" font-size="11px" image-rendering="optimizeQuality"
    ><rect fill="none" x="0" width="546" height="180" y="0" clip-path="url(#clipPath6)"
    /></g
    ><g font-size="11px" transform="translate(233,240)" fill-opacity="1" fill="white" text-rendering="geometricPrecision" image-rendering="optimizeQuality" font-family="sans-serif" stroke="white" font-weight="bold" stroke-opacity="1"
    ><path d="M22 0 L22 9 L16 17 L0 17 L0 0 Z" stroke="none" clip-path="url(#clipPath6)"
    /></g
    ><g fill-opacity="1" text-rendering="geometricPrecision" stroke="black" stroke-linecap="butt" transform="translate(233,240)" stroke-miterlimit="0" stroke-opacity="1" fill="black" font-weight="bold" font-family="sans-serif" stroke-linejoin="round" font-size="11px" image-rendering="optimizeQuality"
    ><path fill="none" d="M22 0 L22 9 L16 17 L0 17 L0 0 Z" clip-path="url(#clipPath6)"
    /></g
    ><g font-size="11px" transform="translate(233,240)" fill-opacity="1" fill="black" text-rendering="geometricPrecision" image-rendering="optimizeQuality" font-family="sans-serif" stroke="black" font-weight="bold" stroke-opacity="1"
    ><text x="5" xml:space="preserve" y="12" clip-path="url(#clipPath4)" stroke="none"
      >alt</text
    ></g
    ><g transform="translate(474,2)" fill-opacity="1" fill="rgb(122,207,245)" text-rendering="geometricPrecision" image-rendering="optimizeQuality" font-family="sans-serif" stroke="rgb(122,207,245)" stroke-opacity="1"
    ><polygon points=" 0 0 289 0 304 15 289 15 289 0 304 15 304 57 0 57" stroke="none" clip-path="url(#clipPath7)"
    /></g
    ><g stroke-linecap="butt" transform="translate(474,2)" fill-opacity="1" fill="black" text-rendering="geometricPrecision" image-rendering="optimizeQuality" font-family="sans-serif" stroke-linejoin="round" stroke="black" stroke-opacity="1" stroke-miterlimit="0"
    ><polygon fill="none" points=" 0 0 289 0 304 15 289 15 289 0 304 15 304 57 0 57" clip-path="url(#clipPath7)"
    /></g
    ><g font-size="11px" transform="translate(474,2)" fill-opacity="1" fill="black" text-rendering="geometricPrecision" image-rendering="optimizeQuality" font-family="'Tahoma'" stroke="black" stroke-opacity="1"
    ><path d="M3.9219 15.457 L3.9219 6.8633 L6.8906 6.8633 Q7.8906 6.8633 8.4219 6.9883 Q9.1562 7.1602 9.6719 7.5977 Q10.3594 8.1758 10.6875 9.082 Q11.0312 9.9727 11.0312 11.1133 Q11.0312 12.0977 10.7969 12.8477 Q10.5781 13.5977 10.2188 14.0977 Q9.8594 14.5977 9.4219 14.8789 Q9 15.1602 8.4062 15.3164 Q7.8125 15.457 7.0312 15.457 L3.9219 15.457 ZM5.0625 14.4414 L6.8906 14.4414 Q7.75 14.4414 8.2344 14.2852 Q8.7188 14.1289 9 13.832 Q9.4062 13.4414 9.625 12.7539 Q9.8594 12.0664 9.8594 11.0977 Q9.8594 9.7539 9.4062 9.0352 Q8.9688 8.3008 8.3438 8.0508 Q7.875 7.8789 6.875 7.8789 L5.0625 7.8789 L5.0625 14.4414 ZM17.0469 13.457 L18.1406 13.582 Q17.8906 14.5352 17.1875 15.0664 Q16.4844 15.5977 15.4062 15.5977 Q14.0469 15.5977 13.2344 14.7539 Q12.4375 13.9102 12.4375 12.3945 Q12.4375 10.832 13.25 9.9727 Q14.0625 9.0977 15.3438 9.0977 Q16.5938 9.0977 17.375 9.9414 Q18.1719 10.7852 18.1719 12.332 Q18.1719 12.4258 18.1719 12.6133 L13.5312 12.6133 Q13.5938 13.6445 14.1094 14.1914 Q14.625 14.7227 15.4062 14.7227 Q15.9844 14.7227 16.3906 14.4258 Q16.8125 14.1133 17.0469 13.457 ZM13.5938 11.7539 L17.0625 11.7539 Q17 10.957 16.6719 10.5664 Q16.1562 9.957 15.3594 9.957 Q14.625 9.957 14.125 10.4414 Q13.6406 10.9258 13.5938 11.7539 ZM21.5156 15.457 L19.1562 9.2383 L20.2656 9.2383 L21.6094 12.957 Q21.8125 13.5664 22 14.207 Q22.1406 13.7227 22.3906 13.0352 L23.7812 9.2383 L24.8594 9.2383 L22.5 15.457 L21.5156 15.457 ZM30.0469 13.457 L31.1406 13.582 Q30.8906 14.5352 30.1875 15.0664 Q29.4844 15.5977 28.4062 15.5977 Q27.0469 15.5977 26.2344 14.7539 Q25.4375 13.9102 25.4375 12.3945 Q25.4375 10.832 26.25 9.9727 Q27.0625 9.0977 28.3438 9.0977 Q29.5938 9.0977 30.375 9.9414 Q31.1719 10.7852 31.1719 12.332 Q31.1719 12.4258 31.1719 12.6133 L26.5312 12.6133 Q26.5938 13.6445 27.1094 14.1914 Q27.625 14.7227 28.4062 14.7227 Q28.9844 14.7227 29.3906 14.4258 Q29.8125 14.1133 30.0469 13.457 ZM26.5938 11.7539 L30.0625 11.7539 Q30 10.957 29.6719 10.5664 Q29.1562 9.957 28.3594 9.957 Q27.625 9.957 27.125 10.4414 Q26.6406 10.9258 26.5938 11.7539 ZM32.7812 15.457 L32.7812 9.2383 L33.7344 9.2383 L33.7344 10.1758 Q34.0938 9.5195 34.3906 9.3164 Q34.7031 9.0977 35.0781 9.0977 Q35.6094 9.0977 36.1562 9.4258 L35.7969 10.4102 Q35.4062 10.1758 35.0312 10.1758 Q34.6719 10.1758 34.3906 10.3945 Q34.125 10.5977 34.0156 10.9727 Q33.8281 11.5352 33.8281 12.1914 L33.8281 15.457 L32.7812 15.457 ZM40.8594 14.6914 Q40.2656 15.1914 39.7188 15.3945 Q39.1875 15.5977 38.5625 15.5977 Q37.5312 15.5977 36.9844 15.0977 Q36.4375 14.5977 36.4375 13.8164 Q36.4375 13.3633 36.6406 12.9883 Q36.8438 12.5977 37.1875 12.3789 Q37.5312 12.1445 37.9531 12.0352 Q38.25 11.9414 38.8906 11.8633 Q40.1562 11.7227 40.7656 11.5039 Q40.7656 11.2852 40.7656 11.2383 Q40.7656 10.582 40.4688 10.3164 Q40.0625 9.9727 39.2656 9.9727 Q38.5312 9.9727 38.1719 10.2383 Q37.8125 10.4883 37.6406 11.1445 L36.6094 11.0039 Q36.75 10.3477 37.0781 9.9414 Q37.4062 9.5352 38.0156 9.3164 Q38.625 9.0977 39.4219 9.0977 Q40.2188 9.0977 40.7188 9.2852 Q41.2188 9.4727 41.4531 9.7539 Q41.6875 10.0352 41.7812 10.4727 Q41.8281 10.7383 41.8281 11.4414 L41.8281 12.8477 Q41.8281 14.3164 41.8906 14.707 Q41.9688 15.0977 42.1719 15.457 L41.0625 15.457 Q40.9062 15.1289 40.8594 14.6914 ZM40.7656 12.332 Q40.1875 12.5664 39.0469 12.7383 Q38.3906 12.832 38.125 12.957 Q37.8594 13.0664 37.7031 13.2852 Q37.5625 13.5039 37.5625 13.7852 Q37.5625 14.207 37.875 14.4883 Q38.2031 14.7695 38.8125 14.7695 Q39.4219 14.7695 39.8906 14.5039 Q40.375 14.2383 40.5938 13.7695 Q40.7656 13.4102 40.7656 12.7227 L40.7656 12.332 ZM38.7031 8.457 L39.4844 6.8164 L40.875 6.8164 L39.5781 8.457 L38.7031 8.457 ZM46.375 13.5977 L47.4062 13.4414 Q47.5 14.0664 47.8906 14.3945 Q48.2969 14.7227 49.0312 14.7227 Q49.75 14.7227 50.0938 14.4414 Q50.4531 14.1445 50.4531 13.7383 Q50.4531 13.3789 50.1406 13.1758 Q49.9219 13.0352 49.0625 12.8164 Q47.9062 12.5195 47.4531 12.3164 Q47.0156 12.0977 46.7812 11.7227 Q46.5469 11.3477 46.5469 10.8789 Q46.5469 10.4727 46.7344 10.1133 Q46.9219 9.7539 47.25 9.5195 Q47.5 9.3477 47.9219 9.2227 Q48.3438 9.0977 48.8438 9.0977 Q49.5625 9.0977 50.1094 9.3164 Q50.6719 9.5195 50.9375 9.8789 Q51.2031 10.2383 51.2969 10.832 L50.2656 10.9727 Q50.2031 10.5039 49.8594 10.2383 Q49.5312 9.957 48.9062 9.957 Q48.1875 9.957 47.875 10.207 Q47.5625 10.4414 47.5625 10.7695 Q47.5625 10.9727 47.6875 11.1289 Q47.8281 11.3008 48.0938 11.4102 Q48.25 11.4727 49.0312 11.6758 Q50.1562 11.9883 50.5938 12.1758 Q51.0312 12.3633 51.2812 12.7227 Q51.5312 13.082 51.5312 13.6289 Q51.5312 14.1602 51.2188 14.6289 Q50.9219 15.082 50.3438 15.3477 Q49.7656 15.5977 49.0312 15.5977 Q47.8125 15.5977 47.1719 15.0977 Q46.5469 14.582 46.375 13.5977 ZM57.0469 13.457 L58.1406 13.582 Q57.8906 14.5352 57.1875 15.0664 Q56.4844 15.5977 55.4062 15.5977 Q54.0469 15.5977 53.2344 14.7539 Q52.4375 13.9102 52.4375 12.3945 Q52.4375 10.832 53.25 9.9727 Q54.0625 9.0977 55.3438 9.0977 Q56.5938 9.0977 57.375 9.9414 Q58.1719 10.7852 58.1719 12.332 Q58.1719 12.4258 58.1719 12.6133 L53.5312 12.6133 Q53.5938 13.6445 54.1094 14.1914 Q54.625 14.7227 55.4062 14.7227 Q55.9844 14.7227 56.3906 14.4258 Q56.8125 14.1133 57.0469 13.457 ZM53.5938 11.7539 L57.0625 11.7539 Q57 10.957 56.6719 10.5664 Q56.1562 9.957 55.3594 9.957 Q54.625 9.957 54.125 10.4414 Q53.6406 10.9258 53.5938 11.7539 ZM59.7812 15.457 L59.7812 9.2383 L60.7344 9.2383 L60.7344 10.1758 Q61.0938 9.5195 61.3906 9.3164 Q61.7031 9.0977 62.0781 9.0977 Q62.6094 9.0977 63.1562 9.4258 L62.7969 10.4102 Q62.4062 10.1758 62.0312 10.1758 Q61.6719 10.1758 61.3906 10.3945 Q61.125 10.5977 61.0156 10.9727 Q60.8281 11.5352 60.8281 12.1914 L60.8281 15.457 L59.7812 15.457 ZM70.8594 13.1758 L71.8906 13.3164 Q71.7188 14.3789 71.0156 14.9883 Q70.3125 15.5977 69.2969 15.5977 Q68.0156 15.5977 67.2344 14.7695 Q66.4688 13.9258 66.4688 12.3633 Q66.4688 11.3633 66.7969 10.6133 Q67.1406 9.8477 67.8125 9.4727 Q68.5 9.0977 69.3125 9.0977 Q70.3125 9.0977 70.9531 9.6133 Q71.6094 10.1133 71.7969 11.0664 L70.7656 11.2227 Q70.625 10.5977 70.25 10.2852 Q69.875 9.957 69.3438 9.957 Q68.5469 9.957 68.0469 10.5352 Q67.5469 11.0977 67.5469 12.332 Q67.5469 13.5977 68.0312 14.1602 Q68.5156 14.7227 69.2812 14.7227 Q69.9062 14.7227 70.3125 14.3477 Q70.7344 13.9727 70.8594 13.1758 ZM72.4062 12.3477 Q72.4062 10.6133 73.3594 9.7852 Q74.1562 9.0977 75.3125 9.0977 Q76.5938 9.0977 77.4062 9.9414 Q78.2344 10.7695 78.2344 12.2539 Q78.2344 13.457 77.875 14.1445 Q77.5156 14.832 76.8125 15.2227 Q76.125 15.5977 75.3125 15.5977 Q74.0156 15.5977 73.2031 14.7695 Q72.4062 13.9258 72.4062 12.3477 ZM73.4844 12.3477 Q73.4844 13.5352 74 14.1289 Q74.5312 14.7227 75.3125 14.7227 Q76.1094 14.7227 76.625 14.1289 Q77.1406 13.5352 77.1406 12.3164 Q77.1406 11.1602 76.6094 10.5664 Q76.0938 9.9727 75.3125 9.9727 Q74.5312 9.9727 74 10.5664 Q73.4844 11.1445 73.4844 12.3477 ZM79.7969 15.457 L79.7969 9.2383 L80.7344 9.2383 L80.7344 10.1133 Q81.4219 9.0977 82.7188 9.0977 Q83.2812 9.0977 83.75 9.3008 Q84.2344 9.5039 84.4688 9.832 Q84.7031 10.1602 84.7969 10.5977 Q84.8438 10.8945 84.8438 11.6289 L84.8438 15.457 L83.7969 15.457 L83.7969 11.6758 Q83.7969 11.0195 83.6719 10.707 Q83.5469 10.3945 83.2344 10.207 Q82.9219 10.0039 82.5 10.0039 Q81.8281 10.0039 81.3281 10.4414 Q80.8438 10.8633 80.8438 12.0508 L80.8438 15.457 L79.7969 15.457 ZM86.375 13.5977 L87.4062 13.4414 Q87.5 14.0664 87.8906 14.3945 Q88.2969 14.7227 89.0312 14.7227 Q89.75 14.7227 90.0938 14.4414 Q90.4531 14.1445 90.4531 13.7383 Q90.4531 13.3789 90.1406 13.1758 Q89.9219 13.0352 89.0625 12.8164 Q87.9062 12.5195 87.4531 12.3164 Q87.0156 12.0977 86.7812 11.7227 Q86.5469 11.3477 86.5469 10.8789 Q86.5469 10.4727 86.7344 10.1133 Q86.9219 9.7539 87.25 9.5195 Q87.5 9.3477 87.9219 9.2227 Q88.3438 9.0977 88.8438 9.0977 Q89.5625 9.0977 90.1094 9.3164 Q90.6719 9.5195 90.9375 9.8789 Q91.2031 10.2383 91.2969 10.832 L90.2656 10.9727 Q90.2031 10.5039 89.8594 10.2383 Q89.5312 9.957 88.9062 9.957 Q88.1875 9.957 87.875 10.207 Q87.5625 10.4414 87.5625 10.7695 Q87.5625 10.9727 87.6875 11.1289 Q87.8281 11.3008 88.0938 11.4102 Q88.25 11.4727 89.0312 11.6758 Q90.1562 11.9883 90.5938 12.1758 Q91.0312 12.3633 91.2812 12.7227 Q91.5312 13.082 91.5312 13.6289 Q91.5312 14.1602 91.2188 14.6289 Q90.9219 15.082 90.3438 15.3477 Q89.7656 15.5977 89.0312 15.5977 Q87.8125 15.5977 87.1719 15.0977 Q86.5469 14.582 86.375 13.5977 ZM92.7969 8.082 L92.7969 6.8633 L93.8594 6.8633 L93.8594 8.082 L92.7969 8.082 ZM92.7969 15.457 L92.7969 9.2383 L93.8594 9.2383 L93.8594 15.457 L92.7969 15.457 ZM99.8281 15.457 L99.8281 14.6758 Q99.2344 15.5977 98.0938 15.5977 Q97.3438 15.5977 96.7188 15.1914 Q96.0938 14.7695 95.75 14.0352 Q95.4062 13.3008 95.4062 12.3477 Q95.4062 11.4258 95.7188 10.6602 Q96.0312 9.8945 96.6562 9.5039 Q97.2812 9.0977 98.0469 9.0977 Q98.6094 9.0977 99.0469 9.332 Q99.4844 9.5664 99.7656 9.9414 L99.7656 6.8633 L100.8125 6.8633 L100.8125 15.457 L99.8281 15.457 ZM96.5 12.3477 Q96.5 13.5508 97 14.1445 Q97.5 14.7227 98.1875 14.7227 Q98.875 14.7227 99.3594 14.1602 Q99.8438 13.5977 99.8438 12.4414 Q99.8438 11.1602 99.3438 10.5664 Q98.8594 9.9727 98.1406 9.9727 Q97.4375 9.9727 96.9688 10.5508 Q96.5 11.1133 96.5 12.3477 ZM107.0469 13.457 L108.1406 13.582 Q107.8906 14.5352 107.1875 15.0664 Q106.4844 15.5977 105.4062 15.5977 Q104.0469 15.5977 103.2344 14.7539 Q102.4375 13.9102 102.4375 12.3945 Q102.4375 10.832 103.25 9.9727 Q104.0625 9.0977 105.3438 9.0977 Q106.5938 9.0977 107.375 9.9414 Q108.1719 10.7852 108.1719 12.332 Q108.1719 12.4258 108.1719 12.6133 L103.5312 12.6133 Q103.5938 13.6445 104.1094 14.1914 Q104.625 14.7227 105.4062 14.7227 Q105.9844 14.7227 106.3906 14.4258 Q106.8125 14.1133 107.0469 13.457 ZM103.5938 11.7539 L107.0625 11.7539 Q107 10.957 106.6719 10.5664 Q106.1562 9.957 105.3594 9.957 Q104.625 9.957 104.125 10.4414 Q103.6406 10.9258 103.5938 11.7539 ZM109.7812 15.457 L109.7812 9.2383 L110.7344 9.2383 L110.7344 10.1758 Q111.0938 9.5195 111.3906 9.3164 Q111.7031 9.0977 112.0781 9.0977 Q112.6094 9.0977 113.1562 9.4258 L112.7969 10.4102 Q112.4062 10.1758 112.0312 10.1758 Q111.6719 10.1758 111.3906 10.3945 Q111.125 10.5977 111.0156 10.9727 Q110.8281 11.5352 110.8281 12.1914 L110.8281 15.457 L109.7812 15.457 ZM117.8594 14.6914 Q117.2656 15.1914 116.7188 15.3945 Q116.1875 15.5977 115.5625 15.5977 Q114.5312 15.5977 113.9844 15.0977 Q113.4375 14.5977 113.4375 13.8164 Q113.4375 13.3633 113.6406 12.9883 Q113.8438 12.5977 114.1875 12.3789 Q114.5312 12.1445 114.9531 12.0352 Q115.25 11.9414 115.8906 11.8633 Q117.1562 11.7227 117.7656 11.5039 Q117.7656 11.2852 117.7656 11.2383 Q117.7656 10.582 117.4688 10.3164 Q117.0625 9.9727 116.2656 9.9727 Q115.5312 9.9727 115.1719 10.2383 Q114.8125 10.4883 114.6406 11.1445 L113.6094 11.0039 Q113.75 10.3477 114.0781 9.9414 Q114.4062 9.5352 115.0156 9.3164 Q115.625 9.0977 116.4219 9.0977 Q117.2188 9.0977 117.7188 9.2852 Q118.2188 9.4727 118.4531 9.7539 Q118.6875 10.0352 118.7812 10.4727 Q118.8281 10.7383 118.8281 11.4414 L118.8281 12.8477 Q118.8281 14.3164 118.8906 14.707 Q118.9688 15.0977 119.1719 15.457 L118.0625 15.457 Q117.9062 15.1289 117.8594 14.6914 ZM117.7656 12.332 Q117.1875 12.5664 116.0469 12.7383 Q115.3906 12.832 115.125 12.957 Q114.8594 13.0664 114.7031 13.2852 Q114.5625 13.5039 114.5625 13.7852 Q114.5625 14.207 114.875 14.4883 Q115.2031 14.7695 115.8125 14.7695 Q116.4219 14.7695 116.8906 14.5039 Q117.375 14.2383 117.5938 13.7695 Q117.7656 13.4102 117.7656 12.7227 L117.7656 12.332 ZM124.8281 15.457 L124.8281 14.6758 Q124.2344 15.5977 123.0938 15.5977 Q122.3438 15.5977 121.7188 15.1914 Q121.0938 14.7695 120.75 14.0352 Q120.4062 13.3008 120.4062 12.3477 Q120.4062 11.4258 120.7188 10.6602 Q121.0312 9.8945 121.6562 9.5039 Q122.2812 9.0977 123.0469 9.0977 Q123.6094 9.0977 124.0469 9.332 Q124.4844 9.5664 124.7656 9.9414 L124.7656 6.8633 L125.8125 6.8633 L125.8125 15.457 L124.8281 15.457 ZM121.5 12.3477 Q121.5 13.5508 122 14.1445 Q122.5 14.7227 123.1875 14.7227 Q123.875 14.7227 124.3594 14.1602 Q124.8438 13.5977 124.8438 12.4414 Q124.8438 11.1602 124.3438 10.5664 Q123.8594 9.9727 123.1406 9.9727 Q122.4375 9.9727 121.9688 10.5508 Q121.5 11.1133 121.5 12.3477 ZM127.4062 12.3477 Q127.4062 10.6133 128.3594 9.7852 Q129.1562 9.0977 130.3125 9.0977 Q131.5938 9.0977 132.4062 9.9414 Q133.2344 10.7695 133.2344 12.2539 Q133.2344 13.457 132.875 14.1445 Q132.5156 14.832 131.8125 15.2227 Q131.125 15.5977 130.3125 15.5977 Q129.0156 15.5977 128.2031 14.7695 Q127.4062 13.9258 127.4062 12.3477 ZM128.4844 12.3477 Q128.4844 13.5352 129 14.1289 Q129.5312 14.7227 130.3125 14.7227 Q131.1094 14.7227 131.625 14.1289 Q132.1406 13.5352 132.1406 12.3164 Q132.1406 11.1602 131.6094 10.5664 Q131.0938 9.9727 130.3125 9.9727 Q129.5312 9.9727 129 10.5664 Q128.4844 11.1445 128.4844 12.3477 ZM140.0938 14.5195 L140.25 15.4414 Q139.7969 15.5352 139.4531 15.5352 Q138.875 15.5352 138.5625 15.3633 Q138.25 15.1758 138.1094 14.8789 Q137.9844 14.582 137.9844 13.6289 L137.9844 10.0508 L137.2188 10.0508 L137.2188 9.2383 L137.9844 9.2383 L137.9844 7.6914 L139.0312 7.0664 L139.0312 9.2383 L140.0938 9.2383 L140.0938 10.0508 L139.0312 10.0508 L139.0312 13.6914 Q139.0312 14.1445 139.0781 14.2695 Q139.1406 14.3945 139.2656 14.4727 Q139.3906 14.5508 139.625 14.5508 Q139.8125 14.5508 140.0938 14.5195 ZM144.8594 14.6914 Q144.2656 15.1914 143.7188 15.3945 Q143.1875 15.5977 142.5625 15.5977 Q141.5312 15.5977 140.9844 15.0977 Q140.4375 14.5977 140.4375 13.8164 Q140.4375 13.3633 140.6406 12.9883 Q140.8438 12.5977 141.1875 12.3789 Q141.5312 12.1445 141.9531 12.0352 Q142.25 11.9414 142.8906 11.8633 Q144.1562 11.7227 144.7656 11.5039 Q144.7656 11.2852 144.7656 11.2383 Q144.7656 10.582 144.4688 10.3164 Q144.0625 9.9727 143.2656 9.9727 Q142.5312 9.9727 142.1719 10.2383 Q141.8125 10.4883 141.6406 11.1445 L140.6094 11.0039 Q140.75 10.3477 141.0781 9.9414 Q141.4062 9.5352 142.0156 9.3164 Q142.625 9.0977 143.4219 9.0977 Q144.2188 9.0977 144.7188 9.2852 Q145.2188 9.4727 145.4531 9.7539 Q145.6875 10.0352 145.7812 10.4727 Q145.8281 10.7383 145.8281 11.4414 L145.8281 12.8477 Q145.8281 14.3164 145.8906 14.707 Q145.9688 15.0977 146.1719 15.457 L145.0625 15.457 Q144.9062 15.1289 144.8594 14.6914 ZM144.7656 12.332 Q144.1875 12.5664 143.0469 12.7383 Q142.3906 12.832 142.125 12.957 Q141.8594 13.0664 141.7031 13.2852 Q141.5625 13.5039 141.5625 13.7852 Q141.5625 14.207 141.875 14.4883 Q142.2031 14.7695 142.8125 14.7695 Q143.4219 14.7695 143.8906 14.5039 Q144.375 14.2383 144.5938 13.7695 Q144.7656 13.4102 144.7656 12.7227 L144.7656 12.332 ZM147.7969 15.457 L147.7969 9.2383 L148.7344 9.2383 L148.7344 10.1133 Q149.0312 9.6445 149.5156 9.3789 Q150 9.0977 150.625 9.0977 Q151.3125 9.0977 151.75 9.3789 Q152.2031 9.6602 152.375 10.1758 Q153.125 9.0977 154.2969 9.0977 Q155.2344 9.0977 155.7188 9.6133 Q156.2188 10.1133 156.2188 11.1914 L156.2188 15.457 L155.1719 15.457 L155.1719 11.5352 Q155.1719 10.9102 155.0625 10.6289 Q154.9688 10.3477 154.7031 10.1758 Q154.4375 10.0039 154.0625 10.0039 Q153.4062 10.0039 152.9688 10.4414 Q152.5469 10.8789 152.5469 11.8477 L152.5469 15.457 L151.4844 15.457 L151.4844 11.4102 Q151.4844 10.707 151.2188 10.3633 Q150.9688 10.0039 150.3906 10.0039 Q149.9375 10.0039 149.5625 10.2383 Q149.1875 10.4727 149.0156 10.9258 Q148.8438 11.3789 148.8438 12.2227 L148.8438 15.457 L147.7969 15.457 ZM158.7656 15.457 L157.7812 15.457 L157.7812 6.8633 L158.8438 6.8633 L158.8438 9.9258 Q159.5156 9.0977 160.5469 9.0977 Q161.125 9.0977 161.625 9.332 Q162.1406 9.5508 162.4688 9.9727 Q162.8125 10.3945 163 10.9883 Q163.1875 11.582 163.1875 12.2539 Q163.1875 13.8477 162.3906 14.7227 Q161.5938 15.5977 160.5 15.5977 Q159.3906 15.5977 158.7656 14.6758 L158.7656 15.457 ZM158.75 12.3008 Q158.75 13.4102 159.0625 13.9102 Q159.5625 14.7227 160.4062 14.7227 Q161.0938 14.7227 161.5938 14.1289 Q162.1094 13.5352 162.1094 12.332 Q162.1094 11.1133 161.625 10.5352 Q161.1406 9.957 160.4531 9.957 Q159.7656 9.957 159.25 10.5664 Q158.75 11.1602 158.75 12.3008 ZM169.0469 13.457 L170.1406 13.582 Q169.8906 14.5352 169.1875 15.0664 Q168.4844 15.5977 167.4062 15.5977 Q166.0469 15.5977 165.2344 14.7539 Q164.4375 13.9102 164.4375 12.3945 Q164.4375 10.832 165.25 9.9727 Q166.0625 9.0977 167.3438 9.0977 Q168.5938 9.0977 169.375 9.9414 Q170.1719 10.7852 170.1719 12.332 Q170.1719 12.4258 170.1719 12.6133 L165.5312 12.6133 Q165.5938 13.6445 166.1094 14.1914 Q166.625 14.7227 167.4062 14.7227 Q167.9844 14.7227 168.3906 14.4258 Q168.8125 14.1133 169.0469 13.457 ZM165.5938 11.7539 L169.0625 11.7539 Q169 10.957 168.6719 10.5664 Q168.1562 9.957 167.3594 9.957 Q166.625 9.957 166.125 10.4414 Q165.6406 10.9258 165.5938 11.7539 ZM166.7188 8.457 L167.5 6.8164 L168.8906 6.8164 L167.5938 8.457 L166.7188 8.457 ZM171.7969 15.457 L171.7969 9.2383 L172.7344 9.2383 L172.7344 10.1133 Q173.0312 9.6445 173.5156 9.3789 Q174 9.0977 174.625 9.0977 Q175.3125 9.0977 175.75 9.3789 Q176.2031 9.6602 176.375 10.1758 Q177.125 9.0977 178.2969 9.0977 Q179.2344 9.0977 179.7188 9.6133 Q180.2188 10.1133 180.2188 11.1914 L180.2188 15.457 L179.1719 15.457 L179.1719 11.5352 Q179.1719 10.9102 179.0625 10.6289 Q178.9688 10.3477 178.7031 10.1758 Q178.4375 10.0039 178.0625 10.0039 Q177.4062 10.0039 176.9688 10.4414 Q176.5469 10.8789 176.5469 11.8477 L176.5469 15.457 L175.4844 15.457 L175.4844 11.4102 Q175.4844 10.707 175.2188 10.3633 Q174.9688 10.0039 174.3906 10.0039 Q173.9375 10.0039 173.5625 10.2383 Q173.1875 10.4727 173.0156 10.9258 Q172.8438 11.3789 172.8438 12.2227 L172.8438 15.457 L171.7969 15.457 ZM188.7656 17.8477 L188.7656 14.8008 Q188.5156 15.1445 188.0625 15.3789 Q187.625 15.5977 187.125 15.5977 Q186.0156 15.5977 185.2188 14.7227 Q184.4219 13.832 184.4219 12.2852 Q184.4219 11.3477 184.75 10.6133 Q185.0781 9.8633 185.6875 9.4883 Q186.3125 9.0977 187.0469 9.0977 Q188.2031 9.0977 188.8594 10.0664 L188.8594 9.2383 L189.8125 9.2383 L189.8125 17.8477 L188.7656 17.8477 ZM185.5 12.332 Q185.5 13.5352 186 14.1289 Q186.5156 14.7227 187.2188 14.7227 Q187.8906 14.7227 188.375 14.1602 Q188.8594 13.582 188.8594 12.4258 Q188.8594 11.1758 188.3438 10.5508 Q187.8438 9.9258 187.1406 9.9258 Q186.4688 9.9258 185.9844 10.5195 Q185.5 11.0977 185.5 12.332 ZM195.875 15.457 L195.875 14.5352 Q195.1406 15.5977 193.8906 15.5977 Q193.3438 15.5977 192.8594 15.3945 Q192.3906 15.1758 192.1562 14.8633 Q191.9219 14.5352 191.8281 14.0664 Q191.7656 13.7695 191.7656 13.082 L191.7656 9.2383 L192.8281 9.2383 L192.8281 12.6914 Q192.8281 13.5039 192.8906 13.8008 Q192.9844 14.207 193.2969 14.457 Q193.625 14.6914 194.1094 14.6914 Q194.5781 14.6914 194.9844 14.457 Q195.4062 14.207 195.5781 13.7852 Q195.7656 13.3633 195.7656 12.5664 L195.7656 9.2383 L196.8125 9.2383 L196.8125 15.457 L195.875 15.457 ZM203.0469 13.457 L204.1406 13.582 Q203.8906 14.5352 203.1875 15.0664 Q202.4844 15.5977 201.4062 15.5977 Q200.0469 15.5977 199.2344 14.7539 Q198.4375 13.9102 198.4375 12.3945 Q198.4375 10.832 199.25 9.9727 Q200.0625 9.0977 201.3438 9.0977 Q202.5938 9.0977 203.375 9.9414 Q204.1719 10.7852 204.1719 12.332 Q204.1719 12.4258 204.1719 12.6133 L199.5312 12.6133 Q199.5938 13.6445 200.1094 14.1914 Q200.625 14.7227 201.4062 14.7227 Q201.9844 14.7227 202.3906 14.4258 Q202.8125 14.1133 203.0469 13.457 ZM199.5938 11.7539 L203.0625 11.7539 Q203 10.957 202.6719 10.5664 Q202.1562 9.957 201.3594 9.957 Q200.625 9.957 200.125 10.4414 Q199.6406 10.9258 199.5938 11.7539 ZM212.8594 14.6914 Q212.2656 15.1914 211.7188 15.3945 Q211.1875 15.5977 210.5625 15.5977 Q209.5312 15.5977 208.9844 15.0977 Q208.4375 14.5977 208.4375 13.8164 Q208.4375 13.3633 208.6406 12.9883 Q208.8438 12.5977 209.1875 12.3789 Q209.5312 12.1445 209.9531 12.0352 Q210.25 11.9414 210.8906 11.8633 Q212.1562 11.7227 212.7656 11.5039 Q212.7656 11.2852 212.7656 11.2383 Q212.7656 10.582 212.4688 10.3164 Q212.0625 9.9727 211.2656 9.9727 Q210.5312 9.9727 210.1719 10.2383 Q209.8125 10.4883 209.6406 11.1445 L208.6094 11.0039 Q208.75 10.3477 209.0781 9.9414 Q209.4062 9.5352 210.0156 9.3164 Q210.625 9.0977 211.4219 9.0977 Q212.2188 9.0977 212.7188 9.2852 Q213.2188 9.4727 213.4531 9.7539 Q213.6875 10.0352 213.7812 10.4727 Q213.8281 10.7383 213.8281 11.4414 L213.8281 12.8477 Q213.8281 14.3164 213.8906 14.707 Q213.9688 15.0977 214.1719 15.457 L213.0625 15.457 Q212.9062 15.1289 212.8594 14.6914 ZM212.7656 12.332 Q212.1875 12.5664 211.0469 12.7383 Q210.3906 12.832 210.125 12.957 Q209.8594 13.0664 209.7031 13.2852 Q209.5625 13.5039 209.5625 13.7852 Q209.5625 14.207 209.875 14.4883 Q210.2031 14.7695 210.8125 14.7695 Q211.4219 14.7695 211.8906 14.5039 Q212.375 14.2383 212.5938 13.7695 Q212.7656 13.4102 212.7656 12.7227 L212.7656 12.332 ZM222.8281 15.457 L222.8281 14.6758 Q222.2344 15.5977 221.0938 15.5977 Q220.3438 15.5977 219.7188 15.1914 Q219.0938 14.7695 218.75 14.0352 Q218.4062 13.3008 218.4062 12.3477 Q218.4062 11.4258 218.7188 10.6602 Q219.0312 9.8945 219.6562 9.5039 Q220.2812 9.0977 221.0469 9.0977 Q221.6094 9.0977 222.0469 9.332 Q222.4844 9.5664 222.7656 9.9414 L222.7656 6.8633 L223.8125 6.8633 L223.8125 15.457 L222.8281 15.457 ZM219.5 12.3477 Q219.5 13.5508 220 14.1445 Q220.5 14.7227 221.1875 14.7227 Q221.875 14.7227 222.3594 14.1602 Q222.8438 13.5977 222.8438 12.4414 Q222.8438 11.1602 222.3438 10.5664 Q221.8594 9.9727 221.1406 9.9727 Q220.4375 9.9727 219.9688 10.5508 Q219.5 11.1133 219.5 12.3477 ZM229.8594 14.6914 Q229.2656 15.1914 228.7188 15.3945 Q228.1875 15.5977 227.5625 15.5977 Q226.5312 15.5977 225.9844 15.0977 Q225.4375 14.5977 225.4375 13.8164 Q225.4375 13.3633 225.6406 12.9883 Q225.8438 12.5977 226.1875 12.3789 Q226.5312 12.1445 226.9531 12.0352 Q227.25 11.9414 227.8906 11.8633 Q229.1562 11.7227 229.7656 11.5039 Q229.7656 11.2852 229.7656 11.2383 Q229.7656 10.582 229.4688 10.3164 Q229.0625 9.9727 228.2656 9.9727 Q227.5312 9.9727 227.1719 10.2383 Q226.8125 10.4883 226.6406 11.1445 L225.6094 11.0039 Q225.75 10.3477 226.0781 9.9414 Q226.4062 9.5352 227.0156 9.3164 Q227.625 9.0977 228.4219 9.0977 Q229.2188 9.0977 229.7188 9.2852 Q230.2188 9.4727 230.4531 9.7539 Q230.6875 10.0352 230.7812 10.4727 Q230.8281 10.7383 230.8281 11.4414 L230.8281 12.8477 Q230.8281 14.3164 230.8906 14.707 Q230.9688 15.0977 231.1719 15.457 L230.0625 15.457 Q229.9062 15.1289 229.8594 14.6914 ZM229.7656 12.332 Q229.1875 12.5664 228.0469 12.7383 Q227.3906 12.832 227.125 12.957 Q226.8594 13.0664 226.7031 13.2852 Q226.5625 13.5039 226.5625 13.7852 Q226.5625 14.207 226.875 14.4883 Q227.2031 14.7695 227.8125 14.7695 Q228.4219 14.7695 228.8906 14.5039 Q229.375 14.2383 229.5938 13.7695 Q229.7656 13.4102 229.7656 12.7227 L229.7656 12.332 ZM235.0938 14.5195 L235.25 15.4414 Q234.7969 15.5352 234.4531 15.5352 Q233.875 15.5352 233.5625 15.3633 Q233.25 15.1758 233.1094 14.8789 Q232.9844 14.582 232.9844 13.6289 L232.9844 10.0508 L232.2188 10.0508 L232.2188 9.2383 L232.9844 9.2383 L232.9844 7.6914 L234.0312 7.0664 L234.0312 9.2383 L235.0938 9.2383 L235.0938 10.0508 L234.0312 10.0508 L234.0312 13.6914 Q234.0312 14.1445 234.0781 14.2695 Q234.1406 14.3945 234.2656 14.4727 Q234.3906 14.5508 234.625 14.5508 Q234.8125 14.5508 235.0938 14.5195 ZM239.8594 14.6914 Q239.2656 15.1914 238.7188 15.3945 Q238.1875 15.5977 237.5625 15.5977 Q236.5312 15.5977 235.9844 15.0977 Q235.4375 14.5977 235.4375 13.8164 Q235.4375 13.3633 235.6406 12.9883 Q235.8438 12.5977 236.1875 12.3789 Q236.5312 12.1445 236.9531 12.0352 Q237.25 11.9414 237.8906 11.8633 Q239.1562 11.7227 239.7656 11.5039 Q239.7656 11.2852 239.7656 11.2383 Q239.7656 10.582 239.4688 10.3164 Q239.0625 9.9727 238.2656 9.9727 Q237.5312 9.9727 237.1719 10.2383 Q236.8125 10.4883 236.6406 11.1445 L235.6094 11.0039 Q235.75 10.3477 236.0781 9.9414 Q236.4062 9.5352 237.0156 9.3164 Q237.625 9.0977 238.4219 9.0977 Q239.2188 9.0977 239.7188 9.2852 Q240.2188 9.4727 240.4531 9.7539 Q240.6875 10.0352 240.7812 10.4727 Q240.8281 10.7383 240.8281 11.4414 L240.8281 12.8477 Q240.8281 14.3164 240.8906 14.707 Q240.9688 15.0977 241.1719 15.457 L240.0625 15.457 Q239.9062 15.1289 239.8594 14.6914 ZM239.7656 12.332 Q239.1875 12.5664 238.0469 12.7383 Q237.3906 12.832 237.125 12.957 Q236.8594 13.0664 236.7031 13.2852 Q236.5625 13.5039 236.5625 13.7852 Q236.5625 14.207 236.875 14.4883 Q237.2031 14.7695 237.8125 14.7695 Q238.4219 14.7695 238.8906 14.5039 Q239.375 14.2383 239.5938 13.7695 Q239.7656 13.4102 239.7656 12.7227 L239.7656 12.332 ZM249.8281 15.457 L249.8281 14.6758 Q249.2344 15.5977 248.0938 15.5977 Q247.3438 15.5977 246.7188 15.1914 Q246.0938 14.7695 245.75 14.0352 Q245.4062 13.3008 245.4062 12.3477 Q245.4062 11.4258 245.7188 10.6602 Q246.0312 9.8945 246.6562 9.5039 Q247.2812 9.0977 248.0469 9.0977 Q248.6094 9.0977 249.0469 9.332 Q249.4844 9.5664 249.7656 9.9414 L249.7656 6.8633 L250.8125 6.8633 L250.8125 15.457 L249.8281 15.457 ZM246.5 12.3477 Q246.5 13.5508 247 14.1445 Q247.5 14.7227 248.1875 14.7227 Q248.875 14.7227 249.3594 14.1602 Q249.8438 13.5977 249.8438 12.4414 Q249.8438 11.1602 249.3438 10.5664 Q248.8594 9.9727 248.1406 9.9727 Q247.4375 9.9727 246.9688 10.5508 Q246.5 11.1133 246.5 12.3477 ZM257.0469 13.457 L258.1406 13.582 Q257.8906 14.5352 257.1875 15.0664 Q256.4844 15.5977 255.4062 15.5977 Q254.0469 15.5977 253.2344 14.7539 Q252.4375 13.9102 252.4375 12.3945 Q252.4375 10.832 253.25 9.9727 Q254.0625 9.0977 255.3438 9.0977 Q256.5938 9.0977 257.375 9.9414 Q258.1719 10.7852 258.1719 12.332 Q258.1719 12.4258 258.1719 12.6133 L253.5312 12.6133 Q253.5938 13.6445 254.1094 14.1914 Q254.625 14.7227 255.4062 14.7227 Q255.9844 14.7227 256.3906 14.4258 Q256.8125 14.1133 257.0469 13.457 ZM253.5938 11.7539 L257.0625 11.7539 Q257 10.957 256.6719 10.5664 Q256.1562 9.957 255.3594 9.957 Q254.625 9.957 254.125 10.4414 Q253.6406 10.9258 253.5938 11.7539 Z" stroke="none" clip-path="url(#clipPath8)"
      /><path d="M4.1562 31.457 L4.1562 25.2383 L5.2188 25.2383 L5.2188 31.457 L4.1562 31.457 ZM4.1094 24.457 L4.8906 22.8164 L6.2812 22.8164 L4.9844 24.457 L4.1094 24.457 ZM6.7969 31.457 L6.7969 25.2383 L7.7344 25.2383 L7.7344 26.1133 Q8.4219 25.0977 9.7188 25.0977 Q10.2812 25.0977 10.75 25.3008 Q11.2344 25.5039 11.4688 25.832 Q11.7031 26.1602 11.7969 26.5977 Q11.8438 26.8945 11.8438 27.6289 L11.8438 31.457 L10.7969 31.457 L10.7969 27.6758 Q10.7969 27.0195 10.6719 26.707 Q10.5469 26.3945 10.2344 26.207 Q9.9219 26.0039 9.5 26.0039 Q8.8281 26.0039 8.3281 26.4414 Q7.8438 26.8633 7.8438 28.0508 L7.8438 31.457 L6.7969 31.457 ZM13.7969 24.082 L13.7969 22.8633 L14.8594 22.8633 L14.8594 24.082 L13.7969 24.082 ZM13.7969 31.457 L13.7969 25.2383 L14.8594 25.2383 L14.8594 31.457 L13.7969 31.457 ZM20.8594 29.1758 L21.8906 29.3164 Q21.7188 30.3789 21.0156 30.9883 Q20.3125 31.5977 19.2969 31.5977 Q18.0156 31.5977 17.2344 30.7695 Q16.4688 29.9258 16.4688 28.3633 Q16.4688 27.3633 16.7969 26.6133 Q17.1406 25.8477 17.8125 25.4727 Q18.5 25.0977 19.3125 25.0977 Q20.3125 25.0977 20.9531 25.6133 Q21.6094 26.1133 21.7969 27.0664 L20.7656 27.2227 Q20.625 26.5977 20.25 26.2852 Q19.875 25.957 19.3438 25.957 Q18.5469 25.957 18.0469 26.5352 Q17.5469 27.0977 17.5469 28.332 Q17.5469 29.5977 18.0312 30.1602 Q18.5156 30.7227 19.2812 30.7227 Q19.9062 30.7227 20.3125 30.3477 Q20.7344 29.9727 20.8594 29.1758 ZM22.7969 24.082 L22.7969 22.8633 L23.8594 22.8633 L23.8594 24.082 L22.7969 24.082 ZM22.7969 31.457 L22.7969 25.2383 L23.8594 25.2383 L23.8594 31.457 L22.7969 31.457 ZM25.4062 28.3477 Q25.4062 26.6133 26.3594 25.7852 Q27.1562 25.0977 28.3125 25.0977 Q29.5938 25.0977 30.4062 25.9414 Q31.2344 26.7695 31.2344 28.2539 Q31.2344 29.457 30.875 30.1445 Q30.5156 30.832 29.8125 31.2227 Q29.125 31.5977 28.3125 31.5977 Q27.0156 31.5977 26.2031 30.7695 Q25.4062 29.9258 25.4062 28.3477 ZM26.4844 28.3477 Q26.4844 29.5352 27 30.1289 Q27.5312 30.7227 28.3125 30.7227 Q29.1094 30.7227 29.625 30.1289 Q30.1406 29.5352 30.1406 28.3164 Q30.1406 27.1602 29.6094 26.5664 Q29.0938 25.9727 28.3125 25.9727 Q27.5312 25.9727 27 26.5664 Q26.4844 27.1445 26.4844 28.3477 ZM39.8281 31.457 L39.8281 30.6758 Q39.2344 31.5977 38.0938 31.5977 Q37.3438 31.5977 36.7188 31.1914 Q36.0938 30.7695 35.75 30.0352 Q35.4062 29.3008 35.4062 28.3477 Q35.4062 27.4258 35.7188 26.6602 Q36.0312 25.8945 36.6562 25.5039 Q37.2812 25.0977 38.0469 25.0977 Q38.6094 25.0977 39.0469 25.332 Q39.4844 25.5664 39.7656 25.9414 L39.7656 22.8633 L40.8125 22.8633 L40.8125 31.457 L39.8281 31.457 ZM36.5 28.3477 Q36.5 29.5508 37 30.1445 Q37.5 30.7227 38.1875 30.7227 Q38.875 30.7227 39.3594 30.1602 Q39.8438 29.5977 39.8438 28.4414 Q39.8438 27.1602 39.3438 26.5664 Q38.8594 25.9727 38.1406 25.9727 Q37.4375 25.9727 36.9688 26.5508 Q36.5 27.1133 36.5 28.3477 ZM47.0469 29.457 L48.1406 29.582 Q47.8906 30.5352 47.1875 31.0664 Q46.4844 31.5977 45.4062 31.5977 Q44.0469 31.5977 43.2344 30.7539 Q42.4375 29.9102 42.4375 28.3945 Q42.4375 26.832 43.25 25.9727 Q44.0625 25.0977 45.3438 25.0977 Q46.5938 25.0977 47.375 25.9414 Q48.1719 26.7852 48.1719 28.332 Q48.1719 28.4258 48.1719 28.6133 L43.5312 28.6133 Q43.5938 29.6445 44.1094 30.1914 Q44.625 30.7227 45.4062 30.7227 Q45.9844 30.7227 46.3906 30.4258 Q46.8125 30.1133 47.0469 29.457 ZM43.5938 27.7539 L47.0625 27.7539 Q47 26.957 46.6719 26.5664 Q46.1562 25.957 45.3594 25.957 Q44.625 25.957 44.125 26.4414 Q43.6406 26.9258 43.5938 27.7539 ZM56.7656 33.8477 L56.7656 30.8008 Q56.5156 31.1445 56.0625 31.3789 Q55.625 31.5977 55.125 31.5977 Q54.0156 31.5977 53.2188 30.7227 Q52.4219 29.832 52.4219 28.2852 Q52.4219 27.3477 52.75 26.6133 Q53.0781 25.8633 53.6875 25.4883 Q54.3125 25.0977 55.0469 25.0977 Q56.2031 25.0977 56.8594 26.0664 L56.8594 25.2383 L57.8125 25.2383 L57.8125 33.8477 L56.7656 33.8477 ZM53.5 28.332 Q53.5 29.5352 54 30.1289 Q54.5156 30.7227 55.2188 30.7227 Q55.8906 30.7227 56.375 30.1602 Q56.8594 29.582 56.8594 28.4258 Q56.8594 27.1758 56.3438 26.5508 Q55.8438 25.9258 55.1406 25.9258 Q54.4688 25.9258 53.9844 26.5195 Q53.5 27.0977 53.5 28.332 ZM63.875 31.457 L63.875 30.5352 Q63.1406 31.5977 61.8906 31.5977 Q61.3438 31.5977 60.8594 31.3945 Q60.3906 31.1758 60.1562 30.8633 Q59.9219 30.5352 59.8281 30.0664 Q59.7656 29.7695 59.7656 29.082 L59.7656 25.2383 L60.8281 25.2383 L60.8281 28.6914 Q60.8281 29.5039 60.8906 29.8008 Q60.9844 30.207 61.2969 30.457 Q61.625 30.6914 62.1094 30.6914 Q62.5781 30.6914 62.9844 30.457 Q63.4062 30.207 63.5781 29.7852 Q63.7656 29.3633 63.7656 28.5664 L63.7656 25.2383 L64.8125 25.2383 L64.8125 31.457 L63.875 31.457 ZM70.8594 30.6914 Q70.2656 31.1914 69.7188 31.3945 Q69.1875 31.5977 68.5625 31.5977 Q67.5312 31.5977 66.9844 31.0977 Q66.4375 30.5977 66.4375 29.8164 Q66.4375 29.3633 66.6406 28.9883 Q66.8438 28.5977 67.1875 28.3789 Q67.5312 28.1445 67.9531 28.0352 Q68.25 27.9414 68.8906 27.8633 Q70.1562 27.7227 70.7656 27.5039 Q70.7656 27.2852 70.7656 27.2383 Q70.7656 26.582 70.4688 26.3164 Q70.0625 25.9727 69.2656 25.9727 Q68.5312 25.9727 68.1719 26.2383 Q67.8125 26.4883 67.6406 27.1445 L66.6094 27.0039 Q66.75 26.3477 67.0781 25.9414 Q67.4062 25.5352 68.0156 25.3164 Q68.625 25.0977 69.4219 25.0977 Q70.2188 25.0977 70.7188 25.2852 Q71.2188 25.4727 71.4531 25.7539 Q71.6875 26.0352 71.7812 26.4727 Q71.8281 26.7383 71.8281 27.4414 L71.8281 28.8477 Q71.8281 30.3164 71.8906 30.707 Q71.9688 31.0977 72.1719 31.457 L71.0625 31.457 Q70.9062 31.1289 70.8594 30.6914 ZM70.7656 28.332 Q70.1875 28.5664 69.0469 28.7383 Q68.3906 28.832 68.125 28.957 Q67.8594 29.0664 67.7031 29.2852 Q67.5625 29.5039 67.5625 29.7852 Q67.5625 30.207 67.875 30.4883 Q68.2031 30.7695 68.8125 30.7695 Q69.4219 30.7695 69.8906 30.5039 Q70.375 30.2383 70.5938 29.7695 Q70.7656 29.4102 70.7656 28.7227 L70.7656 28.332 ZM73.7656 31.457 L73.7656 22.8633 L74.8281 22.8633 L74.8281 31.457 L73.7656 31.457 ZM80.7656 33.8477 L80.7656 30.8008 Q80.5156 31.1445 80.0625 31.3789 Q79.625 31.5977 79.125 31.5977 Q78.0156 31.5977 77.2188 30.7227 Q76.4219 29.832 76.4219 28.2852 Q76.4219 27.3477 76.75 26.6133 Q77.0781 25.8633 77.6875 25.4883 Q78.3125 25.0977 79.0469 25.0977 Q80.2031 25.0977 80.8594 26.0664 L80.8594 25.2383 L81.8125 25.2383 L81.8125 33.8477 L80.7656 33.8477 ZM77.5 28.332 Q77.5 29.5352 78 30.1289 Q78.5156 30.7227 79.2188 30.7227 Q79.8906 30.7227 80.375 30.1602 Q80.8594 29.582 80.8594 28.4258 Q80.8594 27.1758 80.3438 26.5508 Q79.8438 25.9258 79.1406 25.9258 Q78.4688 25.9258 77.9844 26.5195 Q77.5 27.0977 77.5 28.332 ZM87.875 31.457 L87.875 30.5352 Q87.1406 31.5977 85.8906 31.5977 Q85.3438 31.5977 84.8594 31.3945 Q84.3906 31.1758 84.1562 30.8633 Q83.9219 30.5352 83.8281 30.0664 Q83.7656 29.7695 83.7656 29.082 L83.7656 25.2383 L84.8281 25.2383 L84.8281 28.6914 Q84.8281 29.5039 84.8906 29.8008 Q84.9844 30.207 85.2969 30.457 Q85.625 30.6914 86.1094 30.6914 Q86.5781 30.6914 86.9844 30.457 Q87.4062 30.207 87.5781 29.7852 Q87.7656 29.3633 87.7656 28.5664 L87.7656 25.2383 L88.8125 25.2383 L88.8125 31.457 L87.875 31.457 ZM95.0469 29.457 L96.1406 29.582 Q95.8906 30.5352 95.1875 31.0664 Q94.4844 31.5977 93.4062 31.5977 Q92.0469 31.5977 91.2344 30.7539 Q90.4375 29.9102 90.4375 28.3945 Q90.4375 26.832 91.25 25.9727 Q92.0625 25.0977 93.3438 25.0977 Q94.5938 25.0977 95.375 25.9414 Q96.1719 26.7852 96.1719 28.332 Q96.1719 28.4258 96.1719 28.6133 L91.5312 28.6133 Q91.5938 29.6445 92.1094 30.1914 Q92.625 30.7227 93.4062 30.7227 Q93.9844 30.7227 94.3906 30.4258 Q94.8125 30.1133 95.0469 29.457 ZM91.5938 27.7539 L95.0625 27.7539 Q95 26.957 94.6719 26.5664 Q94.1562 25.957 93.3594 25.957 Q92.625 25.957 92.125 26.4414 Q91.6406 26.9258 91.5938 27.7539 ZM97.7812 31.457 L97.7812 25.2383 L98.7344 25.2383 L98.7344 26.1758 Q99.0938 25.5195 99.3906 25.3164 Q99.7031 25.0977 100.0781 25.0977 Q100.6094 25.0977 101.1562 25.4258 L100.7969 26.4102 Q100.4062 26.1758 100.0312 26.1758 Q99.6719 26.1758 99.3906 26.3945 Q99.125 26.5977 99.0156 26.9727 Q98.8281 27.5352 98.8281 28.1914 L98.8281 31.457 L97.7812 31.457 ZM109.0469 29.457 L110.1406 29.582 Q109.8906 30.5352 109.1875 31.0664 Q108.4844 31.5977 107.4062 31.5977 Q106.0469 31.5977 105.2344 30.7539 Q104.4375 29.9102 104.4375 28.3945 Q104.4375 26.832 105.25 25.9727 Q106.0625 25.0977 107.3438 25.0977 Q108.5938 25.0977 109.375 25.9414 Q110.1719 26.7852 110.1719 28.332 Q110.1719 28.4258 110.1719 28.6133 L105.5312 28.6133 Q105.5938 29.6445 106.1094 30.1914 Q106.625 30.7227 107.4062 30.7227 Q107.9844 30.7227 108.3906 30.4258 Q108.8125 30.1133 109.0469 29.457 ZM105.5938 27.7539 L109.0625 27.7539 Q109 26.957 108.6719 26.5664 Q108.1562 25.957 107.3594 25.957 Q106.625 25.957 106.125 26.4414 Q105.6406 26.9258 105.5938 27.7539 ZM113.5156 31.457 L111.1562 25.2383 L112.2656 25.2383 L113.6094 28.957 Q113.8125 29.5664 114 30.207 Q114.1406 29.7227 114.3906 29.0352 L115.7812 25.2383 L116.8594 25.2383 L114.5 31.457 L113.5156 31.457 ZM122.0469 29.457 L123.1406 29.582 Q122.8906 30.5352 122.1875 31.0664 Q121.4844 31.5977 120.4062 31.5977 Q119.0469 31.5977 118.2344 30.7539 Q117.4375 29.9102 117.4375 28.3945 Q117.4375 26.832 118.25 25.9727 Q119.0625 25.0977 120.3438 25.0977 Q121.5938 25.0977 122.375 25.9414 Q123.1719 26.7852 123.1719 28.332 Q123.1719 28.4258 123.1719 28.6133 L118.5312 28.6133 Q118.5938 29.6445 119.1094 30.1914 Q119.625 30.7227 120.4062 30.7227 Q120.9844 30.7227 121.3906 30.4258 Q121.8125 30.1133 122.0469 29.457 ZM118.5938 27.7539 L122.0625 27.7539 Q122 26.957 121.6719 26.5664 Q121.1562 25.957 120.3594 25.957 Q119.625 25.957 119.125 26.4414 Q118.6406 26.9258 118.5938 27.7539 ZM124.7969 31.457 L124.7969 25.2383 L125.7344 25.2383 L125.7344 26.1133 Q126.4219 25.0977 127.7188 25.0977 Q128.2812 25.0977 128.75 25.3008 Q129.2344 25.5039 129.4688 25.832 Q129.7031 26.1602 129.7969 26.5977 Q129.8438 26.8945 129.8438 27.6289 L129.8438 31.457 L128.7969 31.457 L128.7969 27.6758 Q128.7969 27.0195 128.6719 26.707 Q128.5469 26.3945 128.2344 26.207 Q127.9219 26.0039 127.5 26.0039 Q126.8281 26.0039 126.3281 26.4414 Q125.8438 26.8633 125.8438 28.0508 L125.8438 31.457 L124.7969 31.457 ZM134.0938 30.5195 L134.25 31.4414 Q133.7969 31.5352 133.4531 31.5352 Q132.875 31.5352 132.5625 31.3633 Q132.25 31.1758 132.1094 30.8789 Q131.9844 30.582 131.9844 29.6289 L131.9844 26.0508 L131.2188 26.0508 L131.2188 25.2383 L131.9844 25.2383 L131.9844 23.6914 L133.0312 23.0664 L133.0312 25.2383 L134.0938 25.2383 L134.0938 26.0508 L133.0312 26.0508 L133.0312 29.6914 Q133.0312 30.1445 133.0781 30.2695 Q133.1406 30.3945 133.2656 30.4727 Q133.3906 30.5508 133.625 30.5508 Q133.8125 30.5508 134.0938 30.5195 ZM134.4062 28.3477 Q134.4062 26.6133 135.3594 25.7852 Q136.1562 25.0977 137.3125 25.0977 Q138.5938 25.0977 139.4062 25.9414 Q140.2344 26.7695 140.2344 28.2539 Q140.2344 29.457 139.875 30.1445 Q139.5156 30.832 138.8125 31.2227 Q138.125 31.5977 137.3125 31.5977 Q136.0156 31.5977 135.2031 30.7695 Q134.4062 29.9258 134.4062 28.3477 ZM135.4844 28.3477 Q135.4844 29.5352 136 30.1289 Q136.5312 30.7227 137.3125 30.7227 Q138.1094 30.7227 138.625 30.1289 Q139.1406 29.5352 139.1406 28.3164 Q139.1406 27.1602 138.6094 26.5664 Q138.0938 25.9727 137.3125 25.9727 Q136.5312 25.9727 136 26.5664 Q135.4844 27.1445 135.4844 28.3477 ZM144.7969 31.457 L144.7969 25.2383 L145.7344 25.2383 L145.7344 26.1133 Q146.4219 25.0977 147.7188 25.0977 Q148.2812 25.0977 148.75 25.3008 Q149.2344 25.5039 149.4688 25.832 Q149.7031 26.1602 149.7969 26.5977 Q149.8438 26.8945 149.8438 27.6289 L149.8438 31.457 L148.7969 31.457 L148.7969 27.6758 Q148.7969 27.0195 148.6719 26.707 Q148.5469 26.3945 148.2344 26.207 Q147.9219 26.0039 147.5 26.0039 Q146.8281 26.0039 146.3281 26.4414 Q145.8438 26.8633 145.8438 28.0508 L145.8438 31.457 L144.7969 31.457 ZM155.875 31.457 L155.875 30.5352 Q155.1406 31.5977 153.8906 31.5977 Q153.3438 31.5977 152.8594 31.3945 Q152.3906 31.1758 152.1562 30.8633 Q151.9219 30.5352 151.8281 30.0664 Q151.7656 29.7695 151.7656 29.082 L151.7656 25.2383 L152.8281 25.2383 L152.8281 28.6914 Q152.8281 29.5039 152.8906 29.8008 Q152.9844 30.207 153.2969 30.457 Q153.625 30.6914 154.1094 30.6914 Q154.5781 30.6914 154.9844 30.457 Q155.4062 30.207 155.5781 29.7852 Q155.7656 29.3633 155.7656 28.5664 L155.7656 25.2383 L156.8125 25.2383 L156.8125 31.457 L155.875 31.457 ZM158.7969 31.457 L158.7969 25.2383 L159.7344 25.2383 L159.7344 26.1133 Q160.4219 25.0977 161.7188 25.0977 Q162.2812 25.0977 162.75 25.3008 Q163.2344 25.5039 163.4688 25.832 Q163.7031 26.1602 163.7969 26.5977 Q163.8438 26.8945 163.8438 27.6289 L163.8438 31.457 L162.7969 31.457 L162.7969 27.6758 Q162.7969 27.0195 162.6719 26.707 Q162.5469 26.3945 162.2344 26.207 Q161.9219 26.0039 161.5 26.0039 Q160.8281 26.0039 160.3281 26.4414 Q159.8438 26.8633 159.8438 28.0508 L159.8438 31.457 L158.7969 31.457 ZM169.8594 29.1758 L170.8906 29.3164 Q170.7188 30.3789 170.0156 30.9883 Q169.3125 31.5977 168.2969 31.5977 Q167.0156 31.5977 166.2344 30.7695 Q165.4688 29.9258 165.4688 28.3633 Q165.4688 27.3633 165.7969 26.6133 Q166.1406 25.8477 166.8125 25.4727 Q167.5 25.0977 168.3125 25.0977 Q169.3125 25.0977 169.9531 25.6133 Q170.6094 26.1133 170.7969 27.0664 L169.7656 27.2227 Q169.625 26.5977 169.25 26.2852 Q168.875 25.957 168.3438 25.957 Q167.5469 25.957 167.0469 26.5352 Q166.5469 27.0977 166.5469 28.332 Q166.5469 29.5977 167.0312 30.1602 Q167.5156 30.7227 168.2812 30.7227 Q168.9062 30.7227 169.3125 30.3477 Q169.7344 29.9727 169.8594 29.1758 ZM175.8594 30.6914 Q175.2656 31.1914 174.7188 31.3945 Q174.1875 31.5977 173.5625 31.5977 Q172.5312 31.5977 171.9844 31.0977 Q171.4375 30.5977 171.4375 29.8164 Q171.4375 29.3633 171.6406 28.9883 Q171.8438 28.5977 172.1875 28.3789 Q172.5312 28.1445 172.9531 28.0352 Q173.25 27.9414 173.8906 27.8633 Q175.1562 27.7227 175.7656 27.5039 Q175.7656 27.2852 175.7656 27.2383 Q175.7656 26.582 175.4688 26.3164 Q175.0625 25.9727 174.2656 25.9727 Q173.5312 25.9727 173.1719 26.2383 Q172.8125 26.4883 172.6406 27.1445 L171.6094 27.0039 Q171.75 26.3477 172.0781 25.9414 Q172.4062 25.5352 173.0156 25.3164 Q173.625 25.0977 174.4219 25.0977 Q175.2188 25.0977 175.7188 25.2852 Q176.2188 25.4727 176.4531 25.7539 Q176.6875 26.0352 176.7812 26.4727 Q176.8281 26.7383 176.8281 27.4414 L176.8281 28.8477 Q176.8281 30.3164 176.8906 30.707 Q176.9688 31.0977 177.1719 31.457 L176.0625 31.457 Q175.9062 31.1289 175.8594 30.6914 ZM175.7656 28.332 Q175.1875 28.5664 174.0469 28.7383 Q173.3906 28.832 173.125 28.957 Q172.8594 29.0664 172.7031 29.2852 Q172.5625 29.5039 172.5625 29.7852 Q172.5625 30.207 172.875 30.4883 Q173.2031 30.7695 173.8125 30.7695 Q174.4219 30.7695 174.8906 30.5039 Q175.375 30.2383 175.5938 29.7695 Q175.7656 29.4102 175.7656 28.7227 L175.7656 28.332 ZM185.8281 31.457 L185.8281 30.6758 Q185.2344 31.5977 184.0938 31.5977 Q183.3438 31.5977 182.7188 31.1914 Q182.0938 30.7695 181.75 30.0352 Q181.4062 29.3008 181.4062 28.3477 Q181.4062 27.4258 181.7188 26.6602 Q182.0312 25.8945 182.6562 25.5039 Q183.2812 25.0977 184.0469 25.0977 Q184.6094 25.0977 185.0469 25.332 Q185.4844 25.5664 185.7656 25.9414 L185.7656 22.8633 L186.8125 22.8633 L186.8125 31.457 L185.8281 31.457 ZM182.5 28.3477 Q182.5 29.5508 183 30.1445 Q183.5 30.7227 184.1875 30.7227 Q184.875 30.7227 185.3594 30.1602 Q185.8438 29.5977 185.8438 28.4414 Q185.8438 27.1602 185.3438 26.5664 Q184.8594 25.9727 184.1406 25.9727 Q183.4375 25.9727 182.9688 26.5508 Q182.5 27.1133 182.5 28.3477 ZM193.0469 29.457 L194.1406 29.582 Q193.8906 30.5352 193.1875 31.0664 Q192.4844 31.5977 191.4062 31.5977 Q190.0469 31.5977 189.2344 30.7539 Q188.4375 29.9102 188.4375 28.3945 Q188.4375 26.832 189.25 25.9727 Q190.0625 25.0977 191.3438 25.0977 Q192.5938 25.0977 193.375 25.9414 Q194.1719 26.7852 194.1719 28.332 Q194.1719 28.4258 194.1719 28.6133 L189.5312 28.6133 Q189.5938 29.6445 190.1094 30.1914 Q190.625 30.7227 191.4062 30.7227 Q191.9844 30.7227 192.3906 30.4258 Q192.8125 30.1133 193.0469 29.457 ZM189.5938 27.7539 L193.0625 27.7539 Q193 26.957 192.6719 26.5664 Q192.1562 25.957 191.3594 25.957 Q190.625 25.957 190.125 26.4414 Q189.6406 26.9258 189.5938 27.7539 ZM197.5156 31.457 L195.1562 25.2383 L196.2656 25.2383 L197.6094 28.957 Q197.8125 29.5664 198 30.207 Q198.1406 29.7227 198.3906 29.0352 L199.7812 25.2383 L200.8594 25.2383 L198.5 31.457 L197.5156 31.457 ZM206.0469 29.457 L207.1406 29.582 Q206.8906 30.5352 206.1875 31.0664 Q205.4844 31.5977 204.4062 31.5977 Q203.0469 31.5977 202.2344 30.7539 Q201.4375 29.9102 201.4375 28.3945 Q201.4375 26.832 202.25 25.9727 Q203.0625 25.0977 204.3438 25.0977 Q205.5938 25.0977 206.375 25.9414 Q207.1719 26.7852 207.1719 28.332 Q207.1719 28.4258 207.1719 28.6133 L202.5312 28.6133 Q202.5938 29.6445 203.1094 30.1914 Q203.625 30.7227 204.4062 30.7227 Q204.9844 30.7227 205.3906 30.4258 Q205.8125 30.1133 206.0469 29.457 ZM202.5938 27.7539 L206.0625 27.7539 Q206 26.957 205.6719 26.5664 Q205.1562 25.957 204.3594 25.957 Q203.625 25.957 203.125 26.4414 Q202.6406 26.9258 202.5938 27.7539 ZM208.7812 31.457 L208.7812 25.2383 L209.7344 25.2383 L209.7344 26.1758 Q210.0938 25.5195 210.3906 25.3164 Q210.7031 25.0977 211.0781 25.0977 Q211.6094 25.0977 212.1562 25.4258 L211.7969 26.4102 Q211.4062 26.1758 211.0312 26.1758 Q210.6719 26.1758 210.3906 26.3945 Q210.125 26.5977 210.0156 26.9727 Q209.8281 27.5352 209.8281 28.1914 L209.8281 31.457 L208.7812 31.457 ZM216.8594 30.6914 Q216.2656 31.1914 215.7188 31.3945 Q215.1875 31.5977 214.5625 31.5977 Q213.5312 31.5977 212.9844 31.0977 Q212.4375 30.5977 212.4375 29.8164 Q212.4375 29.3633 212.6406 28.9883 Q212.8438 28.5977 213.1875 28.3789 Q213.5312 28.1445 213.9531 28.0352 Q214.25 27.9414 214.8906 27.8633 Q216.1562 27.7227 216.7656 27.5039 Q216.7656 27.2852 216.7656 27.2383 Q216.7656 26.582 216.4688 26.3164 Q216.0625 25.9727 215.2656 25.9727 Q214.5312 25.9727 214.1719 26.2383 Q213.8125 26.4883 213.6406 27.1445 L212.6094 27.0039 Q212.75 26.3477 213.0781 25.9414 Q213.4062 25.5352 214.0156 25.3164 Q214.625 25.0977 215.4219 25.0977 Q216.2188 25.0977 216.7188 25.2852 Q217.2188 25.4727 217.4531 25.7539 Q217.6875 26.0352 217.7812 26.4727 Q217.8281 26.7383 217.8281 27.4414 L217.8281 28.8477 Q217.8281 30.3164 217.8906 30.707 Q217.9688 31.0977 218.1719 31.457 L217.0625 31.457 Q216.9062 31.1289 216.8594 30.6914 ZM216.7656 28.332 Q216.1875 28.5664 215.0469 28.7383 Q214.3906 28.832 214.125 28.957 Q213.8594 29.0664 213.7031 29.2852 Q213.5625 29.5039 213.5625 29.7852 Q213.5625 30.207 213.875 30.4883 Q214.2031 30.7695 214.8125 30.7695 Q215.4219 30.7695 215.8906 30.5039 Q216.375 30.2383 216.5938 29.7695 Q216.7656 29.4102 216.7656 28.7227 L216.7656 28.332 ZM214.7031 24.457 L215.4844 22.8164 L216.875 22.8164 L215.5781 24.457 L214.7031 24.457 ZM222.375 29.5977 L223.4062 29.4414 Q223.5 30.0664 223.8906 30.3945 Q224.2969 30.7227 225.0312 30.7227 Q225.75 30.7227 226.0938 30.4414 Q226.4531 30.1445 226.4531 29.7383 Q226.4531 29.3789 226.1406 29.1758 Q225.9219 29.0352 225.0625 28.8164 Q223.9062 28.5195 223.4531 28.3164 Q223.0156 28.0977 222.7812 27.7227 Q222.5469 27.3477 222.5469 26.8789 Q222.5469 26.4727 222.7344 26.1133 Q222.9219 25.7539 223.25 25.5195 Q223.5 25.3477 223.9219 25.2227 Q224.3438 25.0977 224.8438 25.0977 Q225.5625 25.0977 226.1094 25.3164 Q226.6719 25.5195 226.9375 25.8789 Q227.2031 26.2383 227.2969 26.832 L226.2656 26.9727 Q226.2031 26.5039 225.8594 26.2383 Q225.5312 25.957 224.9062 25.957 Q224.1875 25.957 223.875 26.207 Q223.5625 26.4414 223.5625 26.7695 Q223.5625 26.9727 223.6875 27.1289 Q223.8281 27.3008 224.0938 27.4102 Q224.25 27.4727 225.0312 27.6758 Q226.1562 27.9883 226.5938 28.1758 Q227.0312 28.3633 227.2812 28.7227 Q227.5312 29.082 227.5312 29.6289 Q227.5312 30.1602 227.2188 30.6289 Q226.9219 31.082 226.3438 31.3477 Q225.7656 31.5977 225.0312 31.5977 Q223.8125 31.5977 223.1719 31.0977 Q222.5469 30.582 222.375 29.5977 ZM233.0469 29.457 L234.1406 29.582 Q233.8906 30.5352 233.1875 31.0664 Q232.4844 31.5977 231.4062 31.5977 Q230.0469 31.5977 229.2344 30.7539 Q228.4375 29.9102 228.4375 28.3945 Q228.4375 26.832 229.25 25.9727 Q230.0625 25.0977 231.3438 25.0977 Q232.5938 25.0977 233.375 25.9414 Q234.1719 26.7852 234.1719 28.332 Q234.1719 28.4258 234.1719 28.6133 L229.5312 28.6133 Q229.5938 29.6445 230.1094 30.1914 Q230.625 30.7227 231.4062 30.7227 Q231.9844 30.7227 232.3906 30.4258 Q232.8125 30.1133 233.0469 29.457 ZM229.5938 27.7539 L233.0625 27.7539 Q233 26.957 232.6719 26.5664 Q232.1562 25.957 231.3594 25.957 Q230.625 25.957 230.125 26.4414 Q229.6406 26.9258 229.5938 27.7539 ZM235.7812 31.457 L235.7812 25.2383 L236.7344 25.2383 L236.7344 26.1758 Q237.0938 25.5195 237.3906 25.3164 Q237.7031 25.0977 238.0781 25.0977 Q238.6094 25.0977 239.1562 25.4258 L238.7969 26.4102 Q238.4062 26.1758 238.0312 26.1758 Q237.6719 26.1758 237.3906 26.3945 Q237.125 26.5977 237.0156 26.9727 Q236.8281 27.5352 236.8281 28.1914 L236.8281 31.457 L235.7812 31.457 Z" clip-path="url(#clipPath8)" stroke="none"
      /><path d="M3.7969 49.8477 L3.7969 41.2383 L4.75 41.2383 L4.75 42.0352 Q5.0938 41.5664 5.5156 41.332 Q5.9531 41.0977 6.5625 41.0977 Q7.3594 41.0977 7.9688 41.5039 Q8.5781 41.9102 8.875 42.6602 Q9.1875 43.4102 9.1875 44.3008 Q9.1875 45.2539 8.8438 46.0195 Q8.5156 46.7852 7.8594 47.1914 Q7.2031 47.5977 6.4844 47.5977 Q5.9531 47.5977 5.5312 47.3789 Q5.1094 47.1445 4.8438 46.8164 L4.8438 49.8477 L3.7969 49.8477 ZM4.75 44.3789 Q4.75 45.582 5.2344 46.1602 Q5.7188 46.7227 6.4062 46.7227 Q7.1094 46.7227 7.6094 46.1289 Q8.1094 45.5352 8.1094 44.2852 Q8.1094 43.0977 7.625 42.5195 Q7.1406 41.9258 6.4531 41.9258 Q5.7812 41.9258 5.2656 42.5508 Q4.75 43.1758 4.75 44.3789 ZM10.4062 44.3477 Q10.4062 42.6133 11.3594 41.7852 Q12.1562 41.0977 13.3125 41.0977 Q14.5938 41.0977 15.4062 41.9414 Q16.2344 42.7695 16.2344 44.2539 Q16.2344 45.457 15.875 46.1445 Q15.5156 46.832 14.8125 47.2227 Q14.125 47.5977 13.3125 47.5977 Q12.0156 47.5977 11.2031 46.7695 Q10.4062 45.9258 10.4062 44.3477 ZM11.4844 44.3477 Q11.4844 45.5352 12 46.1289 Q12.5312 46.7227 13.3125 46.7227 Q14.1094 46.7227 14.625 46.1289 Q15.1406 45.5352 15.1406 44.3164 Q15.1406 43.1602 14.6094 42.5664 Q14.0938 41.9727 13.3125 41.9727 Q12.5312 41.9727 12 42.5664 Q11.4844 43.1445 11.4844 44.3477 ZM17.375 45.5977 L18.4062 45.4414 Q18.5 46.0664 18.8906 46.3945 Q19.2969 46.7227 20.0312 46.7227 Q20.75 46.7227 21.0938 46.4414 Q21.4531 46.1445 21.4531 45.7383 Q21.4531 45.3789 21.1406 45.1758 Q20.9219 45.0352 20.0625 44.8164 Q18.9062 44.5195 18.4531 44.3164 Q18.0156 44.0977 17.7812 43.7227 Q17.5469 43.3477 17.5469 42.8789 Q17.5469 42.4727 17.7344 42.1133 Q17.9219 41.7539 18.25 41.5195 Q18.5 41.3477 18.9219 41.2227 Q19.3438 41.0977 19.8438 41.0977 Q20.5625 41.0977 21.1094 41.3164 Q21.6719 41.5195 21.9375 41.8789 Q22.2031 42.2383 22.2969 42.832 L21.2656 42.9727 Q21.2031 42.5039 20.8594 42.2383 Q20.5312 41.957 19.9062 41.957 Q19.1875 41.957 18.875 42.207 Q18.5625 42.4414 18.5625 42.7695 Q18.5625 42.9727 18.6875 43.1289 Q18.8281 43.3008 19.0938 43.4102 Q19.25 43.4727 20.0312 43.6758 Q21.1562 43.9883 21.5938 44.1758 Q22.0312 44.3633 22.2812 44.7227 Q22.5312 45.082 22.5312 45.6289 Q22.5312 46.1602 22.2188 46.6289 Q21.9219 47.082 21.3438 47.3477 Q20.7656 47.5977 20.0312 47.5977 Q18.8125 47.5977 18.1719 47.0977 Q17.5469 46.582 17.375 45.5977 ZM26.0938 46.5195 L26.25 47.4414 Q25.7969 47.5352 25.4531 47.5352 Q24.875 47.5352 24.5625 47.3633 Q24.25 47.1758 24.1094 46.8789 Q23.9844 46.582 23.9844 45.6289 L23.9844 42.0508 L23.2188 42.0508 L23.2188 41.2383 L23.9844 41.2383 L23.9844 39.6914 L25.0312 39.0664 L25.0312 41.2383 L26.0938 41.2383 L26.0938 42.0508 L25.0312 42.0508 L25.0312 45.6914 Q25.0312 46.1445 25.0781 46.2695 Q25.1406 46.3945 25.2656 46.4727 Q25.3906 46.5508 25.625 46.5508 Q25.8125 46.5508 26.0938 46.5195 ZM31.0469 45.457 L32.1406 45.582 Q31.8906 46.5352 31.1875 47.0664 Q30.4844 47.5977 29.4062 47.5977 Q28.0469 47.5977 27.2344 46.7539 Q26.4375 45.9102 26.4375 44.3945 Q26.4375 42.832 27.25 41.9727 Q28.0625 41.0977 29.3438 41.0977 Q30.5938 41.0977 31.375 41.9414 Q32.1719 42.7852 32.1719 44.332 Q32.1719 44.4258 32.1719 44.6133 L27.5312 44.6133 Q27.5938 45.6445 28.1094 46.1914 Q28.625 46.7227 29.4062 46.7227 Q29.9844 46.7227 30.3906 46.4258 Q30.8125 46.1133 31.0469 45.457 ZM27.5938 43.7539 L31.0625 43.7539 Q31 42.957 30.6719 42.5664 Q30.1562 41.957 29.3594 41.957 Q28.625 41.957 28.125 42.4414 Q27.6406 42.9258 27.5938 43.7539 ZM33.7812 47.457 L33.7812 41.2383 L34.7344 41.2383 L34.7344 42.1758 Q35.0938 41.5195 35.3906 41.3164 Q35.7031 41.0977 36.0781 41.0977 Q36.6094 41.0977 37.1562 41.4258 L36.7969 42.4102 Q36.4062 42.1758 36.0312 42.1758 Q35.6719 42.1758 35.3906 42.3945 Q35.125 42.5977 35.0156 42.9727 Q34.8281 43.5352 34.8281 44.1914 L34.8281 47.457 L33.7812 47.457 ZM37.7969 40.082 L37.7969 38.8633 L38.8594 38.8633 L38.8594 40.082 L37.7969 40.082 ZM37.7969 47.457 L37.7969 41.2383 L38.8594 41.2383 L38.8594 47.457 L37.7969 47.457 ZM40.4062 44.3477 Q40.4062 42.6133 41.3594 41.7852 Q42.1562 41.0977 43.3125 41.0977 Q44.5938 41.0977 45.4062 41.9414 Q46.2344 42.7695 46.2344 44.2539 Q46.2344 45.457 45.875 46.1445 Q45.5156 46.832 44.8125 47.2227 Q44.125 47.5977 43.3125 47.5977 Q42.0156 47.5977 41.2031 46.7695 Q40.4062 45.9258 40.4062 44.3477 ZM41.4844 44.3477 Q41.4844 45.5352 42 46.1289 Q42.5312 46.7227 43.3125 46.7227 Q44.1094 46.7227 44.625 46.1289 Q45.1406 45.5352 45.1406 44.3164 Q45.1406 43.1602 44.6094 42.5664 Q44.0938 41.9727 43.3125 41.9727 Q42.5312 41.9727 42 42.5664 Q41.4844 43.1445 41.4844 44.3477 ZM47.7812 47.457 L47.7812 41.2383 L48.7344 41.2383 L48.7344 42.1758 Q49.0938 41.5195 49.3906 41.3164 Q49.7031 41.0977 50.0781 41.0977 Q50.6094 41.0977 51.1562 41.4258 L50.7969 42.4102 Q50.4062 42.1758 50.0312 42.1758 Q49.6719 42.1758 49.3906 42.3945 Q49.125 42.5977 49.0156 42.9727 Q48.8281 43.5352 48.8281 44.1914 L48.8281 47.457 L47.7812 47.457 ZM58.8594 46.6914 Q58.2656 47.1914 57.7188 47.3945 Q57.1875 47.5977 56.5625 47.5977 Q55.5312 47.5977 54.9844 47.0977 Q54.4375 46.5977 54.4375 45.8164 Q54.4375 45.3633 54.6406 44.9883 Q54.8438 44.5977 55.1875 44.3789 Q55.5312 44.1445 55.9531 44.0352 Q56.25 43.9414 56.8906 43.8633 Q58.1562 43.7227 58.7656 43.5039 Q58.7656 43.2852 58.7656 43.2383 Q58.7656 42.582 58.4688 42.3164 Q58.0625 41.9727 57.2656 41.9727 Q56.5312 41.9727 56.1719 42.2383 Q55.8125 42.4883 55.6406 43.1445 L54.6094 43.0039 Q54.75 42.3477 55.0781 41.9414 Q55.4062 41.5352 56.0156 41.3164 Q56.625 41.0977 57.4219 41.0977 Q58.2188 41.0977 58.7188 41.2852 Q59.2188 41.4727 59.4531 41.7539 Q59.6875 42.0352 59.7812 42.4727 Q59.8281 42.7383 59.8281 43.4414 L59.8281 44.8477 Q59.8281 46.3164 59.8906 46.707 Q59.9688 47.0977 60.1719 47.457 L59.0625 47.457 Q58.9062 47.1289 58.8594 46.6914 ZM58.7656 44.332 Q58.1875 44.5664 57.0469 44.7383 Q56.3906 44.832 56.125 44.957 Q55.8594 45.0664 55.7031 45.2852 Q55.5625 45.5039 55.5625 45.7852 Q55.5625 46.207 55.875 46.4883 Q56.2031 46.7695 56.8125 46.7695 Q57.4219 46.7695 57.8906 46.5039 Q58.375 46.2383 58.5938 45.7695 Q58.7656 45.4102 58.7656 44.7227 L58.7656 44.332 ZM58.1875 40.457 L57.3438 40.457 L55.9844 38.8164 L57.4062 38.8164 L58.1875 40.457 ZM68.8281 47.457 L68.8281 46.6758 Q68.2344 47.5977 67.0938 47.5977 Q66.3438 47.5977 65.7188 47.1914 Q65.0938 46.7695 64.75 46.0352 Q64.4062 45.3008 64.4062 44.3477 Q64.4062 43.4258 64.7188 42.6602 Q65.0312 41.8945 65.6562 41.5039 Q66.2812 41.0977 67.0469 41.0977 Q67.6094 41.0977 68.0469 41.332 Q68.4844 41.5664 68.7656 41.9414 L68.7656 38.8633 L69.8125 38.8633 L69.8125 47.457 L68.8281 47.457 ZM65.5 44.3477 Q65.5 45.5508 66 46.1445 Q66.5 46.7227 67.1875 46.7227 Q67.875 46.7227 68.3594 46.1602 Q68.8438 45.5977 68.8438 44.4414 Q68.8438 43.1602 68.3438 42.5664 Q67.8594 41.9727 67.1406 41.9727 Q66.4375 41.9727 65.9688 42.5508 Q65.5 43.1133 65.5 44.3477 ZM75.8594 46.6914 Q75.2656 47.1914 74.7188 47.3945 Q74.1875 47.5977 73.5625 47.5977 Q72.5312 47.5977 71.9844 47.0977 Q71.4375 46.5977 71.4375 45.8164 Q71.4375 45.3633 71.6406 44.9883 Q71.8438 44.5977 72.1875 44.3789 Q72.5312 44.1445 72.9531 44.0352 Q73.25 43.9414 73.8906 43.8633 Q75.1562 43.7227 75.7656 43.5039 Q75.7656 43.2852 75.7656 43.2383 Q75.7656 42.582 75.4688 42.3164 Q75.0625 41.9727 74.2656 41.9727 Q73.5312 41.9727 73.1719 42.2383 Q72.8125 42.4883 72.6406 43.1445 L71.6094 43.0039 Q71.75 42.3477 72.0781 41.9414 Q72.4062 41.5352 73.0156 41.3164 Q73.625 41.0977 74.4219 41.0977 Q75.2188 41.0977 75.7188 41.2852 Q76.2188 41.4727 76.4531 41.7539 Q76.6875 42.0352 76.7812 42.4727 Q76.8281 42.7383 76.8281 43.4414 L76.8281 44.8477 Q76.8281 46.3164 76.8906 46.707 Q76.9688 47.0977 77.1719 47.457 L76.0625 47.457 Q75.9062 47.1289 75.8594 46.6914 ZM75.7656 44.332 Q75.1875 44.5664 74.0469 44.7383 Q73.3906 44.832 73.125 44.957 Q72.8594 45.0664 72.7031 45.2852 Q72.5625 45.5039 72.5625 45.7852 Q72.5625 46.207 72.875 46.4883 Q73.2031 46.7695 73.8125 46.7695 Q74.4219 46.7695 74.8906 46.5039 Q75.375 46.2383 75.5938 45.7695 Q75.7656 45.4102 75.7656 44.7227 L75.7656 44.332 ZM81.0938 46.5195 L81.25 47.4414 Q80.7969 47.5352 80.4531 47.5352 Q79.875 47.5352 79.5625 47.3633 Q79.25 47.1758 79.1094 46.8789 Q78.9844 46.582 78.9844 45.6289 L78.9844 42.0508 L78.2188 42.0508 L78.2188 41.2383 L78.9844 41.2383 L78.9844 39.6914 L80.0312 39.0664 L80.0312 41.2383 L81.0938 41.2383 L81.0938 42.0508 L80.0312 42.0508 L80.0312 45.6914 Q80.0312 46.1445 80.0781 46.2695 Q80.1406 46.3945 80.2656 46.4727 Q80.3906 46.5508 80.625 46.5508 Q80.8125 46.5508 81.0938 46.5195 ZM85.8594 46.6914 Q85.2656 47.1914 84.7188 47.3945 Q84.1875 47.5977 83.5625 47.5977 Q82.5312 47.5977 81.9844 47.0977 Q81.4375 46.5977 81.4375 45.8164 Q81.4375 45.3633 81.6406 44.9883 Q81.8438 44.5977 82.1875 44.3789 Q82.5312 44.1445 82.9531 44.0352 Q83.25 43.9414 83.8906 43.8633 Q85.1562 43.7227 85.7656 43.5039 Q85.7656 43.2852 85.7656 43.2383 Q85.7656 42.582 85.4688 42.3164 Q85.0625 41.9727 84.2656 41.9727 Q83.5312 41.9727 83.1719 42.2383 Q82.8125 42.4883 82.6406 43.1445 L81.6094 43.0039 Q81.75 42.3477 82.0781 41.9414 Q82.4062 41.5352 83.0156 41.3164 Q83.625 41.0977 84.4219 41.0977 Q85.2188 41.0977 85.7188 41.2852 Q86.2188 41.4727 86.4531 41.7539 Q86.6875 42.0352 86.7812 42.4727 Q86.8281 42.7383 86.8281 43.4414 L86.8281 44.8477 Q86.8281 46.3164 86.8906 46.707 Q86.9688 47.0977 87.1719 47.457 L86.0625 47.457 Q85.9062 47.1289 85.8594 46.6914 ZM85.7656 44.332 Q85.1875 44.5664 84.0469 44.7383 Q83.3906 44.832 83.125 44.957 Q82.8594 45.0664 82.7031 45.2852 Q82.5625 45.5039 82.5625 45.7852 Q82.5625 46.207 82.875 46.4883 Q83.2031 46.7695 83.8125 46.7695 Q84.4219 46.7695 84.8906 46.5039 Q85.375 46.2383 85.5938 45.7695 Q85.7656 45.4102 85.7656 44.7227 L85.7656 44.332 ZM95.8281 47.457 L95.8281 46.6758 Q95.2344 47.5977 94.0938 47.5977 Q93.3438 47.5977 92.7188 47.1914 Q92.0938 46.7695 91.75 46.0352 Q91.4062 45.3008 91.4062 44.3477 Q91.4062 43.4258 91.7188 42.6602 Q92.0312 41.8945 92.6562 41.5039 Q93.2812 41.0977 94.0469 41.0977 Q94.6094 41.0977 95.0469 41.332 Q95.4844 41.5664 95.7656 41.9414 L95.7656 38.8633 L96.8125 38.8633 L96.8125 47.457 L95.8281 47.457 ZM92.5 44.3477 Q92.5 45.5508 93 46.1445 Q93.5 46.7227 94.1875 46.7227 Q94.875 46.7227 95.3594 46.1602 Q95.8438 45.5977 95.8438 44.4414 Q95.8438 43.1602 95.3438 42.5664 Q94.8594 41.9727 94.1406 41.9727 Q93.4375 41.9727 92.9688 42.5508 Q92.5 43.1133 92.5 44.3477 ZM103.0469 45.457 L104.1406 45.582 Q103.8906 46.5352 103.1875 47.0664 Q102.4844 47.5977 101.4062 47.5977 Q100.0469 47.5977 99.2344 46.7539 Q98.4375 45.9102 98.4375 44.3945 Q98.4375 42.832 99.25 41.9727 Q100.0625 41.0977 101.3438 41.0977 Q102.5938 41.0977 103.375 41.9414 Q104.1719 42.7852 104.1719 44.332 Q104.1719 44.4258 104.1719 44.6133 L99.5312 44.6133 Q99.5938 45.6445 100.1094 46.1914 Q100.625 46.7227 101.4062 46.7227 Q101.9844 46.7227 102.3906 46.4258 Q102.8125 46.1133 103.0469 45.457 ZM99.5938 43.7539 L103.0625 43.7539 Q103 42.957 102.6719 42.5664 Q102.1562 41.957 101.3594 41.957 Q100.625 41.957 100.125 42.4414 Q99.6406 42.9258 99.5938 43.7539 ZM109.0469 47.457 L109.0469 42.0508 L108.1094 42.0508 L108.1094 41.2383 L109.0469 41.2383 L109.0469 40.5664 Q109.0469 39.9414 109.1562 39.6445 Q109.3125 39.2227 109.6875 38.9727 Q110.0781 38.7227 110.7656 38.7227 Q111.2188 38.7227 111.75 38.832 L111.5938 39.7383 Q111.2656 39.6914 110.9688 39.6914 Q110.4844 39.6914 110.2812 39.8945 Q110.0938 40.0977 110.0938 40.6602 L110.0938 41.2383 L111.3125 41.2383 L111.3125 42.0508 L110.0938 42.0508 L110.0938 47.457 L109.0469 47.457 ZM111.7969 40.082 L111.7969 38.8633 L112.8594 38.8633 L112.8594 40.082 L111.7969 40.082 ZM111.7969 47.457 L111.7969 41.2383 L112.8594 41.2383 L112.8594 47.457 L111.7969 47.457 ZM114.7969 47.457 L114.7969 41.2383 L115.7344 41.2383 L115.7344 42.1133 Q116.0312 41.6445 116.5156 41.3789 Q117 41.0977 117.625 41.0977 Q118.3125 41.0977 118.75 41.3789 Q119.2031 41.6602 119.375 42.1758 Q120.125 41.0977 121.2969 41.0977 Q122.2344 41.0977 122.7188 41.6133 Q123.2188 42.1133 123.2188 43.1914 L123.2188 47.457 L122.1719 47.457 L122.1719 43.5352 Q122.1719 42.9102 122.0625 42.6289 Q121.9688 42.3477 121.7031 42.1758 Q121.4375 42.0039 121.0625 42.0039 Q120.4062 42.0039 119.9688 42.4414 Q119.5469 42.8789 119.5469 43.8477 L119.5469 47.457 L118.4844 47.457 L118.4844 43.4102 Q118.4844 42.707 118.2188 42.3633 Q117.9688 42.0039 117.3906 42.0039 Q116.9375 42.0039 116.5625 42.2383 Q116.1875 42.4727 116.0156 42.9258 Q115.8438 43.3789 115.8438 44.2227 L115.8438 47.457 L114.7969 47.457 ZM131.8281 47.457 L131.8281 46.6758 Q131.2344 47.5977 130.0938 47.5977 Q129.3438 47.5977 128.7188 47.1914 Q128.0938 46.7695 127.75 46.0352 Q127.4062 45.3008 127.4062 44.3477 Q127.4062 43.4258 127.7188 42.6602 Q128.0312 41.8945 128.6562 41.5039 Q129.2812 41.0977 130.0469 41.0977 Q130.6094 41.0977 131.0469 41.332 Q131.4844 41.5664 131.7656 41.9414 L131.7656 38.8633 L132.8125 38.8633 L132.8125 47.457 L131.8281 47.457 ZM128.5 44.3477 Q128.5 45.5508 129 46.1445 Q129.5 46.7227 130.1875 46.7227 Q130.875 46.7227 131.3594 46.1602 Q131.8438 45.5977 131.8438 44.4414 Q131.8438 43.1602 131.3438 42.5664 Q130.8594 41.9727 130.1406 41.9727 Q129.4375 41.9727 128.9688 42.5508 Q128.5 43.1133 128.5 44.3477 ZM134.4062 44.3477 Q134.4062 42.6133 135.3594 41.7852 Q136.1562 41.0977 137.3125 41.0977 Q138.5938 41.0977 139.4062 41.9414 Q140.2344 42.7695 140.2344 44.2539 Q140.2344 45.457 139.875 46.1445 Q139.5156 46.832 138.8125 47.2227 Q138.125 47.5977 137.3125 47.5977 Q136.0156 47.5977 135.2031 46.7695 Q134.4062 45.9258 134.4062 44.3477 ZM135.4844 44.3477 Q135.4844 45.5352 136 46.1289 Q136.5312 46.7227 137.3125 46.7227 Q138.1094 46.7227 138.625 46.1289 Q139.1406 45.5352 139.1406 44.3164 Q139.1406 43.1602 138.6094 42.5664 Q138.0938 41.9727 137.3125 41.9727 Q136.5312 41.9727 136 42.5664 Q135.4844 43.1445 135.4844 44.3477 ZM144.7969 47.457 L144.7969 41.2383 L145.7344 41.2383 L145.7344 42.1133 Q146.0312 41.6445 146.5156 41.3789 Q147 41.0977 147.625 41.0977 Q148.3125 41.0977 148.75 41.3789 Q149.2031 41.6602 149.375 42.1758 Q150.125 41.0977 151.2969 41.0977 Q152.2344 41.0977 152.7188 41.6133 Q153.2188 42.1133 153.2188 43.1914 L153.2188 47.457 L152.1719 47.457 L152.1719 43.5352 Q152.1719 42.9102 152.0625 42.6289 Q151.9688 42.3477 151.7031 42.1758 Q151.4375 42.0039 151.0625 42.0039 Q150.4062 42.0039 149.9688 42.4414 Q149.5469 42.8789 149.5469 43.8477 L149.5469 47.457 L148.4844 47.457 L148.4844 43.4102 Q148.4844 42.707 148.2188 42.3633 Q147.9688 42.0039 147.3906 42.0039 Q146.9375 42.0039 146.5625 42.2383 Q146.1875 42.4727 146.0156 42.9258 Q145.8438 43.3789 145.8438 44.2227 L145.8438 47.457 L144.7969 47.457 ZM159.0469 45.457 L160.1406 45.582 Q159.8906 46.5352 159.1875 47.0664 Q158.4844 47.5977 157.4062 47.5977 Q156.0469 47.5977 155.2344 46.7539 Q154.4375 45.9102 154.4375 44.3945 Q154.4375 42.832 155.25 41.9727 Q156.0625 41.0977 157.3438 41.0977 Q158.5938 41.0977 159.375 41.9414 Q160.1719 42.7852 160.1719 44.332 Q160.1719 44.4258 160.1719 44.6133 L155.5312 44.6133 Q155.5938 45.6445 156.1094 46.1914 Q156.625 46.7227 157.4062 46.7227 Q157.9844 46.7227 158.3906 46.4258 Q158.8125 46.1133 159.0469 45.457 ZM155.5938 43.7539 L159.0625 43.7539 Q159 42.957 158.6719 42.5664 Q158.1562 41.957 157.3594 41.957 Q156.625 41.957 156.125 42.4414 Q155.6406 42.9258 155.5938 43.7539 ZM161.375 45.5977 L162.4062 45.4414 Q162.5 46.0664 162.8906 46.3945 Q163.2969 46.7227 164.0312 46.7227 Q164.75 46.7227 165.0938 46.4414 Q165.4531 46.1445 165.4531 45.7383 Q165.4531 45.3789 165.1406 45.1758 Q164.9219 45.0352 164.0625 44.8164 Q162.9062 44.5195 162.4531 44.3164 Q162.0156 44.0977 161.7812 43.7227 Q161.5469 43.3477 161.5469 42.8789 Q161.5469 42.4727 161.7344 42.1133 Q161.9219 41.7539 162.25 41.5195 Q162.5 41.3477 162.9219 41.2227 Q163.3438 41.0977 163.8438 41.0977 Q164.5625 41.0977 165.1094 41.3164 Q165.6719 41.5195 165.9375 41.8789 Q166.2031 42.2383 166.2969 42.832 L165.2656 42.9727 Q165.2031 42.5039 164.8594 42.2383 Q164.5312 41.957 163.9062 41.957 Q163.1875 41.957 162.875 42.207 Q162.5625 42.4414 162.5625 42.7695 Q162.5625 42.9727 162.6875 43.1289 Q162.8281 43.3008 163.0938 43.4102 Q163.25 43.4727 164.0312 43.6758 Q165.1562 43.9883 165.5938 44.1758 Q166.0312 44.3633 166.2812 44.7227 Q166.5312 45.082 166.5312 45.6289 Q166.5312 46.1602 166.2188 46.6289 Q165.9219 47.082 165.3438 47.3477 Q164.7656 47.5977 164.0312 47.5977 Q162.8125 47.5977 162.1719 47.0977 Q161.5469 46.582 161.375 45.5977 ZM167.7969 47.457 L167.7969 41.2383 L168.7344 41.2383 L168.7344 42.1133 Q169.0312 41.6445 169.5156 41.3789 Q170 41.0977 170.625 41.0977 Q171.3125 41.0977 171.75 41.3789 Q172.2031 41.6602 172.375 42.1758 Q173.125 41.0977 174.2969 41.0977 Q175.2344 41.0977 175.7188 41.6133 Q176.2188 42.1133 176.2188 43.1914 L176.2188 47.457 L175.1719 47.457 L175.1719 43.5352 Q175.1719 42.9102 175.0625 42.6289 Q174.9688 42.3477 174.7031 42.1758 Q174.4375 42.0039 174.0625 42.0039 Q173.4062 42.0039 172.9688 42.4414 Q172.5469 42.8789 172.5469 43.8477 L172.5469 47.457 L171.4844 47.457 L171.4844 43.4102 Q171.4844 42.707 171.2188 42.3633 Q170.9688 42.0039 170.3906 42.0039 Q169.9375 42.0039 169.5625 42.2383 Q169.1875 42.4727 169.0156 42.9258 Q168.8438 43.3789 168.8438 44.2227 L168.8438 47.457 L167.7969 47.457 ZM177.4062 44.3477 Q177.4062 42.6133 178.3594 41.7852 Q179.1562 41.0977 180.3125 41.0977 Q181.5938 41.0977 182.4062 41.9414 Q183.2344 42.7695 183.2344 44.2539 Q183.2344 45.457 182.875 46.1445 Q182.5156 46.832 181.8125 47.2227 Q181.125 47.5977 180.3125 47.5977 Q179.0156 47.5977 178.2031 46.7695 Q177.4062 45.9258 177.4062 44.3477 ZM178.4844 44.3477 Q178.4844 45.5352 179 46.1289 Q179.5312 46.7227 180.3125 46.7227 Q181.1094 46.7227 181.625 46.1289 Q182.1406 45.5352 182.1406 44.3164 Q182.1406 43.1602 181.6094 42.5664 Q181.0938 41.9727 180.3125 41.9727 Q179.5312 41.9727 179 42.5664 Q178.4844 43.1445 178.4844 44.3477 ZM192.0469 45.457 L193.1406 45.582 Q192.8906 46.5352 192.1875 47.0664 Q191.4844 47.5977 190.4062 47.5977 Q189.0469 47.5977 188.2344 46.7539 Q187.4375 45.9102 187.4375 44.3945 Q187.4375 42.832 188.25 41.9727 Q189.0625 41.0977 190.3438 41.0977 Q191.5938 41.0977 192.375 41.9414 Q193.1719 42.7852 193.1719 44.332 Q193.1719 44.4258 193.1719 44.6133 L188.5312 44.6133 Q188.5938 45.6445 189.1094 46.1914 Q189.625 46.7227 190.4062 46.7227 Q190.9844 46.7227 191.3906 46.4258 Q191.8125 46.1133 192.0469 45.457 ZM188.5938 43.7539 L192.0625 43.7539 Q192 42.957 191.6719 42.5664 Q191.1562 41.957 190.3594 41.957 Q189.625 41.957 189.125 42.4414 Q188.6406 42.9258 188.5938 43.7539 ZM196.5156 47.457 L194.1562 41.2383 L195.2656 41.2383 L196.6094 44.957 Q196.8125 45.5664 197 46.207 Q197.1406 45.7227 197.3906 45.0352 L198.7812 41.2383 L199.8594 41.2383 L197.5 47.457 L196.5156 47.457 ZM205.0469 45.457 L206.1406 45.582 Q205.8906 46.5352 205.1875 47.0664 Q204.4844 47.5977 203.4062 47.5977 Q202.0469 47.5977 201.2344 46.7539 Q200.4375 45.9102 200.4375 44.3945 Q200.4375 42.832 201.25 41.9727 Q202.0625 41.0977 203.3438 41.0977 Q204.5938 41.0977 205.375 41.9414 Q206.1719 42.7852 206.1719 44.332 Q206.1719 44.4258 206.1719 44.6133 L201.5312 44.6133 Q201.5938 45.6445 202.1094 46.1914 Q202.625 46.7227 203.4062 46.7227 Q203.9844 46.7227 204.3906 46.4258 Q204.8125 46.1133 205.0469 45.457 ZM201.5938 43.7539 L205.0625 43.7539 Q205 42.957 204.6719 42.5664 Q204.1562 41.957 203.3594 41.957 Q202.625 41.957 202.125 42.4414 Q201.6406 42.9258 201.5938 43.7539 ZM207.7969 47.457 L207.7969 41.2383 L208.7344 41.2383 L208.7344 42.1133 Q209.4219 41.0977 210.7188 41.0977 Q211.2812 41.0977 211.75 41.3008 Q212.2344 41.5039 212.4688 41.832 Q212.7031 42.1602 212.7969 42.5977 Q212.8438 42.8945 212.8438 43.6289 L212.8438 47.457 L211.7969 47.457 L211.7969 43.6758 Q211.7969 43.0195 211.6719 42.707 Q211.5469 42.3945 211.2344 42.207 Q210.9219 42.0039 210.5 42.0039 Q209.8281 42.0039 209.3281 42.4414 Q208.8438 42.8633 208.8438 44.0508 L208.8438 47.457 L207.7969 47.457 ZM217.0938 46.5195 L217.25 47.4414 Q216.7969 47.5352 216.4531 47.5352 Q215.875 47.5352 215.5625 47.3633 Q215.25 47.1758 215.1094 46.8789 Q214.9844 46.582 214.9844 45.6289 L214.9844 42.0508 L214.2188 42.0508 L214.2188 41.2383 L214.9844 41.2383 L214.9844 39.6914 L216.0312 39.0664 L216.0312 41.2383 L217.0938 41.2383 L217.0938 42.0508 L216.0312 42.0508 L216.0312 45.6914 Q216.0312 46.1445 216.0781 46.2695 Q216.1406 46.3945 216.2656 46.4727 Q216.3906 46.5508 216.625 46.5508 Q216.8125 46.5508 217.0938 46.5195 ZM217.4062 44.3477 Q217.4062 42.6133 218.3594 41.7852 Q219.1562 41.0977 220.3125 41.0977 Q221.5938 41.0977 222.4062 41.9414 Q223.2344 42.7695 223.2344 44.2539 Q223.2344 45.457 222.875 46.1445 Q222.5156 46.832 221.8125 47.2227 Q221.125 47.5977 220.3125 47.5977 Q219.0156 47.5977 218.2031 46.7695 Q217.4062 45.9258 217.4062 44.3477 ZM218.4844 44.3477 Q218.4844 45.5352 219 46.1289 Q219.5312 46.7227 220.3125 46.7227 Q221.1094 46.7227 221.625 46.1289 Q222.1406 45.5352 222.1406 44.3164 Q222.1406 43.1602 221.6094 42.5664 Q221.0938 41.9727 220.3125 41.9727 Q219.5312 41.9727 219 42.5664 Q218.4844 43.1445 218.4844 44.3477 ZM225.0938 47.457 L225.0938 46.2539 L226.2969 46.2539 L226.2969 47.457 L225.0938 47.457 Z" clip-path="url(#clipPath8)" stroke="none"
    /></g
    ><g font-size="11px" transform="translate(2,81)" fill-opacity="1" fill="black" text-rendering="geometricPrecision" image-rendering="optimizeQuality" font-family="sans-serif" stroke="black" stroke-opacity="1"
    ><circle r="7" clip-path="url(#clipPath9)" cx="7" cy="9" stroke="none"
    /></g
    ><g font-size="11px" transform="translate(264,91)" fill-opacity="1" fill="rgb(122,207,245)" text-rendering="geometricPrecision" image-rendering="optimizeQuality" font-family="sans-serif" stroke="rgb(122,207,245)" stroke-opacity="1"
    ><rect x="0" width="8" height="422" y="0" clip-path="url(#clipPath10)" stroke="none"
    /></g
    ><g stroke-linecap="butt" font-size="11px" transform="translate(264,91)" fill-opacity="1" fill="black" text-rendering="geometricPrecision" image-rendering="optimizeQuality" font-family="sans-serif" stroke-linejoin="round" stroke="black" stroke-opacity="1" stroke-miterlimit="0"
    ><rect fill="none" x="0" width="8" height="422" y="0" clip-path="url(#clipPath10)"
    /></g
    ><g fill-opacity="1" text-rendering="geometricPrecision" stroke="black" stroke-linecap="butt" transform="translate(233,258)" stroke-miterlimit="0" stroke-opacity="1" fill="black" stroke-dasharray="5,2" font-family="sans-serif" stroke-linejoin="bevel" font-size="11px" image-rendering="optimizeQuality"
    ><line y2="113" fill="none" x1="0" clip-path="url(#clipPath13)" x2="545" y1="113"
    /></g
    ><g font-size="11px" transform="translate(261,263)" fill-opacity="1" fill="white" text-rendering="geometricPrecision" image-rendering="optimizeQuality" font-family="sans-serif" stroke="white" stroke-opacity="1"
    ><rect x="9" width="462" height="17" y="-1" clip-path="url(#clipPath14)" stroke="none"
      /><text fill="black" x="10" xml:space="preserve" y="12" clip-path="url(#clipPath14)" stroke="none"
      >[if(dataInicioSeriacao &gt;= dataFimPublicacao &amp;&amp; dataInicioSeriacao &gt;= dataFimApresentacao)]</text
    ></g
    ><g fill-opacity="1" text-rendering="geometricPrecision" stroke="black" stroke-linecap="butt" transform="translate(219,176)" stroke-miterlimit="0" stroke-opacity="1" fill="black" stroke-dasharray="5,2" font-family="sans-serif" stroke-linejoin="bevel" font-size="11px" image-rendering="optimizeQuality"
    ><line y2="256" fill="none" x1="0" clip-path="url(#clipPath17)" x2="573" y1="256"
    /></g
    ><g font-size="11px" transform="translate(247,181)" fill-opacity="1" fill="white" text-rendering="geometricPrecision" image-rendering="optimizeQuality" font-family="sans-serif" stroke="white" stroke-opacity="1"
    ><rect x="9" width="482" height="17" y="-1" clip-path="url(#clipPath18)" stroke="none"
      /><text fill="black" x="10" xml:space="preserve" y="12" clip-path="url(#clipPath18)" stroke="none"
      >[if(dataInicioCandidatura &gt;= dataInicioPublicacao &amp;&amp; dataInicioCandidatura &lt; dataFimPublicacao)]</text
    ></g
    ><g font-size="11px" transform="translate(2,492)" fill-opacity="1" fill="black" text-rendering="geometricPrecision" image-rendering="optimizeQuality" font-family="sans-serif" stroke="black" stroke-opacity="1"
    ><circle r="7" clip-path="url(#clipPath9)" cx="7" cy="9" stroke="none"
    /></g
    ><g font-size="11px" transform="translate(233,2)" fill-opacity="1" fill="black" text-rendering="geometricPrecision" image-rendering="optimizeQuality" font-family="sans-serif" stroke="black" stroke-opacity="1"
    ><text x="12" xml:space="preserve" y="12" clip-path="url(#clipPath19)" stroke="none"
      >anuncio :</text
      ><text x="15" xml:space="preserve" y="27" clip-path="url(#clipPath19)" stroke="none"
      >Anuncio</text
    ></g
    ><g stroke-linecap="butt" font-size="11px" transform="translate(222,158)" fill-opacity="1" fill="black" text-rendering="geometricPrecision" image-rendering="optimizeQuality" font-family="sans-serif" stroke-linejoin="round" stroke="black" stroke-opacity="1"
    ><line y2="50" fill="none" x1="50" clip-path="url(#clipPath21)" x2="80" y1="50"
      /><line y2="70" fill="none" x1="80" clip-path="url(#clipPath21)" x2="80" y1="50"
      /><line y2="70" fill="none" x1="80" clip-path="url(#clipPath21)" x2="50" y1="70"
      /><polygon points=" 50 70 62 76 62 64" clip-path="url(#clipPath21)" stroke="none"
      /><polygon fill="none" points=" 50 70 62 76 62 64" clip-path="url(#clipPath21)"
    /></g
    ><g stroke-linecap="butt" font-size="11px" transform="translate(222,240)" fill-opacity="1" fill="black" text-rendering="geometricPrecision" image-rendering="optimizeQuality" font-family="sans-serif" stroke-linejoin="round" stroke="black" stroke-opacity="1"
    ><line y2="50" fill="none" x1="50" clip-path="url(#clipPath22)" x2="80" y1="50"
      /><line y2="70" fill="none" x1="80" clip-path="url(#clipPath22)" x2="80" y1="50"
      /><line y2="70" fill="none" x1="80" clip-path="url(#clipPath22)" x2="50" y1="70"
      /><polygon points=" 50 70 62 76 62 64" clip-path="url(#clipPath22)" stroke="none"
      /><polygon fill="none" points=" 50 70 62 76 62 64" clip-path="url(#clipPath22)"
    /></g
    ><g stroke-linecap="butt" font-size="11px" transform="translate(-34,41)" fill-opacity="1" fill="black" text-rendering="geometricPrecision" image-rendering="optimizeQuality" font-family="sans-serif" stroke-linejoin="round" stroke="black" stroke-opacity="1"
    ><line y2="50" fill="none" x1="50" clip-path="url(#clipPath24)" x2="298" y1="50"
      /><polygon points=" 298 50 286 44 286 56" clip-path="url(#clipPath24)" stroke="none"
      /><polygon fill="none" points=" 298 50 286 44 286 56" clip-path="url(#clipPath24)"
    /></g
    ><g stroke-linecap="butt" font-size="11px" transform="translate(222,58)" fill-opacity="1" fill="black" text-rendering="geometricPrecision" image-rendering="optimizeQuality" font-family="sans-serif" stroke-linejoin="round" stroke="black" stroke-opacity="1"
    ><line y2="50" fill="none" x1="50" clip-path="url(#clipPath25)" x2="80" y1="50"
      /><line y2="70" fill="none" x1="80" clip-path="url(#clipPath25)" x2="80" y1="50"
      /><line y2="70" fill="none" x1="80" clip-path="url(#clipPath25)" x2="50" y1="70"
      /><polygon points=" 50 70 62 76 62 64" clip-path="url(#clipPath25)" stroke="none"
      /><polygon fill="none" points=" 50 70 62 76 62 64" clip-path="url(#clipPath25)"
    /></g
    ><g stroke-linecap="butt" font-size="11px" transform="translate(222,284)" fill-opacity="1" fill="black" text-rendering="geometricPrecision" image-rendering="optimizeQuality" font-family="sans-serif" stroke-linejoin="round" stroke="black" stroke-opacity="1"
    ><line y2="50" fill="none" x1="50" clip-path="url(#clipPath26)" x2="80" y1="50"
      /><line y2="70" fill="none" x1="80" clip-path="url(#clipPath26)" x2="80" y1="50"
      /><line y2="70" fill="none" x1="80" clip-path="url(#clipPath26)" x2="50" y1="70"
      /><polygon points=" 50 70 62 76 62 64" clip-path="url(#clipPath26)" stroke="none"
      /><polygon fill="none" points=" 50 70 62 76 62 64" clip-path="url(#clipPath26)"
    /></g
    ><g stroke-linecap="butt" font-size="11px" transform="translate(-33,452)" fill-opacity="1" fill="black" text-rendering="geometricPrecision" image-rendering="optimizeQuality" font-family="sans-serif" stroke-linejoin="round" stroke="black" stroke-opacity="1"
    ><line y2="50" fill="none" x1="297" clip-path="url(#clipPath28)" x2="50" y1="50"
      /><polygon points=" 50 50 62 56 62 44" clip-path="url(#clipPath28)" stroke="none"
      /><polygon fill="none" points=" 50 50 62 56 62 44" clip-path="url(#clipPath28)"
    /></g
    ><g font-size="11px" transform="translate(117,482)" fill-opacity="1" fill="white" text-rendering="geometricPrecision" image-rendering="optimizeQuality" font-family="sans-serif" stroke="white" stroke-opacity="1"
    ><rect x="0" width="47" height="15" y="0" clip-path="url(#clipPath29)" stroke="none"
      /><text fill="black" x="10" xml:space="preserve" y="12" clip-path="url(#clipPath29)" stroke="none"
      >1.5: v</text
    ></g
    ><g font-size="11px" transform="translate(309,336)" fill-opacity="1" fill="white" text-rendering="geometricPrecision" image-rendering="optimizeQuality" font-family="sans-serif" stroke="white" stroke-opacity="1"
    ><rect x="0" width="82" height="15" y="0" clip-path="url(#clipPath30)" stroke="none"
      /><text fill="black" x="9" xml:space="preserve" y="12" clip-path="url(#clipPath30)" stroke="none"
      >1.4: v = true;</text
    ></g
    ><g font-size="11px" transform="translate(305,111)" fill-opacity="1" fill="white" text-rendering="geometricPrecision" image-rendering="optimizeQuality" font-family="sans-serif" stroke="white" stroke-opacity="1"
    ><rect x="0" width="86" height="15" y="0" clip-path="url(#clipPath31)" stroke="none"
      /><text fill="black" x="10" xml:space="preserve" y="12" clip-path="url(#clipPath31)" stroke="none"
      >1.1: v = false;</text
    ></g
    ><g font-size="11px" transform="translate(58,70)" fill-opacity="1" fill="white" text-rendering="geometricPrecision" image-rendering="optimizeQuality" font-family="sans-serif" stroke="white" stroke-opacity="1"
    ><rect x="0" width="161" height="15" y="0" clip-path="url(#clipPath32)" stroke="none"
      /><text fill="black" x="9" xml:space="preserve" y="12" clip-path="url(#clipPath32)" stroke="none"
      >1: validaPeriodos() : boolean</text
    ></g
    ><g font-size="11px" transform="translate(307,293)" fill-opacity="1" fill="white" text-rendering="geometricPrecision" image-rendering="optimizeQuality" font-family="sans-serif" stroke="white" stroke-opacity="1"
    ><rect x="0" width="247" height="15" y="0" clip-path="url(#clipPath33)" stroke="none"
      /><text fill="black" x="9" xml:space="preserve" y="12" clip-path="url(#clipPath33)" stroke="none"
      >1.3: setDataInicioSeriacao(dataInicioSeriacao)</text
    ></g
    ><g font-size="11px" transform="translate(307,211)" fill-opacity="1" fill="white" text-rendering="geometricPrecision" image-rendering="optimizeQuality" font-family="sans-serif" stroke="white" stroke-opacity="1"
    ><rect x="0" width="280" height="15" y="0" clip-path="url(#clipPath34)" stroke="none"
      /><text fill="black" x="9" xml:space="preserve" y="12" clip-path="url(#clipPath34)" stroke="none"
      >1.2: setDataInicioCandidatura(dataInicioCandidatura)</text
    ></g
    ><g font-size="8px" fill-opacity="1" fill="rgb(120,120,120)" text-rendering="geometricPrecision" image-rendering="optimizeQuality" stroke="rgb(120,120,120)" stroke-opacity="1"
    ><text x="0" xml:space="preserve" y="10" stroke="none"
      >Visual Paradigm Standard(Joel Ribeiro(Instituto Superior de Engenharia do Porto))</text
    ></g
  ></g
></svg
>
