<?xml version="1.0" encoding="UTF-8"?>
<!DOCTYPE svg PUBLIC '-//W3C//DTD SVG 1.0//EN'
          'http://www.w3.org/TR/2001/REC-SVG-20010904/DTD/svg10.dtd'>
<svg fill-opacity="0" xmlns:xlink="http://www.w3.org/1999/xlink" color-rendering="auto" color-interpolation="auto" text-rendering="auto" stroke="rgb(0,0,0)" stroke-linecap="square" width="1007" stroke-miterlimit="10" shape-rendering="auto" stroke-opacity="0" fill="rgb(0,0,0)" stroke-dasharray="none" font-weight="normal" stroke-width="1" height="387" xmlns="http://www.w3.org/2000/svg" font-family="'Dialog'" font-style="normal" stroke-linejoin="miter" font-size="12px" stroke-dashoffset="0" image-rendering="auto"
><!--Generated by the Batik Graphics2D SVG Generator--><defs id="genericDefs"
  /><g
  ><defs id="defs1"
    ><clipPath clipPathUnits="userSpaceOnUse" id="clipPath1"
      ><path d="M-7 -7 L102 -7 L102 392 L-7 392 L-7 -7 Z"
      /></clipPath
      ><clipPath clipPathUnits="userSpaceOnUse" id="clipPath2"
      ><path d="M-7 -7 L96 -7 L96 392 L-7 392 L-7 -7 Z"
      /></clipPath
      ><clipPath clipPathUnits="userSpaceOnUse" id="clipPath3"
      ><path d="M-7 -7 L111 -7 L111 392 L-7 392 L-7 -7 Z"
      /></clipPath
      ><clipPath clipPathUnits="userSpaceOnUse" id="clipPath4"
      ><path d="M-7 -7 L106 -7 L106 392 L-7 392 L-7 -7 Z"
      /></clipPath
      ><clipPath clipPathUnits="userSpaceOnUse" id="clipPath5"
      ><path d="M-7 -7 L19 -7 L19 25 L-7 25 L-7 -7 Z"
      /></clipPath
      ><clipPath clipPathUnits="userSpaceOnUse" id="clipPath6"
      ><path d="M-7 -7 L19 -7 L19 26 L-7 26 L-7 -7 Z"
      /></clipPath
      ><clipPath clipPathUnits="userSpaceOnUse" id="clipPath7"
      ><path d="M-7 -7 L159 -7 L159 392 L-7 392 L-7 -7 Z"
      /></clipPath
      ><clipPath clipPathUnits="userSpaceOnUse" id="clipPath8"
      ><path d="M-7 -7 L19 -7 L19 24 L-7 24 L-7 -7 Z"
      /></clipPath
      ><clipPath clipPathUnits="userSpaceOnUse" id="clipPath9"
      ><path d="M-7 -7 L19 -7 L19 293 L-7 293 L-7 -7 Z"
      /></clipPath
      ><clipPath clipPathUnits="userSpaceOnUse" id="clipPath10"
      ><path d="M-7 -7 L26 -7 L26 31 L-7 31 L-7 -7 Z"
      /></clipPath
      ><clipPath clipPathUnits="userSpaceOnUse" id="clipPath11"
      ><path d="M-91 -30 L182 -30 L182 60 L-91 60 L-91 -30 Z"
      /></clipPath
      ><clipPath clipPathUnits="userSpaceOnUse" id="clipPath12"
      ><path d="M-85 -15 L170 -15 L170 30 L-85 30 L-85 -15 Z"
      /></clipPath
      ><clipPath clipPathUnits="userSpaceOnUse" id="clipPath13"
      ><path d="M-100 -30 L200 -30 L200 60 L-100 60 L-100 -30 Z"
      /></clipPath
      ><clipPath clipPathUnits="userSpaceOnUse" id="clipPath14"
      ><path d="M-95 -15 L190 -15 L190 30 L-95 30 L-95 -15 Z"
      /></clipPath
      ><clipPath clipPathUnits="userSpaceOnUse" id="clipPath15"
      ><path d="M-148 -15 L296 -15 L296 30 L-148 30 L-148 -15 Z"
      /></clipPath
      ><clipPath clipPathUnits="userSpaceOnUse" id="clipPath16"
      ><path d="M0 0 L664 0 L664 104 L0 104 L0 0 Z"
      /></clipPath
      ><clipPath clipPathUnits="userSpaceOnUse" id="clipPath17"
      ><path d="M433 28 L433 43 L227 43 L227 28 ZM0 0 L0 104 L664 104 L664 0 Z"
      /></clipPath
      ><clipPath clipPathUnits="userSpaceOnUse" id="clipPath18"
      ><path d="M0 0 L523 0 L523 104 L0 104 L0 0 Z"
      /></clipPath
      ><clipPath clipPathUnits="userSpaceOnUse" id="clipPath19"
      ><path d="M383 31 L383 46 L124 46 L124 31 ZM433 82 L433 97 L227 97 L227 82 ZM0 0 L0 104 L523 104 L523 0 Z"
      /></clipPath
      ><clipPath clipPathUnits="userSpaceOnUse" id="clipPath20"
      ><path d="M0 0 L407 0 L407 104 L0 104 L0 0 Z"
      /></clipPath
      ><clipPath clipPathUnits="userSpaceOnUse" id="clipPath21"
      ><path d="M335 26 L335 46 L68 46 L68 26 ZM383 85 L383 100 L124 100 L124 85 ZM0 0 L0 104 L407 104 L407 0 Z"
      /></clipPath
      ><clipPath clipPathUnits="userSpaceOnUse" id="clipPath22"
      ><path d="M0 0 L335 0 L335 104 L0 104 L0 0 Z"
      /></clipPath
      ><clipPath clipPathUnits="userSpaceOnUse" id="clipPath23"
      ><path d="M241 29 L241 45 L82 45 L82 29 ZM0 0 L0 104 L335 104 L335 100 L307 100 L307 80 L335 80 L335 0 Z"
      /></clipPath
      ><clipPath clipPathUnits="userSpaceOnUse" id="clipPath24"
      ><path d="M0 0 L334 0 L334 104 L0 104 L0 0 Z"
      /></clipPath
      ><clipPath clipPathUnits="userSpaceOnUse" id="clipPath25"
      ><path d="M197 26 L197 42 L129 42 L129 26 ZM0 0 L0 104 L334 104 L334 0 Z"
      /></clipPath
      ><clipPath clipPathUnits="userSpaceOnUse" id="clipPath26"
      ><path d="M-68 -16 L136 -16 L136 32 L-68 32 L-68 -16 Z"
      /></clipPath
      ><clipPath clipPathUnits="userSpaceOnUse" id="clipPath27"
      ><path d="M-159 -16 L318 -16 L318 32 L-159 32 L-159 -16 Z"
      /></clipPath
      ><clipPath clipPathUnits="userSpaceOnUse" id="clipPath28"
      ><path d="M-267 -20 L534 -20 L534 40 L-267 40 L-267 -20 Z"
      /></clipPath
      ><clipPath clipPathUnits="userSpaceOnUse" id="clipPath29"
      ><path d="M-259 -15 L518 -15 L518 30 L-259 30 L-259 -15 Z"
      /></clipPath
      ><clipPath clipPathUnits="userSpaceOnUse" id="clipPath30"
      ><path d="M-206 -15 L412 -15 L412 30 L-206 30 L-206 -15 Z"
      /></clipPath
    ></defs
    ><g fill="white" text-rendering="geometricPrecision" fill-opacity="1" stroke-opacity="1" stroke="white"
    ><rect x="0" width="1007" height="387" y="0" stroke="none"
    /></g
    ><g font-size="11px" transform="translate(912,2)" fill-opacity="1" fill="rgb(122,207,245)" text-rendering="geometricPrecision" image-rendering="optimizeQuality" font-family="sans-serif" stroke="rgb(122,207,245)" stroke-opacity="1"
    ><rect x="0" width="90" height="35" y="0" clip-path="url(#clipPath1)" stroke="none"
    /></g
    ><g stroke-linecap="butt" font-size="11px" transform="translate(912,2)" fill-opacity="1" fill="black" text-rendering="geometricPrecision" image-rendering="optimizeQuality" font-family="sans-serif" stroke-linejoin="round" stroke="black" stroke-opacity="1" stroke-miterlimit="0"
    ><rect fill="none" x="0" width="90" height="35" y="0" clip-path="url(#clipPath1)"
      /><line clip-path="url(#clipPath1)" fill="none" x1="45" x2="45" y1="35" y2="381" stroke-linejoin="bevel" stroke-dasharray="8,3"
    /></g
    ><g font-size="11px" transform="translate(209,2)" fill-opacity="1" fill="rgb(122,207,245)" text-rendering="geometricPrecision" image-rendering="optimizeQuality" font-family="sans-serif" stroke="rgb(122,207,245)" stroke-opacity="1"
    ><rect x="0" width="84" height="35" y="0" clip-path="url(#clipPath2)" stroke="none"
    /></g
    ><g stroke-linecap="butt" font-size="11px" transform="translate(209,2)" fill-opacity="1" fill="black" text-rendering="geometricPrecision" image-rendering="optimizeQuality" font-family="sans-serif" stroke-linejoin="round" stroke="black" stroke-opacity="1" stroke-miterlimit="0"
    ><rect fill="none" x="0" width="84" height="35" y="0" clip-path="url(#clipPath2)"
      /><line clip-path="url(#clipPath2)" fill="none" x1="42" x2="42" y1="35" y2="381" stroke-linejoin="bevel" stroke-dasharray="8,3"
    /></g
    ><g font-size="11px" transform="translate(628,2)" fill-opacity="1" fill="rgb(122,207,245)" text-rendering="geometricPrecision" image-rendering="optimizeQuality" font-family="sans-serif" stroke="rgb(122,207,245)" stroke-opacity="1"
    ><rect x="0" width="99" height="35" y="0" clip-path="url(#clipPath3)" stroke="none"
    /></g
    ><g stroke-linecap="butt" font-size="11px" transform="translate(628,2)" fill-opacity="1" fill="black" text-rendering="geometricPrecision" image-rendering="optimizeQuality" font-family="sans-serif" stroke-linejoin="round" stroke="black" stroke-opacity="1" stroke-miterlimit="0"
    ><rect fill="none" x="0" width="99" height="35" y="0" clip-path="url(#clipPath3)"
      /><line clip-path="url(#clipPath3)" fill="none" x1="49" x2="49" y1="35" y2="381" stroke-linejoin="bevel" stroke-dasharray="8,3"
    /></g
    ><g font-size="11px" transform="translate(515,2)" fill-opacity="1" fill="rgb(122,207,245)" text-rendering="geometricPrecision" image-rendering="optimizeQuality" font-family="sans-serif" stroke="rgb(122,207,245)" stroke-opacity="1"
    ><rect x="0" width="94" height="35" y="0" clip-path="url(#clipPath4)" stroke="none"
    /></g
    ><g stroke-linecap="butt" font-size="11px" transform="translate(515,2)" fill-opacity="1" fill="black" text-rendering="geometricPrecision" image-rendering="optimizeQuality" font-family="sans-serif" stroke-linejoin="round" stroke="black" stroke-opacity="1" stroke-miterlimit="0"
    ><rect fill="none" x="0" width="94" height="35" y="0" clip-path="url(#clipPath4)"
      /><line clip-path="url(#clipPath4)" fill="none" x1="47" x2="47" y1="35" y2="381" stroke-linejoin="bevel" stroke-dasharray="8,3"
    /></g
    ><g font-size="11px" transform="translate(558,147)" fill-opacity="1" fill="rgb(122,207,245)" text-rendering="geometricPrecision" image-rendering="optimizeQuality" font-family="sans-serif" stroke="rgb(122,207,245)" stroke-opacity="1"
    ><rect x="0" width="8" height="14" y="0" clip-path="url(#clipPath5)" stroke="none"
    /></g
    ><g stroke-linecap="butt" font-size="11px" transform="translate(558,147)" fill-opacity="1" fill="black" text-rendering="geometricPrecision" image-rendering="optimizeQuality" font-family="sans-serif" stroke-linejoin="round" stroke="black" stroke-opacity="1" stroke-miterlimit="0"
    ><rect fill="none" x="0" width="8" height="14" y="0" clip-path="url(#clipPath5)"
    /></g
    ><g font-size="11px" transform="translate(674,199)" fill-opacity="1" fill="rgb(122,207,245)" text-rendering="geometricPrecision" image-rendering="optimizeQuality" font-family="sans-serif" stroke="rgb(122,207,245)" stroke-opacity="1"
    ><rect x="0" width="8" height="15" y="0" clip-path="url(#clipPath6)" stroke="none"
    /></g
    ><g stroke-linecap="butt" font-size="11px" transform="translate(674,199)" fill-opacity="1" fill="black" text-rendering="geometricPrecision" image-rendering="optimizeQuality" font-family="sans-serif" stroke-linejoin="round" stroke="black" stroke-opacity="1" stroke-miterlimit="0"
    ><rect fill="none" x="0" width="8" height="15" y="0" clip-path="url(#clipPath6)"
    /></g
    ><g font-size="11px" transform="translate(746,2)" fill-opacity="1" fill="rgb(122,207,245)" text-rendering="geometricPrecision" image-rendering="optimizeQuality" font-family="sans-serif" stroke="rgb(122,207,245)" stroke-opacity="1"
    ><rect x="0" width="147" height="35" y="0" clip-path="url(#clipPath7)" stroke="none"
    /></g
    ><g stroke-linecap="butt" font-size="11px" transform="translate(746,2)" fill-opacity="1" fill="black" text-rendering="geometricPrecision" image-rendering="optimizeQuality" font-family="sans-serif" stroke-linejoin="round" stroke="black" stroke-opacity="1" stroke-miterlimit="0"
    ><rect fill="none" x="0" width="147" height="35" y="0" clip-path="url(#clipPath7)"
      /><line clip-path="url(#clipPath7)" fill="none" x1="73" x2="73" y1="35" y2="381" stroke-linejoin="bevel" stroke-dasharray="8,3"
    /></g
    ><g font-size="11px" transform="translate(815,253)" fill-opacity="1" fill="rgb(122,207,245)" text-rendering="geometricPrecision" image-rendering="optimizeQuality" font-family="sans-serif" stroke="rgb(122,207,245)" stroke-opacity="1"
    ><rect x="0" width="8" height="13" y="0" clip-path="url(#clipPath8)" stroke="none"
    /></g
    ><g stroke-linecap="butt" font-size="11px" transform="translate(815,253)" fill-opacity="1" fill="black" text-rendering="geometricPrecision" image-rendering="optimizeQuality" font-family="sans-serif" stroke-linejoin="round" stroke="black" stroke-opacity="1" stroke-miterlimit="0"
    ><rect fill="none" x="0" width="8" height="13" y="0" clip-path="url(#clipPath8)"
    /></g
    ><g font-size="11px" transform="translate(247,80)" fill-opacity="1" fill="rgb(122,207,245)" text-rendering="geometricPrecision" image-rendering="optimizeQuality" font-family="sans-serif" stroke="rgb(122,207,245)" stroke-opacity="1"
    ><rect x="0" width="8" height="282" y="0" clip-path="url(#clipPath9)" stroke="none"
    /></g
    ><g stroke-linecap="butt" font-size="11px" transform="translate(247,80)" fill-opacity="1" fill="black" text-rendering="geometricPrecision" image-rendering="optimizeQuality" font-family="sans-serif" stroke-linejoin="round" stroke="black" stroke-opacity="1" stroke-miterlimit="0"
    ><rect fill="none" x="0" width="8" height="282" y="0" clip-path="url(#clipPath9)"
    /></g
    ><g font-size="11px" transform="translate(2,86)" fill-opacity="1" fill="black" text-rendering="geometricPrecision" image-rendering="optimizeQuality" font-family="sans-serif" stroke="black" stroke-opacity="1"
    ><circle r="7" clip-path="url(#clipPath10)" cx="7" cy="9" stroke="none"
    /></g
    ><g font-size="11px" transform="translate(2,353)" fill-opacity="1" fill="black" text-rendering="geometricPrecision" image-rendering="optimizeQuality" font-family="sans-serif" stroke="black" stroke-opacity="1"
    ><circle r="7" clip-path="url(#clipPath10)" cx="7" cy="9" stroke="none"
    /></g
    ><g font-size="11px" transform="translate(912,2)" fill-opacity="1" fill="black" text-rendering="geometricPrecision" image-rendering="optimizeQuality" font-family="sans-serif" stroke="black" stroke-opacity="1"
    ><text x="33" xml:space="preserve" y="12" clip-path="url(#clipPath11)" stroke="none"
      >org :</text
      ><text x="13" xml:space="preserve" y="27" clip-path="url(#clipPath11)" stroke="none"
      >Organizacao</text
    ></g
    ><g font-size="11px" transform="translate(209,2)" fill-opacity="1" fill="black" text-rendering="geometricPrecision" image-rendering="optimizeQuality" font-family="sans-serif" stroke="black" stroke-opacity="1"
    ><text x="12" xml:space="preserve" y="12" clip-path="url(#clipPath12)" stroke="none"
      >: Plataforma</text
    ></g
    ><g font-size="11px" transform="translate(628,2)" fill-opacity="1" fill="black" text-rendering="geometricPrecision" image-rendering="optimizeQuality" font-family="sans-serif" stroke="black" stroke-opacity="1"
    ><text x="12" xml:space="preserve" y="12" clip-path="url(#clipPath13)" stroke="none"
      >aplicacaoPOT :</text
      ><text x="14" xml:space="preserve" y="27" clip-path="url(#clipPath13)" stroke="none"
      >AplicacaoPOT</text
    ></g
    ><g font-size="11px" transform="translate(515,2)" fill-opacity="1" fill="black" text-rendering="geometricPrecision" image-rendering="optimizeQuality" font-family="sans-serif" stroke="black" stroke-opacity="1"
    ><text x="9" xml:space="preserve" y="12" clip-path="url(#clipPath14)" stroke="none"
      >: AplicacaoPOT</text
    ></g
    ><g font-size="11px" transform="translate(746,2)" fill-opacity="1" fill="black" text-rendering="geometricPrecision" image-rendering="optimizeQuality" font-family="sans-serif" stroke="black" stroke-opacity="1"
    ><text x="10" xml:space="preserve" y="12" clip-path="url(#clipPath15)" stroke="none"
      >sessao : SessaoUtilizador</text
    ></g
    ><g stroke-linecap="butt" font-size="11px" transform="translate(205,205)" fill-opacity="1" fill="black" text-rendering="geometricPrecision" image-rendering="optimizeQuality" font-family="sans-serif" stroke-linejoin="round" stroke="black" stroke-opacity="1"
    ><line y2="50" fill="none" x1="50" clip-path="url(#clipPath17)" x2="610" y1="50"
      /><polygon points=" 610 50 598 44 598 56" clip-path="url(#clipPath17)" stroke="none"
      /><polygon fill="none" points=" 610 50 598 44 598 56" clip-path="url(#clipPath17)"
    /></g
    ><g stroke-linecap="butt" font-size="11px" transform="translate(205,151)" fill-opacity="1" fill="black" text-rendering="geometricPrecision" image-rendering="optimizeQuality" font-family="sans-serif" stroke-linejoin="round" stroke="black" stroke-opacity="1"
    ><line y2="50" fill="none" x1="50" clip-path="url(#clipPath19)" x2="469" y1="50"
      /><polygon points=" 469 50 457 44 457 56" clip-path="url(#clipPath19)" stroke="none"
      /><polygon fill="none" points=" 469 50 457 44 457 56" clip-path="url(#clipPath19)"
    /></g
    ><g stroke-linecap="butt" font-size="11px" transform="translate(205,97)" fill-opacity="1" fill="black" text-rendering="geometricPrecision" image-rendering="optimizeQuality" font-family="sans-serif" stroke-linejoin="round" stroke="black" stroke-opacity="1"
    ><line y2="50" fill="none" x1="50" clip-path="url(#clipPath21)" x2="353" y1="50"
      /><polygon points=" 353 50 341 44 341 56" clip-path="url(#clipPath21)" stroke="none"
      /><polygon fill="none" points=" 353 50 341 44 341 56" clip-path="url(#clipPath21)"
    /></g
    ><g stroke-linecap="butt" font-size="11px" transform="translate(-34,43)" fill-opacity="1" fill="black" text-rendering="geometricPrecision" image-rendering="optimizeQuality" font-family="sans-serif" stroke-linejoin="round" stroke="black" stroke-opacity="1"
    ><line y2="50" fill="none" x1="50" clip-path="url(#clipPath23)" x2="281" y1="50"
      /><polygon points=" 281 50 269 44 269 56" clip-path="url(#clipPath23)" stroke="none"
      /><polygon fill="none" points=" 281 50 269 44 269 56" clip-path="url(#clipPath23)"
    /></g
    ><g stroke-linecap="butt" font-size="11px" transform="translate(-33,313)" fill-opacity="1" fill="black" text-rendering="geometricPrecision" image-rendering="optimizeQuality" font-family="sans-serif" stroke-linejoin="round" stroke="black" stroke-opacity="1"
    ><line y2="50" fill="none" x1="280" clip-path="url(#clipPath25)" x2="50" y1="50"
      /><polygon points=" 50 50 62 56 62 44" clip-path="url(#clipPath25)" stroke="none"
      /><polygon fill="none" points=" 50 50 62 56 62 44" clip-path="url(#clipPath25)"
    /></g
    ><g font-size="11px" transform="translate(96,339)" fill-opacity="1" fill="white" text-rendering="geometricPrecision" image-rendering="optimizeQuality" font-family="sans-serif" stroke="white" stroke-opacity="1"
    ><rect x="0" width="68" height="16" y="0" clip-path="url(#clipPath26)" stroke="none"
      /><text fill="black" x="10" xml:space="preserve" y="12" clip-path="url(#clipPath26)" stroke="none"
      >1.4: email</text
    ></g
    ><g font-size="11px" transform="translate(48,72)" fill-opacity="1" fill="white" text-rendering="geometricPrecision" image-rendering="optimizeQuality" font-family="sans-serif" stroke="white" stroke-opacity="1"
    ><rect x="0" width="159" height="16" y="0" clip-path="url(#clipPath27)" stroke="none"
      /><text fill="black" x="9" xml:space="preserve" y="12" clip-path="url(#clipPath27)" stroke="none"
      >1: getEmailByLogin() : string</text
    ></g
    ><g font-size="11px" transform="translate(273,123)" fill-opacity="1" fill="white" text-rendering="geometricPrecision" image-rendering="optimizeQuality" font-family="sans-serif" stroke="white" stroke-opacity="1"
    ><rect x="0" width="267" height="20" y="0" clip-path="url(#clipPath28)" stroke="none"
      /><text fill="black" x="12" xml:space="preserve" y="14" clip-path="url(#clipPath28)" stroke="none"
      >1.1: getInstance() : AplicacaoPOT: aplicacaoPOT</text
    ></g
    ><g font-size="11px" transform="translate(329,182)" fill-opacity="1" fill="white" text-rendering="geometricPrecision" image-rendering="optimizeQuality" font-family="sans-serif" stroke="white" stroke-opacity="1"
    ><rect x="0" width="259" height="15" y="0" clip-path="url(#clipPath29)" stroke="none"
      /><text fill="black" x="9" xml:space="preserve" y="12" clip-path="url(#clipPath29)" stroke="none"
      >1.2: getSessaoAtual() : SessaoUtilizador: sessao</text
    ></g
    ><g font-size="11px" transform="translate(432,233)" fill-opacity="1" fill="white" text-rendering="geometricPrecision" image-rendering="optimizeQuality" font-family="sans-serif" stroke="white" stroke-opacity="1"
    ><rect x="0" width="206" height="15" y="0" clip-path="url(#clipPath30)" stroke="none"
      /><text fill="black" x="10" xml:space="preserve" y="12" clip-path="url(#clipPath30)" stroke="none"
      >1.3: getEmailUtilizador() : string: email</text
    ></g
    ><g font-size="8px" fill-opacity="1" fill="rgb(120,120,120)" text-rendering="geometricPrecision" image-rendering="optimizeQuality" stroke="rgb(120,120,120)" stroke-opacity="1"
    ><text x="0" xml:space="preserve" y="10" stroke="none"
      >Visual Paradigm Standard(Joel Ribeiro(Instituto Superior de Engenharia do Porto))</text
    ></g
  ></g
></svg
>
