<?xml version="1.0" encoding="UTF-8"?>
<!DOCTYPE svg PUBLIC '-//W3C//DTD SVG 1.0//EN'
          'http://www.w3.org/TR/2001/REC-SVG-20010904/DTD/svg10.dtd'>
<svg fill-opacity="0" xmlns:xlink="http://www.w3.org/1999/xlink" color-rendering="auto" color-interpolation="auto" text-rendering="auto" stroke="rgb(0,0,0)" stroke-linecap="square" width="1171" stroke-miterlimit="10" shape-rendering="auto" stroke-opacity="0" fill="rgb(0,0,0)" stroke-dasharray="none" font-weight="normal" stroke-width="1" height="838" xmlns="http://www.w3.org/2000/svg" font-family="'Dialog'" font-style="normal" stroke-linejoin="miter" font-size="12px" stroke-dashoffset="0" image-rendering="auto"
><!--Generated by the Batik Graphics2D SVG Generator--><defs id="genericDefs"
  /><g
  ><defs id="defs1"
    ><clipPath clipPathUnits="userSpaceOnUse" id="clipPath1"
      ><path d="M-7 -7 L94 -7 L94 844 L-7 844 L-7 -7 Z"
      /></clipPath
      ><clipPath clipPathUnits="userSpaceOnUse" id="clipPath2"
      ><path d="M-7 -7 L26 -7 L26 31 L-7 31 L-7 -7 Z"
      /></clipPath
      ><clipPath clipPathUnits="userSpaceOnUse" id="clipPath3"
      ><path d="M-7 -7 L19 -7 L19 751 L-7 751 L-7 -7 Z"
      /></clipPath
      ><clipPath clipPathUnits="userSpaceOnUse" id="clipPath4"
      ><path d="M-7 -7 L134 -7 L134 844 L-7 844 L-7 -7 Z"
      /></clipPath
      ><clipPath clipPathUnits="userSpaceOnUse" id="clipPath5"
      ><path d="M-7 -7 L19 -7 L19 26 L-7 26 L-7 -7 Z"
      /></clipPath
      ><clipPath clipPathUnits="userSpaceOnUse" id="clipPath6"
      ><path d="M-7 -7 L128 -7 L128 844 L-7 844 L-7 -7 Z"
      /></clipPath
      ><clipPath clipPathUnits="userSpaceOnUse" id="clipPath7"
      ><path d="M-7 -7 L119 -7 L119 844 L-7 844 L-7 -7 Z"
      /></clipPath
      ><clipPath clipPathUnits="userSpaceOnUse" id="clipPath8"
      ><path d="M-7 -7 L133 -7 L133 844 L-7 844 L-7 -7 Z"
      /></clipPath
      ><clipPath clipPathUnits="userSpaceOnUse" id="clipPath9"
      ><path d="M-7 -7 L129 -7 L129 844 L-7 844 L-7 -7 Z"
      /></clipPath
      ><clipPath clipPathUnits="userSpaceOnUse" id="clipPath10"
      ><path d="M-7 -7 L351 -7 L351 185 L-7 185 L-7 -7 Z"
      /></clipPath
      ><clipPath clipPathUnits="userSpaceOnUse" id="clipPath11"
      ><path d="M285 23 L285 38 L37 38 L37 23 ZM-7 -7 L-7 185 L351 185 L351 -7 Z"
      /></clipPath
      ><clipPath clipPathUnits="userSpaceOnUse" id="clipPath12"
      ><path d="M0 0 L0 18 L34 18 L34 0 Z"
      /></clipPath
      ><clipPath clipPathUnits="userSpaceOnUse" id="clipPath13"
      ><path d="M-7 -7 L279 -7 L279 148 L-7 148 L-7 -7 Z"
      /></clipPath
      ><clipPath clipPathUnits="userSpaceOnUse" id="clipPath14"
      ><path d="M71 23 L71 38 L37 38 L37 23 ZM-7 -7 L-7 148 L279 148 L279 -7 Z"
      /></clipPath
      ><clipPath clipPathUnits="userSpaceOnUse" id="clipPath15"
      ><path d="M0 0 L0 18 L23 18 L23 0 Z"
      /></clipPath
      ><clipPath clipPathUnits="userSpaceOnUse" id="clipPath16"
      ><path d="M-7 -7 L920 -7 L920 650 L-7 650 L-7 -7 Z"
      /></clipPath
      ><clipPath clipPathUnits="userSpaceOnUse" id="clipPath17"
      ><path d="M299 23 L299 38 L37 38 L37 23 ZM-7 -7 L-7 650 L920 650 L920 -7 Z"
      /></clipPath
      ><clipPath clipPathUnits="userSpaceOnUse" id="clipPath18"
      ><path d="M-7 -7 L279 -7 L279 61 L-7 61 L-7 -7 Z"
      /></clipPath
      ><clipPath clipPathUnits="userSpaceOnUse" id="clipPath19"
      ><path d="M0 0 L0 4 L268 4 L268 0 Z"
      /></clipPath
      ><clipPath clipPathUnits="userSpaceOnUse" id="clipPath20"
      ><path d="M-7 -7 L279 -7 L279 81 L-7 81 L-7 -7 Z"
      /></clipPath
      ><clipPath clipPathUnits="userSpaceOnUse" id="clipPath21"
      ><path d="M0 0 L0 15 L54 15 L54 0 Z"
      /></clipPath
      ><clipPath clipPathUnits="userSpaceOnUse" id="clipPath22"
      ><path d="M-7 -7 L351 -7 L351 167 L-7 167 L-7 -7 Z"
      /></clipPath
      ><clipPath clipPathUnits="userSpaceOnUse" id="clipPath23"
      ><path d="M0 0 L0 15 L269 15 L269 0 Z"
      /></clipPath
      ><clipPath clipPathUnits="userSpaceOnUse" id="clipPath24"
      ><path d="M0 0 L0 4 L340 4 L340 0 Z"
      /></clipPath
      ><clipPath clipPathUnits="userSpaceOnUse" id="clipPath25"
      ><path d="M-7 -7 L19 -7 L19 289 L-7 289 L-7 -7 Z"
      /></clipPath
      ><clipPath clipPathUnits="userSpaceOnUse" id="clipPath26"
      ><path d="M-7 -7 L19 -7 L19 23 L-7 23 L-7 -7 Z"
      /></clipPath
      ><clipPath clipPathUnits="userSpaceOnUse" id="clipPath27"
      ><path d="M-7 -7 L920 -7 L920 632 L-7 632 L-7 -7 Z"
      /></clipPath
      ><clipPath clipPathUnits="userSpaceOnUse" id="clipPath28"
      ><path d="M0 0 L0 15 L283 15 L283 0 Z"
      /></clipPath
      ><clipPath clipPathUnits="userSpaceOnUse" id="clipPath29"
      ><path d="M0 0 L0 4 L909 4 L909 0 Z"
      /></clipPath
      ><clipPath clipPathUnits="userSpaceOnUse" id="clipPath30"
      ><path d="M-117 -30 L234 -30 L234 60 L-117 60 L-117 -30 Z"
      /></clipPath
      ><clipPath clipPathUnits="userSpaceOnUse" id="clipPath31"
      ><path d="M-83 -15 L166 -15 L166 30 L-83 30 L-83 -15 Z"
      /></clipPath
      ><clipPath clipPathUnits="userSpaceOnUse" id="clipPath32"
      ><path d="M-123 -15 L246 -15 L246 30 L-123 30 L-123 -15 Z"
      /></clipPath
      ><clipPath clipPathUnits="userSpaceOnUse" id="clipPath33"
      ><path d="M-108 -15 L216 -15 L216 30 L-108 30 L-108 -15 Z"
      /></clipPath
      ><clipPath clipPathUnits="userSpaceOnUse" id="clipPath34"
      ><path d="M-122 -15 L244 -15 L244 30 L-122 30 L-122 -15 Z"
      /></clipPath
      ><clipPath clipPathUnits="userSpaceOnUse" id="clipPath35"
      ><path d="M-118 -15 L236 -15 L236 30 L-118 30 L-118 -15 Z"
      /></clipPath
      ><clipPath clipPathUnits="userSpaceOnUse" id="clipPath36"
      ><path d="M0 0 L425 0 L425 146 L0 146 L0 0 Z"
      /></clipPath
      ><clipPath clipPathUnits="userSpaceOnUse" id="clipPath37"
      ><path d="M308 30 L308 67 L83 67 L83 30 ZM0 0 L0 146 L425 146 L425 112 L392 112 L392 97 L425 97 L425 0 L396 0 L396 14 L313 14 L313 0 Z"
      /></clipPath
      ><clipPath clipPathUnits="userSpaceOnUse" id="clipPath38"
      ><path d="M0 0 L175 0 L175 166 L0 166 L0 0 Z"
      /></clipPath
      ><clipPath clipPathUnits="userSpaceOnUse" id="clipPath39"
      ><path d="M0 0 L0 4 L21 4 L21 41 L0 41 L0 166 L175 166 L175 86 L105 86 L105 71 L175 71 L175 0 Z"
      /></clipPath
      ><clipPath clipPathUnits="userSpaceOnUse" id="clipPath40"
      ><path d="M0 0 L300 0 L300 129 L0 129 L0 0 Z"
      /></clipPath
      ><clipPath clipPathUnits="userSpaceOnUse" id="clipPath41"
      ><path d="M192 40 L192 55 L97 55 L97 40 ZM0 0 L0 129 L164 129 L164 119 L300 119 L300 94 L107 94 L107 79 L300 79 L300 0 Z"
      /></clipPath
      ><clipPath clipPathUnits="userSpaceOnUse" id="clipPath42"
      ><path d="M0 0 L632 0 L632 129 L0 129 L0 0 Z"
      /></clipPath
      ><clipPath clipPathUnits="userSpaceOnUse" id="clipPath43"
      ><path d="M376 2 L376 17 L107 17 L107 2 ZM446 42 L446 57 L164 57 L164 42 ZM0 0 L0 129 L632 129 L632 97 L616 97 L616 82 L632 82 L632 0 Z"
      /></clipPath
      ><clipPath clipPathUnits="userSpaceOnUse" id="clipPath44"
      ><path d="M0 0 L165 0 L165 158 L0 158 L0 0 Z"
      /></clipPath
      ><clipPath clipPathUnits="userSpaceOnUse" id="clipPath45"
      ><path d="M0 0 L0 158 L165 158 L165 79 L106 79 L106 64 L165 64 L165 0 Z"
      /></clipPath
      ><clipPath clipPathUnits="userSpaceOnUse" id="clipPath46"
      ><path d="M0 0 L254 0 L254 129 L0 129 L0 0 Z"
      /></clipPath
      ><clipPath clipPathUnits="userSpaceOnUse" id="clipPath47"
      ><path d="M182 42 L182 57 L67 57 L67 42 ZM0 0 L0 129 L254 129 L254 118 L74 118 L74 103 L254 103 L254 0 Z"
      /></clipPath
      ><clipPath clipPathUnits="userSpaceOnUse" id="clipPath48"
      ><path d="M0 0 L388 0 L388 129 L0 129 L0 0 Z"
      /></clipPath
      ><clipPath clipPathUnits="userSpaceOnUse" id="clipPath49"
      ><path d="M306 43 L306 58 L74 58 L74 43 ZM0 0 L0 129 L388 129 L388 0 Z"
      /></clipPath
      ><clipPath clipPathUnits="userSpaceOnUse" id="clipPath50"
      ><path d="M351 42 L351 57 L272 57 L272 42 ZM0 0 L0 129 L632 129 L632 26 L584 26 L584 11 L632 11 L632 0 Z"
      /></clipPath
      ><clipPath clipPathUnits="userSpaceOnUse" id="clipPath51"
      ><path d="M0 0 L160 0 L160 149 L0 149 L0 0 Z"
      /></clipPath
      ><clipPath clipPathUnits="userSpaceOnUse" id="clipPath52"
      ><path d="M0 0 L0 149 L160 149 L160 81 L94 81 L94 66 L160 66 L160 0 Z"
      /></clipPath
      ><clipPath clipPathUnits="userSpaceOnUse" id="clipPath53"
      ><path d="M0 0 L430 0 L430 129 L0 129 L0 0 Z"
      /></clipPath
      ><clipPath clipPathUnits="userSpaceOnUse" id="clipPath54"
      ><path d="M255 41 L255 56 L164 56 L164 41 ZM0 0 L0 129 L430 129 L430 0 Z"
      /></clipPath
      ><clipPath clipPathUnits="userSpaceOnUse" id="clipPath55"
      ><path d="M0 0 L494 0 L494 129 L0 129 L0 0 Z"
      /></clipPath
      ><clipPath clipPathUnits="userSpaceOnUse" id="clipPath56"
      ><path d="M192 2 L192 17 L97 17 L97 2 ZM376 41 L376 56 L107 56 L107 41 ZM446 81 L446 96 L164 96 L164 81 ZM0 0 L0 129 L494 129 L494 0 Z"
      /></clipPath
      ><clipPath clipPathUnits="userSpaceOnUse" id="clipPath57"
      ><path d="M-269 -15 L538 -15 L538 30 L-269 30 L-269 -15 Z"
      /></clipPath
      ><clipPath clipPathUnits="userSpaceOnUse" id="clipPath58"
      ><path d="M-91 -15 L182 -15 L182 30 L-91 30 L-91 -15 Z"
      /></clipPath
      ><clipPath clipPathUnits="userSpaceOnUse" id="clipPath59"
      ><path d="M-112 -15 L224 -15 L224 30 L-112 30 L-112 -15 Z"
      /></clipPath
      ><clipPath clipPathUnits="userSpaceOnUse" id="clipPath60"
      ><path d="M-79 -15 L158 -15 L158 30 L-79 30 L-79 -15 Z"
      /></clipPath
      ><clipPath clipPathUnits="userSpaceOnUse" id="clipPath61"
      ><path d="M-232 -15 L464 -15 L464 30 L-232 30 L-232 -15 Z"
      /></clipPath
      ><clipPath clipPathUnits="userSpaceOnUse" id="clipPath62"
      ><path d="M-115 -15 L230 -15 L230 30 L-115 30 L-115 -15 Z"
      /></clipPath
      ><clipPath clipPathUnits="userSpaceOnUse" id="clipPath63"
      ><path d="M-282 -15 L564 -15 L564 30 L-282 30 L-282 -15 Z"
      /></clipPath
      ><clipPath clipPathUnits="userSpaceOnUse" id="clipPath64"
      ><path d="M-95 -15 L190 -15 L190 30 L-95 30 L-95 -15 Z"
      /></clipPath
      ><clipPath clipPathUnits="userSpaceOnUse" id="clipPath65"
      ><path d="M-114 -15 L228 -15 L228 30 L-114 30 L-114 -15 Z"
      /></clipPath
      ><clipPath clipPathUnits="userSpaceOnUse" id="clipPath66"
      ><path d="M-225 -37 L450 -37 L450 74 L-225 74 L-225 -37 Z"
      /></clipPath
    ></defs
    ><g fill="white" text-rendering="geometricPrecision" fill-opacity="1" stroke-opacity="1" stroke="white"
    ><rect x="0" width="1171" height="838" y="0" stroke="none"
    /></g
    ><g font-size="11px" transform="translate(281.75,2)" fill-opacity="1" fill="rgb(122,207,245)" text-rendering="geometricPrecision" image-rendering="optimizeQuality" font-family="sans-serif" stroke="rgb(122,207,245)" stroke-opacity="1"
    ><rect x="0" width="82" height="35" y="0" clip-path="url(#clipPath1)" stroke="none"
    /></g
    ><g stroke-linecap="butt" font-size="11px" transform="translate(281.75,2)" fill-opacity="1" fill="black" text-rendering="geometricPrecision" image-rendering="optimizeQuality" font-family="sans-serif" stroke-linejoin="round" stroke="black" stroke-opacity="1" stroke-miterlimit="0"
    ><rect fill="none" x="0" width="82" height="35" y="0" clip-path="url(#clipPath1)"
      /><line clip-path="url(#clipPath1)" fill="none" x1="41" x2="41" y1="35" y2="833" stroke-linejoin="bevel" stroke-dasharray="8,3"
    /></g
    ><g font-size="11px" transform="translate(26.75,65)" fill-opacity="1" fill="black" text-rendering="geometricPrecision" image-rendering="optimizeQuality" font-family="sans-serif" stroke="black" stroke-opacity="1"
    ><circle r="7" clip-path="url(#clipPath2)" cx="7" cy="9" stroke="none"
    /></g
    ><g font-size="11px" transform="translate(318.75,75)" fill-opacity="1" fill="rgb(122,207,245)" text-rendering="geometricPrecision" image-rendering="optimizeQuality" font-family="sans-serif" stroke="rgb(122,207,245)" stroke-opacity="1"
    ><rect x="0" width="8" height="740" y="0" clip-path="url(#clipPath3)" stroke="none"
    /></g
    ><g stroke-linecap="butt" font-size="11px" transform="translate(318.75,75)" fill-opacity="1" fill="black" text-rendering="geometricPrecision" image-rendering="optimizeQuality" font-family="sans-serif" stroke-linejoin="round" stroke="black" stroke-opacity="1" stroke-miterlimit="0"
    ><rect fill="none" x="0" width="8" height="740" y="0" clip-path="url(#clipPath3)"
    /></g
    ><g font-size="11px" transform="translate(441.75,2)" fill-opacity="1" fill="rgb(122,207,245)" text-rendering="geometricPrecision" image-rendering="optimizeQuality" font-family="sans-serif" stroke="rgb(122,207,245)" stroke-opacity="1"
    ><rect x="0" width="122" height="35" y="0" clip-path="url(#clipPath4)" stroke="none"
    /></g
    ><g stroke-linecap="butt" font-size="11px" transform="translate(441.75,2)" fill-opacity="1" fill="black" text-rendering="geometricPrecision" image-rendering="optimizeQuality" font-family="sans-serif" stroke-linejoin="round" stroke="black" stroke-opacity="1" stroke-miterlimit="0"
    ><rect fill="none" x="0" width="122" height="35" y="0" clip-path="url(#clipPath4)"
      /><line clip-path="url(#clipPath4)" fill="none" x1="61" x2="61" y1="35" y2="833" stroke-linejoin="bevel" stroke-dasharray="8,3"
    /></g
    ><g font-size="11px" transform="translate(498.75,246)" fill-opacity="1" fill="rgb(122,207,245)" text-rendering="geometricPrecision" image-rendering="optimizeQuality" font-family="sans-serif" stroke="rgb(122,207,245)" stroke-opacity="1"
    ><rect x="0" width="8" height="15" y="0" clip-path="url(#clipPath5)" stroke="none"
    /></g
    ><g stroke-linecap="butt" font-size="11px" transform="translate(498.75,246)" fill-opacity="1" fill="black" text-rendering="geometricPrecision" image-rendering="optimizeQuality" font-family="sans-serif" stroke-linejoin="round" stroke="black" stroke-opacity="1" stroke-miterlimit="0"
    ><rect fill="none" x="0" width="8" height="15" y="0" clip-path="url(#clipPath5)"
    /></g
    ><g font-size="11px" transform="translate(774.75,2)" fill-opacity="1" fill="rgb(122,207,245)" text-rendering="geometricPrecision" image-rendering="optimizeQuality" font-family="sans-serif" stroke="rgb(122,207,245)" stroke-opacity="1"
    ><rect x="0" width="116" height="35" y="0" clip-path="url(#clipPath6)" stroke="none"
    /></g
    ><g stroke-linecap="butt" font-size="11px" transform="translate(774.75,2)" fill-opacity="1" fill="black" text-rendering="geometricPrecision" image-rendering="optimizeQuality" font-family="sans-serif" stroke-linejoin="round" stroke="black" stroke-opacity="1" stroke-miterlimit="0"
    ><rect fill="none" x="0" width="116" height="35" y="0" clip-path="url(#clipPath6)"
      /><line clip-path="url(#clipPath6)" fill="none" x1="58" x2="58" y1="35" y2="833" stroke-linejoin="bevel" stroke-dasharray="8,3"
    /></g
    ><g font-size="11px" transform="translate(641.75,2)" fill-opacity="1" fill="rgb(122,207,245)" text-rendering="geometricPrecision" image-rendering="optimizeQuality" font-family="sans-serif" stroke="rgb(122,207,245)" stroke-opacity="1"
    ><rect x="0" width="107" height="35" y="0" clip-path="url(#clipPath7)" stroke="none"
    /></g
    ><g stroke-linecap="butt" font-size="11px" transform="translate(641.75,2)" fill-opacity="1" fill="black" text-rendering="geometricPrecision" image-rendering="optimizeQuality" font-family="sans-serif" stroke-linejoin="round" stroke="black" stroke-opacity="1" stroke-miterlimit="0"
    ><rect fill="none" x="0" width="107" height="35" y="0" clip-path="url(#clipPath7)"
      /><line clip-path="url(#clipPath7)" fill="none" x1="53" x2="53" y1="35" y2="833" stroke-linejoin="bevel" stroke-dasharray="8,3"
    /></g
    ><g font-size="11px" transform="translate(904.75,2)" fill-opacity="1" fill="rgb(122,207,245)" text-rendering="geometricPrecision" image-rendering="optimizeQuality" font-family="sans-serif" stroke="rgb(122,207,245)" stroke-opacity="1"
    ><rect x="0" width="121" height="35" y="0" clip-path="url(#clipPath8)" stroke="none"
    /></g
    ><g stroke-linecap="butt" font-size="11px" transform="translate(904.75,2)" fill-opacity="1" fill="black" text-rendering="geometricPrecision" image-rendering="optimizeQuality" font-family="sans-serif" stroke-linejoin="round" stroke="black" stroke-opacity="1" stroke-miterlimit="0"
    ><rect fill="none" x="0" width="121" height="35" y="0" clip-path="url(#clipPath8)"
      /><line clip-path="url(#clipPath8)" fill="none" x1="60" x2="60" y1="35" y2="833" stroke-linejoin="bevel" stroke-dasharray="8,3"
    /></g
    ><g font-size="11px" transform="translate(1040.75,2)" fill-opacity="1" fill="rgb(122,207,245)" text-rendering="geometricPrecision" image-rendering="optimizeQuality" font-family="sans-serif" stroke="rgb(122,207,245)" stroke-opacity="1"
    ><rect x="0" width="117" height="35" y="0" clip-path="url(#clipPath9)" stroke="none"
    /></g
    ><g stroke-linecap="butt" font-size="11px" transform="translate(1040.75,2)" fill-opacity="1" fill="black" text-rendering="geometricPrecision" image-rendering="optimizeQuality" font-family="sans-serif" stroke-linejoin="round" stroke="black" stroke-opacity="1" stroke-miterlimit="0"
    ><rect fill="none" x="0" width="117" height="35" y="0" clip-path="url(#clipPath9)"
      /><line clip-path="url(#clipPath9)" fill="none" x1="58" x2="58" y1="35" y2="833" stroke-linejoin="bevel" stroke-dasharray="8,3"
    /></g
    ><g font-size="11px" transform="translate(961.75,496)" fill-opacity="1" fill="rgb(122,207,245)" text-rendering="geometricPrecision" image-rendering="optimizeQuality" font-family="sans-serif" stroke="rgb(122,207,245)" stroke-opacity="1"
    ><rect x="0" width="8" height="15" y="0" clip-path="url(#clipPath5)" stroke="none"
    /></g
    ><g stroke-linecap="butt" font-size="11px" transform="translate(961.75,496)" fill-opacity="1" fill="black" text-rendering="geometricPrecision" image-rendering="optimizeQuality" font-family="sans-serif" stroke-linejoin="round" stroke="black" stroke-opacity="1" stroke-miterlimit="0"
    ><rect fill="none" x="0" width="8" height="15" y="0" clip-path="url(#clipPath5)"
    /></g
    ><g font-size="11px" transform="translate(1095.75,557)" fill-opacity="1" fill="rgb(122,207,245)" text-rendering="geometricPrecision" image-rendering="optimizeQuality" font-family="sans-serif" stroke="rgb(122,207,245)" stroke-opacity="1"
    ><rect x="0" width="8" height="15" y="0" clip-path="url(#clipPath5)" stroke="none"
    /></g
    ><g stroke-linecap="butt" font-size="11px" transform="translate(1095.75,557)" fill-opacity="1" fill="black" text-rendering="geometricPrecision" image-rendering="optimizeQuality" font-family="sans-serif" stroke-linejoin="round" stroke="black" stroke-opacity="1" stroke-miterlimit="0"
    ><rect fill="none" x="0" width="8" height="15" y="0" clip-path="url(#clipPath5)"
    /></g
    ><g font-size="11px" transform="translate(1.75,792)" fill-opacity="1" fill="black" text-rendering="geometricPrecision" image-rendering="optimizeQuality" font-family="sans-serif" stroke="black" stroke-opacity="1"
    ><circle r="7" clip-path="url(#clipPath2)" cx="7" cy="9" stroke="none"
    /></g
    ><g fill-opacity="1" text-rendering="geometricPrecision" stroke="black" stroke-linecap="butt" transform="translate(810.75,408)" stroke-miterlimit="0" stroke-opacity="1" fill="black" font-weight="bold" font-family="sans-serif" stroke-linejoin="round" font-size="11px" image-rendering="optimizeQuality"
    ><rect fill="none" x="0" width="340" height="174" y="0" clip-path="url(#clipPath11)"
    /></g
    ><g font-size="11px" transform="translate(810.75,408)" fill-opacity="1" fill="white" text-rendering="geometricPrecision" image-rendering="optimizeQuality" font-family="sans-serif" stroke="white" font-weight="bold" stroke-opacity="1"
    ><path d="M33 0 L33 9 L27 17 L0 17 L0 0 Z" stroke="none" clip-path="url(#clipPath11)"
    /></g
    ><g fill-opacity="1" text-rendering="geometricPrecision" stroke="black" stroke-linecap="butt" transform="translate(810.75,408)" stroke-miterlimit="0" stroke-opacity="1" fill="black" font-weight="bold" font-family="sans-serif" stroke-linejoin="round" font-size="11px" image-rendering="optimizeQuality"
    ><path fill="none" d="M33 0 L33 9 L27 17 L0 17 L0 0 Z" clip-path="url(#clipPath11)"
    /></g
    ><g font-size="11px" transform="translate(810.75,408)" fill-opacity="1" fill="black" text-rendering="geometricPrecision" image-rendering="optimizeQuality" font-family="sans-serif" stroke="black" font-weight="bold" stroke-opacity="1"
    ><text x="5" xml:space="preserve" y="12" clip-path="url(#clipPath12)" stroke="none"
      >loop</text
    ></g
    ><g fill-opacity="1" text-rendering="geometricPrecision" stroke="black" stroke-linecap="butt" transform="translate(280.75,617)" stroke-miterlimit="0" stroke-opacity="1" fill="black" font-weight="bold" font-family="sans-serif" stroke-linejoin="round" font-size="11px" image-rendering="optimizeQuality"
    ><rect fill="none" x="0" width="268" height="137" y="0" clip-path="url(#clipPath14)"
    /></g
    ><g font-size="11px" transform="translate(280.75,617)" fill-opacity="1" fill="white" text-rendering="geometricPrecision" image-rendering="optimizeQuality" font-family="sans-serif" stroke="white" font-weight="bold" stroke-opacity="1"
    ><path d="M22 0 L22 9 L16 17 L0 17 L0 0 Z" stroke="none" clip-path="url(#clipPath14)"
    /></g
    ><g fill-opacity="1" text-rendering="geometricPrecision" stroke="black" stroke-linecap="butt" transform="translate(280.75,617)" stroke-miterlimit="0" stroke-opacity="1" fill="black" font-weight="bold" font-family="sans-serif" stroke-linejoin="round" font-size="11px" image-rendering="optimizeQuality"
    ><path fill="none" d="M22 0 L22 9 L16 17 L0 17 L0 0 Z" clip-path="url(#clipPath14)"
    /></g
    ><g font-size="11px" transform="translate(280.75,617)" fill-opacity="1" fill="black" text-rendering="geometricPrecision" image-rendering="optimizeQuality" font-family="sans-serif" stroke="black" font-weight="bold" stroke-opacity="1"
    ><text x="5" xml:space="preserve" y="12" clip-path="url(#clipPath15)" stroke="none"
      >alt</text
    ></g
    ><g fill-opacity="1" text-rendering="geometricPrecision" stroke="black" stroke-linecap="butt" transform="translate(258.75,143)" stroke-miterlimit="0" stroke-opacity="1" fill="black" font-weight="bold" font-family="sans-serif" stroke-linejoin="round" font-size="11px" image-rendering="optimizeQuality"
    ><rect fill="none" x="0" width="909" height="639" y="0" clip-path="url(#clipPath17)"
    /></g
    ><g font-size="11px" transform="translate(258.75,143)" fill-opacity="1" fill="white" text-rendering="geometricPrecision" image-rendering="optimizeQuality" font-family="sans-serif" stroke="white" font-weight="bold" stroke-opacity="1"
    ><path d="M33 0 L33 9 L27 17 L0 17 L0 0 Z" stroke="none" clip-path="url(#clipPath17)"
    /></g
    ><g fill-opacity="1" text-rendering="geometricPrecision" stroke="black" stroke-linecap="butt" transform="translate(258.75,143)" stroke-miterlimit="0" stroke-opacity="1" fill="black" font-weight="bold" font-family="sans-serif" stroke-linejoin="round" font-size="11px" image-rendering="optimizeQuality"
    ><path fill="none" d="M33 0 L33 9 L27 17 L0 17 L0 0 Z" clip-path="url(#clipPath17)"
    /></g
    ><g font-size="11px" transform="translate(258.75,143)" fill-opacity="1" fill="black" text-rendering="geometricPrecision" image-rendering="optimizeQuality" font-family="sans-serif" stroke="black" font-weight="bold" stroke-opacity="1"
    ><text x="5" xml:space="preserve" y="12" clip-path="url(#clipPath12)" stroke="none"
      >loop</text
    ></g
    ><g fill-opacity="1" text-rendering="geometricPrecision" stroke="black" stroke-linecap="butt" transform="translate(280.75,635)" stroke-miterlimit="0" stroke-opacity="1" fill="black" stroke-dasharray="5,2" font-family="sans-serif" stroke-linejoin="bevel" font-size="11px" image-rendering="optimizeQuality"
    ><line y2="69" fill="none" x1="0" clip-path="url(#clipPath20)" x2="267" y1="69"
    /></g
    ><g font-size="11px" transform="translate(308.75,640)" fill-opacity="1" fill="white" text-rendering="geometricPrecision" image-rendering="optimizeQuality" font-family="sans-serif" stroke="white" stroke-opacity="1"
    ><rect x="9" width="36" height="17" y="-1" clip-path="url(#clipPath21)" stroke="none"
      /><text fill="black" x="10" xml:space="preserve" y="12" clip-path="url(#clipPath21)" stroke="none"
      >[found]</text
    ></g
    ><g font-size="11px" transform="translate(838.75,431)" fill-opacity="1" fill="white" text-rendering="geometricPrecision" image-rendering="optimizeQuality" font-family="sans-serif" stroke="white" stroke-opacity="1"
    ><rect x="9" width="250" height="17" y="-1" clip-path="url(#clipPath23)" stroke="none"
      /><text fill="black" x="10" xml:space="preserve" y="12" clip-path="url(#clipPath23)" stroke="none"
      >[Para cada colaborador e enquanto found == false]</text
    ></g
    ><g font-size="11px" transform="translate(829.75,322)" fill-opacity="1" fill="rgb(122,207,245)" text-rendering="geometricPrecision" image-rendering="optimizeQuality" font-family="sans-serif" stroke="rgb(122,207,245)" stroke-opacity="1"
    ><rect x="0" width="8" height="278" y="0" clip-path="url(#clipPath25)" stroke="none"
    /></g
    ><g stroke-linecap="butt" font-size="11px" transform="translate(829.75,322)" fill-opacity="1" fill="black" text-rendering="geometricPrecision" image-rendering="optimizeQuality" font-family="sans-serif" stroke-linejoin="round" stroke="black" stroke-opacity="1" stroke-miterlimit="0"
    ><rect fill="none" x="0" width="8" height="278" y="0" clip-path="url(#clipPath25)"
    /></g
    ><g font-size="11px" transform="translate(691.75,283)" fill-opacity="1" fill="rgb(122,207,245)" text-rendering="geometricPrecision" image-rendering="optimizeQuality" font-family="sans-serif" stroke="rgb(122,207,245)" stroke-opacity="1"
    ><rect x="0" width="8" height="12" y="0" clip-path="url(#clipPath26)" stroke="none"
    /></g
    ><g stroke-linecap="butt" font-size="11px" transform="translate(691.75,283)" fill-opacity="1" fill="black" text-rendering="geometricPrecision" image-rendering="optimizeQuality" font-family="sans-serif" stroke-linejoin="round" stroke="black" stroke-opacity="1" stroke-miterlimit="0"
    ><rect fill="none" x="0" width="8" height="12" y="0" clip-path="url(#clipPath26)"
    /></g
    ><g font-size="11px" transform="translate(286.75,166)" fill-opacity="1" fill="white" text-rendering="geometricPrecision" image-rendering="optimizeQuality" font-family="sans-serif" stroke="white" stroke-opacity="1"
    ><rect x="9" width="264" height="17" y="-1" clip-path="url(#clipPath28)" stroke="none"
      /><text fill="black" x="10" xml:space="preserve" y="12" clip-path="url(#clipPath28)" stroke="none"
      >[Para cada organizacao e enquando orgReturn = null]</text
    ></g
    ><g font-size="11px" transform="translate(774.75,2)" fill-opacity="1" fill="black" text-rendering="geometricPrecision" image-rendering="optimizeQuality" font-family="sans-serif" stroke="black" stroke-opacity="1"
    ><text x="8" xml:space="preserve" y="12" clip-path="url(#clipPath30)" stroke="none"
      >registoColaborador :</text
      ><text x="9" xml:space="preserve" y="27" clip-path="url(#clipPath30)" stroke="none"
      >RegistoColaborador</text
    ></g
    ><g font-size="11px" transform="translate(281.75,2)" fill-opacity="1" fill="black" text-rendering="geometricPrecision" image-rendering="optimizeQuality" font-family="sans-serif" stroke="black" stroke-opacity="1"
    ><text x="11" xml:space="preserve" y="12" clip-path="url(#clipPath31)" stroke="none"
      >: Plataforma</text
    ></g
    ><g font-size="11px" transform="translate(441.75,2)" fill-opacity="1" fill="black" text-rendering="geometricPrecision" image-rendering="optimizeQuality" font-family="sans-serif" stroke="black" stroke-opacity="1"
    ><text x="11" xml:space="preserve" y="12" clip-path="url(#clipPath32)" stroke="none"
      >: List&lt;Organizacao&gt;</text
    ></g
    ><g font-size="11px" transform="translate(641.75,2)" fill-opacity="1" fill="black" text-rendering="geometricPrecision" image-rendering="optimizeQuality" font-family="sans-serif" stroke="black" stroke-opacity="1"
    ><text x="9" xml:space="preserve" y="12" clip-path="url(#clipPath33)" stroke="none"
      >org : Organizacao</text
    ></g
    ><g font-size="11px" transform="translate(904.75,2)" fill-opacity="1" fill="black" text-rendering="geometricPrecision" image-rendering="optimizeQuality" font-family="sans-serif" stroke="black" stroke-opacity="1"
    ><text x="10" xml:space="preserve" y="12" clip-path="url(#clipPath34)" stroke="none"
      >: List &lt;Colaborador&gt;</text
    ></g
    ><g font-size="11px" transform="translate(1040.75,2)" fill-opacity="1" fill="black" text-rendering="geometricPrecision" image-rendering="optimizeQuality" font-family="sans-serif" stroke="black" stroke-opacity="1"
    ><text x="10" xml:space="preserve" y="12" clip-path="url(#clipPath35)" stroke="none"
      >colab : Colaborador</text
    ></g
    ><g stroke-linecap="butt" font-size="11px" transform="translate(-31.25,3)" fill-opacity="1" fill="black" text-rendering="geometricPrecision" image-rendering="optimizeQuality" font-family="sans-serif" stroke-linejoin="round" stroke="black" stroke-opacity="1"
    ><line y2="71" fill="none" x1="72" clip-path="url(#clipPath37)" x2="350" y1="71"
      /><polygon points=" 350 71 338 65 338 77" clip-path="url(#clipPath37)" stroke="none"
      /><polygon fill="none" points=" 350 71 338 65 338 77" clip-path="url(#clipPath37)"
    /></g
    ><g stroke-linecap="butt" font-size="11px" transform="translate(255.75,29)" fill-opacity="1" fill="black" text-rendering="geometricPrecision" image-rendering="optimizeQuality" font-family="sans-serif" stroke-linejoin="round" stroke="black" stroke-opacity="1"
    ><line y2="71" fill="none" x1="72" clip-path="url(#clipPath39)" x2="100" y1="71"
      /><line y2="91" fill="none" x1="100" clip-path="url(#clipPath39)" x2="100" y1="71"
      /><line y2="91" fill="none" x1="100" clip-path="url(#clipPath39)" x2="72" y1="91"
      /><polygon points=" 72 91 84 97 84 85" clip-path="url(#clipPath39)" stroke="none"
      /><polygon fill="none" points=" 72 91 84 97 84 85" clip-path="url(#clipPath39)"
    /></g
    ><g stroke-linecap="butt" font-size="11px" transform="translate(264.75,183)" fill-opacity="1" fill="black" text-rendering="geometricPrecision" image-rendering="optimizeQuality" font-family="sans-serif" stroke-linejoin="round" stroke="black" stroke-opacity="1"
    ><line y2="63" fill="none" x1="63" clip-path="url(#clipPath41)" x2="234" y1="63"
      /><polygon points=" 234 63 222 57 222 69" clip-path="url(#clipPath41)" stroke="none"
      /><polygon fill="none" points=" 234 63 222 57 222 69" clip-path="url(#clipPath41)"
    /></g
    ><g stroke-linecap="butt" font-size="11px" transform="translate(264.75,260)" fill-opacity="1" fill="black" text-rendering="geometricPrecision" image-rendering="optimizeQuality" font-family="sans-serif" stroke-linejoin="round" stroke="black" stroke-opacity="1"
    ><line y2="63" fill="none" x1="63" clip-path="url(#clipPath43)" x2="565" y1="63"
      /><polygon points=" 565 63 553 57 553 69" clip-path="url(#clipPath43)" stroke="none"
      /><polygon fill="none" points=" 565 63 553 57 553 69" clip-path="url(#clipPath43)"
    /></g
    ><g stroke-linecap="butt" font-size="11px" transform="translate(774.75,278)" fill-opacity="1" fill="black" text-rendering="geometricPrecision" image-rendering="optimizeQuality" font-family="sans-serif" stroke-linejoin="round" stroke="black" stroke-opacity="1"
    ><line y2="63" fill="none" x1="63" clip-path="url(#clipPath45)" x2="99" y1="63"
      /><line y2="91" fill="none" x1="99" clip-path="url(#clipPath45)" x2="99" y1="63"
      /><line y2="91" fill="none" x1="99" clip-path="url(#clipPath45)" x2="63" y1="91"
      /><polygon points=" 63 91 75 97 75 85" clip-path="url(#clipPath45)" stroke="none"
      /><polygon fill="none" points=" 63 91 75 97 75 85" clip-path="url(#clipPath45)"
    /></g
    ><g stroke-linecap="butt" font-size="11px" transform="translate(774.75,434)" fill-opacity="1" fill="black" text-rendering="geometricPrecision" image-rendering="optimizeQuality" font-family="sans-serif" stroke-linejoin="round" stroke="black" stroke-opacity="1"
    ><line y2="63" fill="none" x1="63" clip-path="url(#clipPath47)" x2="188" y1="63"
      /><polygon points=" 188 63 176 57 176 69" clip-path="url(#clipPath47)" stroke="none"
      /><polygon fill="none" points=" 188 63 176 57 176 69" clip-path="url(#clipPath47)"
    /></g
    ><g stroke-linecap="butt" font-size="11px" transform="translate(774.75,494)" fill-opacity="1" fill="black" text-rendering="geometricPrecision" image-rendering="optimizeQuality" font-family="sans-serif" stroke-linejoin="round" stroke="black" stroke-opacity="1"
    ><line y2="63" fill="none" x1="63" clip-path="url(#clipPath49)" x2="321" y1="63"
      /><polygon points=" 321 63 309 57 309 69" clip-path="url(#clipPath49)" stroke="none"
      /><polygon fill="none" points=" 321 63 309 57 309 69" clip-path="url(#clipPath49)"
    /></g
    ><g fill-opacity="1" text-rendering="geometricPrecision" stroke="black" stroke-linecap="butt" transform="translate(264.75,526)" stroke-miterlimit="0" stroke-opacity="1" fill="black" stroke-dasharray="8,3" font-family="sans-serif" stroke-linejoin="round" font-size="11px" image-rendering="optimizeQuality"
    ><line y2="63" fill="none" x1="565" clip-path="url(#clipPath50)" x2="63" y1="63"
      /><line clip-path="url(#clipPath50)" fill="none" x1="63" x2="75" y1="63" y2="69" stroke-dasharray="none" stroke-miterlimit="10"
      /><line clip-path="url(#clipPath50)" fill="none" x1="63" x2="75" y1="63" y2="57" stroke-dasharray="none" stroke-miterlimit="10"
    /></g
    ><g stroke-linecap="butt" font-size="11px" transform="translate(264.75,610)" fill-opacity="1" fill="black" text-rendering="geometricPrecision" image-rendering="optimizeQuality" font-family="sans-serif" stroke-linejoin="round" stroke="black" stroke-opacity="1"
    ><line y2="63" fill="none" x1="63" clip-path="url(#clipPath52)" x2="94" y1="63"
      /><line y2="83" fill="none" x1="94" clip-path="url(#clipPath52)" x2="94" y1="63"
      /><line y2="83" fill="none" x1="94" clip-path="url(#clipPath52)" x2="63" y1="83"
      /><polygon points=" 63 83 75 89 75 77" clip-path="url(#clipPath52)" stroke="none"
      /><polygon fill="none" points=" 63 83 75 89 75 77" clip-path="url(#clipPath52)"
    /></g
    ><g stroke-linecap="butt" font-size="11px" transform="translate(-45.25,741)" fill-opacity="1" fill="black" text-rendering="geometricPrecision" image-rendering="optimizeQuality" font-family="sans-serif" stroke-linejoin="round" stroke="black" stroke-opacity="1"
    ><line y2="63" fill="none" x1="364" clip-path="url(#clipPath54)" x2="63" y1="63"
      /><polygon points=" 63 63 75 69 75 57" clip-path="url(#clipPath54)" stroke="none"
      /><polygon fill="none" points=" 63 63 75 69 75 57" clip-path="url(#clipPath54)"
    /></g
    ><g stroke-linecap="butt" font-size="11px" transform="translate(264.75,221)" fill-opacity="1" fill="black" text-rendering="geometricPrecision" image-rendering="optimizeQuality" font-family="sans-serif" stroke-linejoin="round" stroke="black" stroke-opacity="1"
    ><line y2="63" fill="none" x1="63" clip-path="url(#clipPath56)" x2="428" y1="63"
      /><polygon points=" 428 63 416 57 416 69" clip-path="url(#clipPath56)" stroke="none"
      /><polygon fill="none" points=" 428 63 416 57 416 69" clip-path="url(#clipPath56)"
    /></g
    ><g font-size="11px" transform="translate(371.75,262)" fill-opacity="1" fill="white" text-rendering="geometricPrecision" image-rendering="optimizeQuality" font-family="sans-serif" stroke="white" stroke-opacity="1"
    ><rect x="0" width="269" height="15" y="0" clip-path="url(#clipPath57)" stroke="none"
      /><text fill="black" x="10" xml:space="preserve" y="12" clip-path="url(#clipPath57)" stroke="none"
      >1.3: getRegistoColaborador() : RegistoColaborador</text
    ></g
    ><g font-size="11px" transform="translate(118.75,782)" fill-opacity="1" fill="white" text-rendering="geometricPrecision" image-rendering="optimizeQuality" font-family="sans-serif" stroke="white" stroke-opacity="1"
    ><rect x="0" width="91" height="15" y="0" clip-path="url(#clipPath58)" stroke="none"
      /><text fill="black" x="9" xml:space="preserve" y="12" clip-path="url(#clipPath58)" stroke="none"
      >1.6: orgReturn</text
    ></g
    ><g font-size="11px" transform="translate(358.75,676)" fill-opacity="1" fill="white" text-rendering="geometricPrecision" image-rendering="optimizeQuality" font-family="sans-serif" stroke="white" stroke-opacity="1"
    ><rect x="0" width="112" height="15" y="0" clip-path="url(#clipPath59)" stroke="none"
      /><text fill="black" x="9" xml:space="preserve" y="12" clip-path="url(#clipPath59)" stroke="none"
      >1.5: orgReturn=org</text
    ></g
    ><g font-size="11px" transform="translate(536.75,568)" fill-opacity="1" fill="white" text-rendering="geometricPrecision" image-rendering="optimizeQuality" font-family="sans-serif" stroke="white" stroke-opacity="1"
    ><rect x="0" width="79" height="15" y="0" clip-path="url(#clipPath60)" stroke="none"
      /><text fill="black" x="9" xml:space="preserve" y="12" clip-path="url(#clipPath60)" stroke="none"
      >1.4.4: found</text
    ></g
    ><g font-size="11px" transform="translate(848.75,537)" fill-opacity="1" fill="white" text-rendering="geometricPrecision" image-rendering="optimizeQuality" font-family="sans-serif" stroke="white" stroke-opacity="1"
    ><rect x="0" width="232" height="15" y="0" clip-path="url(#clipPath61)" stroke="none"
      /><text fill="black" x="10" xml:space="preserve" y="12" clip-path="url(#clipPath61)" stroke="none"
      >1.4.3: found = email.equals(colab.getEmail)</text
    ></g
    ><g font-size="11px" transform="translate(841.75,476)" fill-opacity="1" fill="white" text-rendering="geometricPrecision" image-rendering="optimizeQuality" font-family="sans-serif" stroke="white" stroke-opacity="1"
    ><rect x="0" width="115" height="15" y="0" clip-path="url(#clipPath62)" stroke="none"
      /><text fill="black" x="9" xml:space="preserve" y="12" clip-path="url(#clipPath62)" stroke="none"
      >1.4.2: colab = get(i)</text
    ></g
    ><g font-size="11px" transform="translate(880.75,342)" fill-opacity="1" fill="white" text-rendering="geometricPrecision" image-rendering="optimizeQuality" font-family="sans-serif" stroke="white" stroke-opacity="1"
    ><rect x="0" width="108" height="15" y="0" clip-path="url(#clipPath33)" stroke="none"
      /><text fill="black" x="10" xml:space="preserve" y="12" clip-path="url(#clipPath33)" stroke="none"
      >1.4.1: found=false</text
    ></g
    ><g font-size="11px" transform="translate(428.75,302)" fill-opacity="1" fill="white" text-rendering="geometricPrecision" image-rendering="optimizeQuality" font-family="sans-serif" stroke="white" stroke-opacity="1"
    ><rect x="0" width="282" height="15" y="0" clip-path="url(#clipPath63)" stroke="none"
      /><text fill="black" x="10" xml:space="preserve" y="12" clip-path="url(#clipPath63)" stroke="none"
      >1.4: tensColaboradorComEmail(email : string = email)</text
    ></g
    ><g font-size="11px" transform="translate(361.75,223)" fill-opacity="1" fill="white" text-rendering="geometricPrecision" image-rendering="optimizeQuality" font-family="sans-serif" stroke="white" stroke-opacity="1"
    ><rect x="0" width="95" height="15" y="0" clip-path="url(#clipPath64)" stroke="none"
      /><text fill="black" x="10" xml:space="preserve" y="12" clip-path="url(#clipPath64)" stroke="none"
      >1.2: org = get(i)</text
    ></g
    ><g font-size="11px" transform="translate(360.75,100)" fill-opacity="1" fill="white" text-rendering="geometricPrecision" image-rendering="optimizeQuality" font-family="sans-serif" stroke="white" stroke-opacity="1"
    ><rect x="0" width="114" height="15" y="0" clip-path="url(#clipPath65)" stroke="none"
      /><text fill="black" x="10" xml:space="preserve" y="12" clip-path="url(#clipPath65)" stroke="none"
      >1.1: orgReturn=null</text
    ></g
    ><g font-size="11px" transform="translate(51.75,33)" fill-opacity="1" fill="white" text-rendering="geometricPrecision" image-rendering="optimizeQuality" font-family="sans-serif" stroke="white" stroke-opacity="1"
    ><rect x="0" width="225" height="37" y="0" clip-path="url(#clipPath66)" stroke="none"
      /><text fill="black" x="89" xml:space="preserve" y="23" clip-path="url(#clipPath66)" stroke="none"
      >1: (email)</text
    ></g
    ><g font-size="8px" fill-opacity="1" fill="rgb(120,120,120)" text-rendering="geometricPrecision" image-rendering="optimizeQuality" stroke="rgb(120,120,120)" stroke-opacity="1"
    ><text x="0" xml:space="preserve" y="10" stroke="none"
      >Visual Paradigm Standard(Joel Ribeiro(Instituto Superior de Engenharia do Porto))</text
    ></g
  ></g
></svg
>
