<?xml version="1.0" encoding="UTF-8"?>
<!DOCTYPE svg PUBLIC '-//W3C//DTD SVG 1.0//EN'
          'http://www.w3.org/TR/2001/REC-SVG-20010904/DTD/svg10.dtd'>
<svg fill-opacity="0" xmlns:xlink="http://www.w3.org/1999/xlink" color-rendering="auto" color-interpolation="auto" text-rendering="auto" stroke="rgb(0,0,0)" stroke-linecap="square" width="1297" stroke-miterlimit="10" shape-rendering="auto" stroke-opacity="0" fill="rgb(0,0,0)" stroke-dasharray="none" font-weight="normal" stroke-width="1" height="609" xmlns="http://www.w3.org/2000/svg" font-family="'Dialog'" font-style="normal" stroke-linejoin="miter" font-size="12px" stroke-dashoffset="0" image-rendering="auto"
><!--Generated by the Batik Graphics2D SVG Generator--><defs id="genericDefs"
  /><g
  ><defs id="defs1"
    ><clipPath clipPathUnits="userSpaceOnUse" id="clipPath1"
      ><path d="M-7 -7 L151 -7 L151 51 L-7 51 L-7 -7 Z"
      /></clipPath
      ><clipPath clipPathUnits="userSpaceOnUse" id="clipPath2"
      ><path d="M0 0 L0 25 L140 25 L140 0 Z"
      /></clipPath
      ><clipPath clipPathUnits="userSpaceOnUse" id="clipPath3"
      ><path d="M0 0 L0 15 L140 15 L140 0 Z"
      /></clipPath
      ><clipPath clipPathUnits="userSpaceOnUse" id="clipPath4"
      ><path d="M-7 -7 L402 -7 L402 111 L-7 111 L-7 -7 Z"
      /></clipPath
      ><clipPath clipPathUnits="userSpaceOnUse" id="clipPath5"
      ><path d="M0 0 L0 85 L391 85 L391 0 Z"
      /></clipPath
      ><clipPath clipPathUnits="userSpaceOnUse" id="clipPath6"
      ><path d="M0 0 L0 15 L392 15 L392 0 Z"
      /></clipPath
      ><clipPath clipPathUnits="userSpaceOnUse" id="clipPath7"
      ><path d="M-7 -7 L106 -7 L106 84 L-7 84 L-7 -7 Z"
      /></clipPath
      ><clipPath clipPathUnits="userSpaceOnUse" id="clipPath8"
      ><path d="M0 0 L0 58 L95 58 L95 0 Z"
      /></clipPath
      ><clipPath clipPathUnits="userSpaceOnUse" id="clipPath9"
      ><path d="M0 0 L0 15 L95 15 L95 0 Z"
      /></clipPath
      ><clipPath clipPathUnits="userSpaceOnUse" id="clipPath10"
      ><path d="M-7 -7 L531 -7 L531 113 L-7 113 L-7 -7 Z"
      /></clipPath
      ><clipPath clipPathUnits="userSpaceOnUse" id="clipPath11"
      ><path d="M0 0 L0 87 L520 87 L520 0 Z"
      /></clipPath
      ><clipPath clipPathUnits="userSpaceOnUse" id="clipPath12"
      ><path d="M0 0 L0 15 L520 15 L520 0 Z"
      /></clipPath
      ><clipPath clipPathUnits="userSpaceOnUse" id="clipPath13"
      ><path d="M-7 -7 L697 -7 L697 203 L-7 203 L-7 -7 Z"
      /></clipPath
      ><clipPath clipPathUnits="userSpaceOnUse" id="clipPath14"
      ><path d="M0 0 L0 177 L686 177 L686 0 Z"
      /></clipPath
      ><clipPath clipPathUnits="userSpaceOnUse" id="clipPath15"
      ><path d="M0 0 L0 15 L688 15 L688 0 Z"
      /></clipPath
      ><clipPath clipPathUnits="userSpaceOnUse" id="clipPath16"
      ><path d="M-7 -7 L159 -7 L159 101 L-7 101 L-7 -7 Z"
      /></clipPath
      ><clipPath clipPathUnits="userSpaceOnUse" id="clipPath17"
      ><path d="M0 0 L0 75 L148 75 L148 0 Z"
      /></clipPath
      ><clipPath clipPathUnits="userSpaceOnUse" id="clipPath18"
      ><path d="M0 0 L0 15 L149 15 L149 0 Z"
      /></clipPath
      ><clipPath clipPathUnits="userSpaceOnUse" id="clipPath19"
      ><path d="M-7 -7 L51 -7 L51 51 L-7 51 L-7 -7 Z"
      /></clipPath
      ><clipPath clipPathUnits="userSpaceOnUse" id="clipPath20"
      ><path d="M0 0 L0 40 L40 40 L40 0 Z"
      /></clipPath
      ><clipPath clipPathUnits="userSpaceOnUse" id="clipPath21"
      ><path d="M0 0 L146 0 L146 292 L0 292 L0 0 Z"
      /></clipPath
      ><clipPath clipPathUnits="userSpaceOnUse" id="clipPath22"
      ><path d="M0 0 L0 292 L146 292 L146 0 Z"
      /></clipPath
      ><clipPath clipPathUnits="userSpaceOnUse" id="clipPath23"
      ><path d="M0 0 L146 0 L146 328 L0 328 L0 0 Z"
      /></clipPath
      ><clipPath clipPathUnits="userSpaceOnUse" id="clipPath24"
      ><path d="M0 0 L0 328 L146 328 L146 0 Z"
      /></clipPath
      ><clipPath clipPathUnits="userSpaceOnUse" id="clipPath25"
      ><path d="M0 0 L982 0 L982 199 L0 199 L0 0 Z"
      /></clipPath
      ><clipPath clipPathUnits="userSpaceOnUse" id="clipPath26"
      ><path d="M756 40 L756 55 L703 55 L703 40 ZM561 46 L561 62 L509 62 L509 46 ZM419 57 L419 73 L344 73 L344 57 ZM554 117 L554 133 L502 133 L502 117 ZM0 0 L0 199 L982 199 L982 0 Z"
      /></clipPath
      ><clipPath clipPathUnits="userSpaceOnUse" id="clipPath27"
      ><path d="M0 0 L146 0 L146 235 L0 235 L0 0 Z"
      /></clipPath
      ><clipPath clipPathUnits="userSpaceOnUse" id="clipPath28"
      ><path d="M124 113 L124 129 L72 129 L72 113 ZM0 0 L0 235 L146 235 L146 0 Z"
      /></clipPath
      ><clipPath clipPathUnits="userSpaceOnUse" id="clipPath29"
      ><path d="M0 0 L425 0 L425 246 L0 246 L0 0 Z"
      /></clipPath
      ><clipPath clipPathUnits="userSpaceOnUse" id="clipPath30"
      ><path d="M236 58 L236 73 L183 73 L183 58 ZM233 214 L233 229 L180 229 L180 214 ZM0 0 L0 220 L38 220 L38 236 L0 236 L0 246 L425 246 L425 0 Z"
      /></clipPath
      ><clipPath clipPathUnits="userSpaceOnUse" id="clipPath31"
      ><path d="M0 0 L262 0 L262 146 L0 146 L0 0 Z"
      /></clipPath
      ><clipPath clipPathUnits="userSpaceOnUse" id="clipPath32"
      ><path d="M159 81 L159 97 L84 97 L84 81 ZM0 0 L0 146 L242 146 L242 141 L262 141 L262 86 L249 86 L249 70 L262 70 L262 0 Z"
      /></clipPath
      ><clipPath clipPathUnits="userSpaceOnUse" id="clipPath33"
      ><path d="M0 0 L146 0 L146 241 L0 241 L0 0 Z"
      /></clipPath
      ><clipPath clipPathUnits="userSpaceOnUse" id="clipPath34"
      ><path d="M109 209 L109 225 L57 225 L57 209 ZM0 0 L0 241 L146 241 L146 0 Z"
      /></clipPath
      ><clipPath clipPathUnits="userSpaceOnUse" id="clipPath35"
      ><path d="M0 0 L411 0 L411 146 L0 146 L0 0 Z"
      /></clipPath
      ><clipPath clipPathUnits="userSpaceOnUse" id="clipPath36"
      ><path d="M231 64 L231 79 L178 79 L178 64 ZM0 0 L0 70 L36 70 L36 86 L0 86 L0 141 L29 141 L29 146 L411 146 L411 0 Z"
      /></clipPath
      ><clipPath clipPathUnits="userSpaceOnUse" id="clipPath37"
      ><path d="M0 0 L264 0 L264 146 L0 146 L0 0 Z"
      /></clipPath
      ><clipPath clipPathUnits="userSpaceOnUse" id="clipPath38"
      ><path d="M0 0 L0 146 L264 146 L264 0 Z"
      /></clipPath
      ><clipPath clipPathUnits="userSpaceOnUse" id="clipPath39"
      ><path d="M0 0 L732 0 L732 328 L0 328 L0 0 Z"
      /></clipPath
      ><clipPath clipPathUnits="userSpaceOnUse" id="clipPath40"
      ><path d="M577 140 L577 155 L524 155 L524 140 ZM574 296 L574 311 L521 311 L521 296 ZM379 302 L379 318 L327 318 L327 302 ZM0 0 L0 206 L52 206 L52 222 L0 222 L0 328 L162 328 L162 313 L237 313 L237 328 L732 328 L732 0 Z"
      /></clipPath
      ><clipPath clipPathUnits="userSpaceOnUse" id="clipPath41"
      ><path d="M0 0 L308 0 L308 345 L0 345 L0 0 Z"
      /></clipPath
      ><clipPath clipPathUnits="userSpaceOnUse" id="clipPath42"
      ><path d="M234 140 L234 155 L181 155 L181 140 ZM231 296 L231 311 L178 311 L178 296 ZM0 0 L0 302 L36 302 L36 318 L0 318 L0 345 L308 345 L308 0 Z"
      /></clipPath
      ><clipPath clipPathUnits="userSpaceOnUse" id="clipPath43"
      ><path d="M-53 -15 L106 -15 L106 30 L-53 30 L-53 -15 Z"
      /></clipPath
      ><clipPath clipPathUnits="userSpaceOnUse" id="clipPath44"
      ><path d="M-52 -16 L104 -16 L104 32 L-52 32 L-52 -16 Z"
      /></clipPath
      ><clipPath clipPathUnits="userSpaceOnUse" id="clipPath45"
      ><path d="M-75 -16 L150 -16 L150 32 L-75 32 L-75 -16 Z"
      /></clipPath
    ></defs
    ><g fill="white" text-rendering="geometricPrecision" fill-opacity="1" stroke-opacity="1" stroke="white"
    ><rect x="0" width="1297" height="609" y="0" stroke="none"
    /></g
    ><g font-size="11px" transform="translate(1027,2)" fill-opacity="1" fill="rgb(122,207,245)" text-rendering="geometricPrecision" image-rendering="optimizeQuality" font-family="sans-serif" stroke="rgb(122,207,245)" font-weight="bold" stroke-opacity="1"
    ><rect x="0" width="140" height="40" y="0" clip-path="url(#clipPath1)" stroke="none"
    /></g
    ><g fill-opacity="1" text-rendering="geometricPrecision" stroke="black" stroke-linecap="butt" transform="translate(1027,2)" stroke-miterlimit="0" stroke-opacity="1" fill="black" font-weight="bold" font-family="sans-serif" stroke-linejoin="round" font-size="11px" image-rendering="optimizeQuality"
    ><rect fill="none" x="0" width="140" height="40" y="0" clip-path="url(#clipPath1)"
      /><line y2="15" fill="none" x1="0" clip-path="url(#clipPath1)" x2="140" y1="15"
    /></g
    ><g font-size="11px" transform="translate(1027,2)" fill-opacity="1" fill="black" text-rendering="geometricPrecision" image-rendering="optimizeQuality" font-family="sans-serif" stroke="black" font-weight="bold" stroke-opacity="1"
    ><text x="5" xml:space="preserve" y="12" clip-path="url(#clipPath3)" stroke="none"
      >DefinirCategoriaTarefaUI</text
    ></g
    ><g font-size="11px" transform="translate(902,188)" fill-opacity="1" fill="rgb(122,207,245)" text-rendering="geometricPrecision" image-rendering="optimizeQuality" font-family="sans-serif" stroke="rgb(122,207,245)" font-weight="bold" stroke-opacity="1"
    ><rect x="0" width="391" height="100" y="0" clip-path="url(#clipPath4)" stroke="none"
    /></g
    ><g fill-opacity="1" text-rendering="geometricPrecision" stroke="black" stroke-linecap="butt" transform="translate(902,188)" stroke-miterlimit="0" stroke-opacity="1" fill="black" font-weight="bold" font-family="sans-serif" stroke-linejoin="round" font-size="11px" image-rendering="optimizeQuality"
    ><rect fill="none" x="0" width="391" height="100" y="0" clip-path="url(#clipPath4)"
      /><line y2="15" fill="none" x1="0" clip-path="url(#clipPath4)" x2="391" y1="15"
    /></g
    ><g font-size="11px" transform="matrix(1,0,0,1,902,203)" fill-opacity="1" fill="black" text-rendering="geometricPrecision" image-rendering="optimizeQuality" font-family="sans-serif" stroke="black" stroke-opacity="1"
    ><text x="2" xml:space="preserve" y="14" clip-path="url(#clipPath5)" stroke="none"
      >+getAreasAtividade() : List&lt;AreaAtividade&gt;</text
    ></g
    ><g font-size="11px" transform="matrix(1,0,0,1,902,203)" fill-opacity="1" fill="black" text-rendering="geometricPrecision" image-rendering="optimizeQuality" font-family="sans-serif" stroke="black" stroke-opacity="1"
    ><text x="2" xml:space="preserve" y="29" clip-path="url(#clipPath5)" stroke="none"
      >+getCompetenciasTecnicasByAreaId(areaId : int) : List&lt;CompetenciaTecnica&gt;</text
    ></g
    ><g font-size="11px" transform="matrix(1,0,0,1,902,203)" fill-opacity="1" fill="black" text-rendering="geometricPrecision" image-rendering="optimizeQuality" font-family="sans-serif" stroke="black" stroke-opacity="1"
    ><text x="2" xml:space="preserve" y="44" clip-path="url(#clipPath5)" stroke="none"
      >+selecionarCompetenciaTecnica(compId : int, obrigatoriedade : boolean) : void</text
    ></g
    ><g font-size="11px" transform="matrix(1,0,0,1,902,203)" fill-opacity="1" fill="black" text-rendering="geometricPrecision" image-rendering="optimizeQuality" font-family="sans-serif" stroke="black" stroke-opacity="1"
    ><text x="2" xml:space="preserve" y="59" clip-path="url(#clipPath5)" stroke="none"
      >+novaCategoriaTarefa(desc : string) : boolean</text
    ></g
    ><g font-size="11px" transform="matrix(1,0,0,1,902,203)" fill-opacity="1" fill="black" text-rendering="geometricPrecision" image-rendering="optimizeQuality" font-family="sans-serif" stroke="black" stroke-opacity="1"
    ><text x="2" xml:space="preserve" y="74" clip-path="url(#clipPath5)" stroke="none"
      >+registaCategoriaTarefa() : boolean</text
    ></g
    ><g font-size="11px" transform="translate(902,188)" fill-opacity="1" fill="black" text-rendering="geometricPrecision" image-rendering="optimizeQuality" font-family="sans-serif" stroke="black" font-weight="bold" stroke-opacity="1"
    ><text x="109" xml:space="preserve" y="12" clip-path="url(#clipPath6)" stroke="none"
      >DefinirCategoriaTarefaController</text
    ></g
    ><g font-size="11px" transform="translate(1050,469)" fill-opacity="1" fill="rgb(122,207,245)" text-rendering="geometricPrecision" image-rendering="optimizeQuality" font-family="sans-serif" stroke="rgb(122,207,245)" font-weight="bold" stroke-opacity="1"
    ><rect x="0" width="95" height="73" y="0" clip-path="url(#clipPath7)" stroke="none"
    /></g
    ><g fill-opacity="1" text-rendering="geometricPrecision" stroke="black" stroke-linecap="butt" transform="translate(1050,469)" stroke-miterlimit="0" stroke-opacity="1" fill="black" font-weight="bold" font-family="sans-serif" stroke-linejoin="round" font-size="11px" image-rendering="optimizeQuality"
    ><rect fill="none" x="0" width="95" height="73" y="0" clip-path="url(#clipPath7)"
      /><line y2="15" fill="none" x1="0" clip-path="url(#clipPath7)" x2="95" y1="15"
    /></g
    ><g font-size="11px" transform="matrix(1,0,0,1,1050,484)" fill-opacity="1" fill="black" text-rendering="geometricPrecision" image-rendering="optimizeQuality" font-family="sans-serif" stroke="black" stroke-opacity="1"
    ><text x="2" xml:space="preserve" y="14" clip-path="url(#clipPath8)" stroke="none"
      >-codigo : string</text
    ></g
    ><g font-size="11px" transform="matrix(1,0,0,1,1050,484)" fill-opacity="1" fill="black" text-rendering="geometricPrecision" image-rendering="optimizeQuality" font-family="sans-serif" stroke="black" stroke-opacity="1"
    ><text x="2" xml:space="preserve" y="29" clip-path="url(#clipPath8)" stroke="none"
      >-desc : string</text
      ><line stroke-linecap="butt" clip-path="url(#clipPath8)" fill="none" x1="0" x2="95" y1="34" y2="34" stroke-linejoin="bevel" stroke-miterlimit="0"
    /></g
    ><g font-size="11px" transform="matrix(1,0,0,1,1050,484)" fill-opacity="1" fill="black" text-rendering="geometricPrecision" image-rendering="optimizeQuality" font-family="sans-serif" stroke="black" stroke-opacity="1"
    ><text x="2" xml:space="preserve" y="48" clip-path="url(#clipPath8)" stroke="none"
      >+generateId() : int</text
    ></g
    ><g font-size="11px" transform="translate(1050,469)" fill-opacity="1" fill="black" text-rendering="geometricPrecision" image-rendering="optimizeQuality" font-family="sans-serif" stroke="black" font-weight="bold" stroke-opacity="1"
    ><text x="5" xml:space="preserve" y="12" clip-path="url(#clipPath9)" stroke="none"
      >CategoriaTarefa</text
    ></g
    ><g font-size="11px" transform="translate(2,469)" fill-opacity="1" fill="rgb(122,207,245)" text-rendering="geometricPrecision" image-rendering="optimizeQuality" font-family="sans-serif" stroke="rgb(122,207,245)" font-weight="bold" stroke-opacity="1"
    ><rect x="0" width="520" height="102" y="0" clip-path="url(#clipPath10)" stroke="none"
    /></g
    ><g fill-opacity="1" text-rendering="geometricPrecision" stroke="black" stroke-linecap="butt" transform="translate(2,469)" stroke-miterlimit="0" stroke-opacity="1" fill="black" font-weight="bold" font-family="sans-serif" stroke-linejoin="round" font-size="11px" image-rendering="optimizeQuality"
    ><rect fill="none" x="0" width="520" height="102" y="0" clip-path="url(#clipPath10)"
      /><line y2="15" fill="none" x1="0" clip-path="url(#clipPath10)" x2="520" y1="15"
    /></g
    ><g font-size="11px" transform="matrix(1,0,0,1,2,484)" fill-opacity="1" fill="black" text-rendering="geometricPrecision" image-rendering="optimizeQuality" font-family="sans-serif" stroke="black" stroke-opacity="1"
    ><text x="2" xml:space="preserve" y="14" clip-path="url(#clipPath11)" stroke="none"
      >-codigo : string</text
    ></g
    ><g font-size="11px" transform="matrix(1,0,0,1,2,484)" fill-opacity="1" fill="black" text-rendering="geometricPrecision" image-rendering="optimizeQuality" font-family="sans-serif" stroke="black" stroke-opacity="1"
    ><text x="2" xml:space="preserve" y="29" clip-path="url(#clipPath11)" stroke="none"
      >-descBreve : string</text
    ></g
    ><g font-size="11px" transform="matrix(1,0,0,1,2,484)" fill-opacity="1" fill="black" text-rendering="geometricPrecision" image-rendering="optimizeQuality" font-family="sans-serif" stroke="black" stroke-opacity="1"
    ><text x="2" xml:space="preserve" y="44" clip-path="url(#clipPath11)" stroke="none"
      >-descDetalhada : string</text
      ><line stroke-linecap="butt" clip-path="url(#clipPath11)" fill="none" x1="0" x2="520" y1="49" y2="49" stroke-linejoin="bevel" stroke-miterlimit="0"
    /></g
    ><g font-size="11px" transform="matrix(1,0,0,1,2,484)" fill-opacity="1" fill="black" text-rendering="geometricPrecision" image-rendering="optimizeQuality" font-family="sans-serif" stroke="black" stroke-opacity="1"
    ><text x="2" xml:space="preserve" y="63" clip-path="url(#clipPath11)" stroke="none"
      >+CompetenciaTecnica(codigo : string, descBreve : string, descDet : string, areaAtividade : AreaAtividade)</text
    ></g
    ><g font-size="11px" transform="matrix(1,0,0,1,2,484)" fill-opacity="1" fill="black" text-rendering="geometricPrecision" image-rendering="optimizeQuality" font-family="sans-serif" stroke="black" stroke-opacity="1"
    ><text x="2" xml:space="preserve" y="78" clip-path="url(#clipPath11)" stroke="none"
      >+hasId(areaId : int) : boolean</text
    ></g
    ><g font-size="11px" transform="translate(2,469)" fill-opacity="1" fill="black" text-rendering="geometricPrecision" image-rendering="optimizeQuality" font-family="sans-serif" stroke="black" font-weight="bold" stroke-opacity="1"
    ><text x="204" xml:space="preserve" y="12" clip-path="url(#clipPath12)" stroke="none"
      >CompetenciaTecnica</text
    ></g
    ><g font-size="11px" transform="translate(99,188)" fill-opacity="1" fill="rgb(122,207,245)" text-rendering="geometricPrecision" image-rendering="optimizeQuality" font-family="sans-serif" stroke="rgb(122,207,245)" font-weight="bold" stroke-opacity="1"
    ><rect x="0" width="686" height="192" y="0" clip-path="url(#clipPath13)" stroke="none"
    /></g
    ><g fill-opacity="1" text-rendering="geometricPrecision" stroke="black" stroke-linecap="butt" transform="translate(99,188)" stroke-miterlimit="0" stroke-opacity="1" fill="black" font-weight="bold" font-family="sans-serif" stroke-linejoin="round" font-size="11px" image-rendering="optimizeQuality"
    ><rect fill="none" x="0" width="686" height="192" y="0" clip-path="url(#clipPath13)"
      /><line y2="15" fill="none" x1="0" clip-path="url(#clipPath13)" x2="686" y1="15"
    /></g
    ><g font-size="11px" transform="matrix(1,0,0,1,99,203)" fill-opacity="1" fill="black" text-rendering="geometricPrecision" image-rendering="optimizeQuality" font-family="sans-serif" stroke="black" stroke-opacity="1"
    ><text x="2" xml:space="preserve" y="14" clip-path="url(#clipPath14)" stroke="none"
      >-designacao : string</text
    ></g
    ><g stroke-linecap="butt" font-size="11px" transform="matrix(1,0,0,1,99,203)" fill-opacity="1" fill="black" text-rendering="geometricPrecision" image-rendering="optimizeQuality" font-family="sans-serif" stroke-linejoin="bevel" stroke="black" stroke-opacity="1" stroke-miterlimit="0"
    ><line y2="19" fill="none" x1="0" clip-path="url(#clipPath14)" x2="686" y1="19"
    /></g
    ><g font-size="11px" transform="matrix(1,0,0,1,99,203)" fill-opacity="1" fill="black" text-rendering="geometricPrecision" image-rendering="optimizeQuality" font-family="sans-serif" stroke="black" stroke-opacity="1"
    ><text x="2" xml:space="preserve" y="33" clip-path="url(#clipPath14)" stroke="none"
      >+getAreasAtividade() : List&lt;AreaAtividade&gt;</text
    ></g
    ><g font-size="11px" transform="matrix(1,0,0,1,99,203)" fill-opacity="1" fill="black" text-rendering="geometricPrecision" image-rendering="optimizeQuality" font-family="sans-serif" stroke="black" stroke-opacity="1"
    ><text x="2" xml:space="preserve" y="48" clip-path="url(#clipPath14)" stroke="none"
      >-adicionaCompetenciaTecnica(competencia : CompetenciaTecnica) : boolean</text
    ></g
    ><g font-size="11px" transform="matrix(1,0,0,1,99,203)" fill-opacity="1" fill="black" text-rendering="geometricPrecision" image-rendering="optimizeQuality" font-family="sans-serif" stroke="black" stroke-opacity="1"
    ><text x="2" xml:space="preserve" y="63" clip-path="url(#clipPath14)" stroke="none"
      >+selecionarCompetencia(competencia : CompetenciaTecnica) : void</text
    ></g
    ><g font-size="11px" transform="matrix(1,0,0,1,99,203)" fill-opacity="1" fill="black" text-rendering="geometricPrecision" image-rendering="optimizeQuality" font-family="sans-serif" stroke="black" stroke-opacity="1"
    ><text x="2" xml:space="preserve" y="78" clip-path="url(#clipPath14)" stroke="none"
      >+registaCategoriaTarefa(categoria : CategoriaTarefa) : boolean</text
    ></g
    ><g font-size="11px" transform="matrix(1,0,0,1,99,203)" fill-opacity="1" fill="black" text-rendering="geometricPrecision" image-rendering="optimizeQuality" font-family="sans-serif" stroke="black" stroke-opacity="1"
    ><text x="2" xml:space="preserve" y="93" clip-path="url(#clipPath14)" stroke="none"
      >+validaCategoriaTarefa(categoria : CategoriaTarefa) : boolean</text
    ></g
    ><g font-size="11px" transform="matrix(1,0,0,1,99,203)" fill-opacity="1" fill="black" text-rendering="geometricPrecision" image-rendering="optimizeQuality" font-family="sans-serif" stroke="black" stroke-opacity="1"
    ><text x="2" xml:space="preserve" y="108" clip-path="url(#clipPath14)" stroke="none"
      >+getCompetenciasTecnicaByAreaId(areaId : int) : List&lt;CompetenciaTecnica&gt;</text
    ></g
    ><g font-size="11px" transform="matrix(1,0,0,1,99,203)" fill-opacity="1" fill="black" text-rendering="geometricPrecision" image-rendering="optimizeQuality" font-family="sans-serif" stroke="black" stroke-opacity="1"
    ><text x="2" xml:space="preserve" y="123" clip-path="url(#clipPath14)" stroke="none"
      >+getCompetenciaTecnicaById(compId : int) : CompetenciaTecnica</text
    ></g
    ><g font-size="11px" transform="matrix(1,0,0,1,99,203)" fill-opacity="1" fill="black" text-rendering="geometricPrecision" image-rendering="optimizeQuality" font-family="sans-serif" stroke="black" stroke-opacity="1"
    ><text x="2" xml:space="preserve" y="138" clip-path="url(#clipPath14)" stroke="none"
      >+getAreaAtividadeById(areaId : int) : AreaAtividade</text
    ></g
    ><g font-size="11px" transform="matrix(1,0,0,1,99,203)" fill-opacity="1" fill="black" text-rendering="geometricPrecision" image-rendering="optimizeQuality" font-family="sans-serif" stroke="black" stroke-opacity="1"
    ><text x="2" xml:space="preserve" y="153" clip-path="url(#clipPath14)" stroke="none"
      >+novaCategoriaTarefa(desc : string, areaAtividade : AreaAtividade, lstCompetenciaTecnica : List&lt;CompetenciaTecnica&gt;) : CategoriaTarefa</text
    ></g
    ><g font-size="11px" transform="matrix(1,0,0,1,99,203)" fill-opacity="1" fill="black" text-rendering="geometricPrecision" image-rendering="optimizeQuality" font-family="sans-serif" stroke="black" stroke-opacity="1"
    ><text x="2" xml:space="preserve" y="168" clip-path="url(#clipPath14)" stroke="none"
      >+adicionarCategoriaTarefa(categoria : CategoriaTarefa) : boolean</text
    ></g
    ><g font-size="11px" transform="translate(99,188)" fill-opacity="1" fill="black" text-rendering="geometricPrecision" image-rendering="optimizeQuality" font-family="sans-serif" stroke="black" font-weight="bold" stroke-opacity="1"
    ><text x="315" xml:space="preserve" y="12" clip-path="url(#clipPath15)" stroke="none"
      >Plataforma</text
    ></g
    ><g font-size="11px" transform="translate(637,475)" fill-opacity="1" fill="rgb(122,207,245)" text-rendering="geometricPrecision" image-rendering="optimizeQuality" font-family="sans-serif" stroke="rgb(122,207,245)" font-weight="bold" stroke-opacity="1"
    ><rect x="0" width="148" height="90" y="0" clip-path="url(#clipPath16)" stroke="none"
    /></g
    ><g fill-opacity="1" text-rendering="geometricPrecision" stroke="black" stroke-linecap="butt" transform="translate(637,475)" stroke-miterlimit="0" stroke-opacity="1" fill="black" font-weight="bold" font-family="sans-serif" stroke-linejoin="round" font-size="11px" image-rendering="optimizeQuality"
    ><rect fill="none" x="0" width="148" height="90" y="0" clip-path="url(#clipPath16)"
      /><line y2="15" fill="none" x1="0" clip-path="url(#clipPath16)" x2="148" y1="15"
    /></g
    ><g font-size="11px" transform="matrix(1,0,0,1,637,490)" fill-opacity="1" fill="black" text-rendering="geometricPrecision" image-rendering="optimizeQuality" font-family="sans-serif" stroke="black" stroke-opacity="1"
    ><text x="2" xml:space="preserve" y="14" clip-path="url(#clipPath17)" stroke="none"
      >-codigo : string</text
    ></g
    ><g font-size="11px" transform="matrix(1,0,0,1,637,490)" fill-opacity="1" fill="black" text-rendering="geometricPrecision" image-rendering="optimizeQuality" font-family="sans-serif" stroke="black" stroke-opacity="1"
    ><text x="2" xml:space="preserve" y="29" clip-path="url(#clipPath17)" stroke="none"
      >-descBreve : string</text
    ></g
    ><g font-size="11px" transform="matrix(1,0,0,1,637,490)" fill-opacity="1" fill="black" text-rendering="geometricPrecision" image-rendering="optimizeQuality" font-family="sans-serif" stroke="black" stroke-opacity="1"
    ><text x="2" xml:space="preserve" y="44" clip-path="url(#clipPath17)" stroke="none"
      >-descDetalhada : string</text
      ><line stroke-linecap="butt" clip-path="url(#clipPath17)" fill="none" x1="0" x2="148" y1="49" y2="49" stroke-linejoin="bevel" stroke-miterlimit="0"
    /></g
    ><g font-size="11px" transform="matrix(1,0,0,1,637,490)" fill-opacity="1" fill="black" text-rendering="geometricPrecision" image-rendering="optimizeQuality" font-family="sans-serif" stroke="black" stroke-opacity="1"
    ><text x="2" xml:space="preserve" y="63" clip-path="url(#clipPath17)" stroke="none"
      >+hasId(areaId : int) : boolean</text
    ></g
    ><g font-size="11px" transform="translate(637,475)" fill-opacity="1" fill="black" text-rendering="geometricPrecision" image-rendering="optimizeQuality" font-family="sans-serif" stroke="black" font-weight="bold" stroke-opacity="1"
    ><text x="37" xml:space="preserve" y="12" clip-path="url(#clipPath18)" stroke="none"
      >AreaAtividade</text
    ></g
    ><g font-size="11px" transform="translate(1013,488)" fill-opacity="1" fill="black" text-rendering="geometricPrecision" image-rendering="optimizeQuality" font-family="sans-serif" stroke="black" stroke-opacity="1"
    ><text x="16" xml:space="preserve" y="24" clip-path="url(#clipPath20)" stroke="none"
      >1</text
    ></g
    ><g font-size="11px" transform="translate(785,486)" fill-opacity="1" fill="black" text-rendering="geometricPrecision" image-rendering="optimizeQuality" font-family="sans-serif" stroke="black" stroke-opacity="1"
    ><text x="16" xml:space="preserve" y="24" clip-path="url(#clipPath20)" stroke="none"
      >1</text
    ></g
    ><g font-size="11px" transform="translate(1060,545)" fill-opacity="1" fill="black" text-rendering="geometricPrecision" image-rendering="optimizeQuality" font-family="sans-serif" stroke="black" stroke-opacity="1"
    ><text x="16" xml:space="preserve" y="24" clip-path="url(#clipPath20)" stroke="none"
      >1</text
    ></g
    ><g font-size="11px" transform="translate(260,563)" fill-opacity="1" fill="black" text-rendering="geometricPrecision" image-rendering="optimizeQuality" font-family="sans-serif" stroke="black" stroke-opacity="1"
    ><text x="11" xml:space="preserve" y="24" clip-path="url(#clipPath20)" stroke="none"
      >1..*</text
    ></g
    ><g font-size="11px" transform="translate(783,336)" fill-opacity="1" fill="black" text-rendering="geometricPrecision" image-rendering="optimizeQuality" font-family="sans-serif" stroke="black" stroke-opacity="1"
    ><text x="16" xml:space="preserve" y="24" clip-path="url(#clipPath20)" stroke="none"
      >1</text
    ></g
    ><g font-size="11px" transform="translate(1026,439)" fill-opacity="1" fill="black" text-rendering="geometricPrecision" image-rendering="optimizeQuality" font-family="sans-serif" stroke="black" stroke-opacity="1"
    ><text x="11" xml:space="preserve" y="24" clip-path="url(#clipPath20)" stroke="none"
      >0..*</text
    ></g
    ><g font-size="11px" transform="translate(682,379)" fill-opacity="1" fill="black" text-rendering="geometricPrecision" image-rendering="optimizeQuality" font-family="sans-serif" stroke="black" stroke-opacity="1"
    ><text x="16" xml:space="preserve" y="24" clip-path="url(#clipPath20)" stroke="none"
      >1</text
    ></g
    ><g font-size="11px" transform="translate(675,438)" fill-opacity="1" fill="black" text-rendering="geometricPrecision" image-rendering="optimizeQuality" font-family="sans-serif" stroke="black" stroke-opacity="1"
    ><text x="11" xml:space="preserve" y="24" clip-path="url(#clipPath20)" stroke="none"
      >0..*</text
    ></g
    ><g font-size="11px" transform="translate(335,373)" fill-opacity="1" fill="black" text-rendering="geometricPrecision" image-rendering="optimizeQuality" font-family="sans-serif" stroke="black" stroke-opacity="1"
    ><text x="16" xml:space="preserve" y="24" clip-path="url(#clipPath20)" stroke="none"
      >1</text
    ></g
    ><g font-size="11px" transform="translate(336,438)" fill-opacity="1" fill="black" text-rendering="geometricPrecision" image-rendering="optimizeQuality" font-family="sans-serif" stroke="black" stroke-opacity="1"
    ><text x="11" xml:space="preserve" y="24" clip-path="url(#clipPath20)" stroke="none"
      >0..*</text
    ></g
    ><g font-size="11px" transform="translate(520,485)" fill-opacity="1" fill="black" text-rendering="geometricPrecision" image-rendering="optimizeQuality" font-family="sans-serif" stroke="black" stroke-opacity="1"
    ><text x="17" xml:space="preserve" y="24" clip-path="url(#clipPath20)" stroke="none"
      >*</text
    ></g
    ><g font-size="11px" transform="translate(599,485)" fill-opacity="1" fill="black" text-rendering="geometricPrecision" image-rendering="optimizeQuality" font-family="sans-serif" stroke="black" stroke-opacity="1"
    ><text x="16" xml:space="preserve" y="24" clip-path="url(#clipPath20)" stroke="none"
      >1</text
    ></g
    ><g fill-opacity="1" text-rendering="geometricPrecision" stroke="black" stroke-linecap="butt" transform="translate(1027,-29)" stroke-opacity="1" fill="black" stroke-dasharray="5" font-family="sans-serif" stroke-linejoin="round" font-size="11px" stroke-dashoffset="1" image-rendering="optimizeQuality"
    ><line y2="217" fill="none" x1="71" clip-path="url(#clipPath22)" x2="71" y1="71"
      /><line clip-path="url(#clipPath22)" stroke-dashoffset="0" fill="none" x1="71" x2="77" y1="217" y2="205" stroke-dasharray="none"
      /><line clip-path="url(#clipPath22)" stroke-dashoffset="0" fill="none" x1="71" x2="65" y1="217" y2="205" stroke-dasharray="none"
    /></g
    ><g fill-opacity="1" text-rendering="geometricPrecision" stroke="black" stroke-linecap="butt" transform="translate(1055,216)" stroke-opacity="1" fill="black" stroke-dasharray="5" font-family="sans-serif" stroke-linejoin="round" font-size="11px" stroke-dashoffset="1" image-rendering="optimizeQuality"
    ><line y2="253" fill="none" x1="71" clip-path="url(#clipPath24)" x2="71" y1="72"
      /><line clip-path="url(#clipPath24)" stroke-dashoffset="0" fill="none" x1="71" x2="77" y1="253" y2="241" stroke-dasharray="none"
      /><line clip-path="url(#clipPath24)" stroke-dashoffset="0" fill="none" x1="71" x2="65" y1="253" y2="241" stroke-dasharray="none"
    /></g
    ><g stroke-linecap="butt" font-size="11px" transform="translate(190,472)" fill-opacity="1" fill="black" text-rendering="geometricPrecision" image-rendering="optimizeQuality" font-family="sans-serif" stroke-linejoin="round" stroke="black" stroke-opacity="1"
    ><line y2="124" fill="none" x1="907" clip-path="url(#clipPath26)" x2="907" y1="71"
      /><line y2="124" fill="none" x1="907" clip-path="url(#clipPath26)" x2="72" y1="124"
      /><line y2="99" fill="none" x1="72" clip-path="url(#clipPath26)" x2="72" y1="124"
    /></g
    ><g stroke-linecap="butt" font-size="11px" transform="translate(300,309)" fill-opacity="1" fill="black" text-rendering="geometricPrecision" image-rendering="optimizeQuality" font-family="sans-serif" stroke-linejoin="round" stroke="black" stroke-opacity="1"
    ><line y2="160" fill="none" x1="71" clip-path="url(#clipPath28)" x2="71" y1="71"
    /></g
    ><g stroke-linecap="butt" font-size="11px" transform="translate(713,298)" fill-opacity="1" fill="black" text-rendering="geometricPrecision" image-rendering="optimizeQuality" font-family="sans-serif" stroke-linejoin="round" stroke="black" stroke-opacity="1"
    ><line y2="71" fill="none" x1="71" clip-path="url(#clipPath30)" x2="350" y1="71"
      /><line y2="171" fill="none" x1="350" clip-path="url(#clipPath30)" x2="350" y1="71"
    /></g
    ><g stroke-linecap="butt" font-size="11px" transform="translate(450,448)" fill-opacity="1" fill="black" text-rendering="geometricPrecision" image-rendering="optimizeQuality" font-family="sans-serif" stroke-linejoin="round" stroke="black" stroke-opacity="1"
    ><line y2="71" fill="none" x1="71" clip-path="url(#clipPath32)" x2="187" y1="71"
    /></g
    ><g stroke-linecap="butt" font-size="11px" transform="translate(642,309)" fill-opacity="1" fill="black" text-rendering="geometricPrecision" image-rendering="optimizeQuality" font-family="sans-serif" stroke-linejoin="round" stroke="black" stroke-opacity="1"
    ><line y2="166" fill="none" x1="71" clip-path="url(#clipPath34)" x2="71" y1="71"
    /></g
    ><g stroke-linecap="butt" font-size="11px" transform="translate(715,448)" fill-opacity="1" fill="black" text-rendering="geometricPrecision" image-rendering="optimizeQuality" font-family="sans-serif" stroke-linejoin="round" stroke="black" stroke-opacity="1"
    ><line y2="71" fill="none" x1="335" clip-path="url(#clipPath36)" x2="71" y1="71"
    /></g
    ><g fill-opacity="1" text-rendering="geometricPrecision" stroke="black" stroke-linecap="butt" transform="translate(713,183)" stroke-opacity="1" fill="black" stroke-dasharray="5" font-family="sans-serif" stroke-linejoin="round" font-size="11px" stroke-dashoffset="1" image-rendering="optimizeQuality"
    ><line y2="72" fill="none" x1="189" clip-path="url(#clipPath38)" x2="71" y1="72"
      /><line clip-path="url(#clipPath38)" stroke-dashoffset="0" fill="none" x1="71" x2="83" y1="72" y2="78" stroke-dasharray="none"
      /><line clip-path="url(#clipPath38)" stroke-dashoffset="0" fill="none" x1="71" x2="83" y1="72" y2="66" stroke-dasharray="none"
    /></g
    ><g fill-opacity="1" text-rendering="geometricPrecision" stroke="black" stroke-linecap="butt" transform="translate(372,216)" stroke-opacity="1" fill="black" stroke-dasharray="5" font-family="sans-serif" stroke-linejoin="round" font-size="11px" stroke-dashoffset="1" image-rendering="optimizeQuality"
    ><line y2="209" fill="none" x1="657" clip-path="url(#clipPath40)" x2="657" y1="72"
      /><line y2="209" fill="none" x1="657" clip-path="url(#clipPath40)" x2="71" y1="209"
      /><line y2="253" fill="none" x1="71" clip-path="url(#clipPath40)" x2="71" y1="209"
      /><line clip-path="url(#clipPath40)" stroke-dashoffset="0" fill="none" x1="71" x2="77" y1="253" y2="241" stroke-dasharray="none"
      /><line clip-path="url(#clipPath40)" stroke-dashoffset="0" fill="none" x1="71" x2="65" y1="253" y2="241" stroke-dasharray="none"
    /></g
    ><g fill-opacity="1" text-rendering="geometricPrecision" stroke="black" stroke-linecap="butt" transform="translate(715,216)" stroke-opacity="1" fill="black" stroke-dasharray="5" font-family="sans-serif" stroke-linejoin="round" font-size="11px" stroke-dashoffset="1" image-rendering="optimizeQuality"
    ><line y2="270" fill="none" x1="232" clip-path="url(#clipPath42)" x2="232" y1="72"
      /><line y2="270" fill="none" x1="232" clip-path="url(#clipPath42)" x2="71" y1="270"
      /><line clip-path="url(#clipPath42)" stroke-dashoffset="0" fill="none" x1="71" x2="83" y1="270" y2="276" stroke-dasharray="none"
      /><line clip-path="url(#clipPath42)" stroke-dashoffset="0" fill="none" x1="71" x2="83" y1="270" y2="264" stroke-dasharray="none"
    /></g
    ><g font-size="11px" transform="translate(893,512)" fill-opacity="1" fill="black" text-rendering="geometricPrecision" image-rendering="optimizeQuality" font-family="sans-serif" stroke="black" stroke-opacity="1"
    ><text x="10" xml:space="preserve" y="12" clip-path="url(#clipPath43)" stroke="none"
      >possui</text
    ></g
    ><g font-size="11px" transform="translate(699,518)" fill-opacity="1" fill="black" text-rendering="geometricPrecision" image-rendering="optimizeQuality" font-family="sans-serif" stroke="black" stroke-opacity="1"
    ><text x="10" xml:space="preserve" y="12" clip-path="url(#clipPath44)" stroke="none"
      >possui</text
    ></g
    ><g font-size="11px" transform="translate(534,529)" fill-opacity="1" fill="black" text-rendering="geometricPrecision" image-rendering="optimizeQuality" font-family="sans-serif" stroke="black" stroke-opacity="1"
    ><text x="10" xml:space="preserve" y="12" clip-path="url(#clipPath45)" stroke="none"
      >referente a</text
    ></g
    ><g font-size="11px" transform="translate(896,356)" fill-opacity="1" fill="black" text-rendering="geometricPrecision" image-rendering="optimizeQuality" font-family="sans-serif" stroke="black" stroke-opacity="1"
    ><text x="10" xml:space="preserve" y="12" clip-path="url(#clipPath43)" stroke="none"
      >possui</text
    ></g
    ><g font-size="11px" transform="translate(372,422)" fill-opacity="1" fill="black" text-rendering="geometricPrecision" image-rendering="optimizeQuality" font-family="sans-serif" stroke="black" stroke-opacity="1"
    ><text x="10" xml:space="preserve" y="12" clip-path="url(#clipPath44)" stroke="none"
      >possui</text
    ></g
    ><g font-size="11px" transform="translate(692,589)" fill-opacity="1" fill="black" text-rendering="geometricPrecision" image-rendering="optimizeQuality" font-family="sans-serif" stroke="black" stroke-opacity="1"
    ><text x="10" xml:space="preserve" y="12" clip-path="url(#clipPath44)" stroke="none"
      >possui</text
    ></g
    ><g font-size="8px" fill-opacity="1" fill="rgb(120,120,120)" text-rendering="geometricPrecision" image-rendering="optimizeQuality" stroke="rgb(120,120,120)" stroke-opacity="1"
    ><text x="0" xml:space="preserve" y="10" stroke="none"
      >Visual Paradigm Standard(Joel Ribeiro(Instituto Superior de Engenharia do Porto))</text
    ></g
  ></g
></svg
>
