<?xml version="1.0" encoding="UTF-8"?>
<!DOCTYPE svg PUBLIC '-//W3C//DTD SVG 1.0//EN'
          'http://www.w3.org/TR/2001/REC-SVG-20010904/DTD/svg10.dtd'>
<svg fill-opacity="0" xmlns:xlink="http://www.w3.org/1999/xlink" color-rendering="auto" color-interpolation="auto" text-rendering="auto" stroke="rgb(0,0,0)" stroke-linecap="square" width="923" stroke-miterlimit="10" shape-rendering="auto" stroke-opacity="0" fill="rgb(0,0,0)" stroke-dasharray="none" font-weight="normal" stroke-width="1" height="626" xmlns="http://www.w3.org/2000/svg" font-family="'Dialog'" font-style="normal" stroke-linejoin="miter" font-size="12px" stroke-dashoffset="0" image-rendering="auto"
><!--Generated by the Batik Graphics2D SVG Generator--><defs id="genericDefs"
  /><g
  ><defs id="defs1"
    ><clipPath clipPathUnits="userSpaceOnUse" id="clipPath1"
      ><path d="M-7 -7 L179 -7 L179 51 L-7 51 L-7 -7 Z"
      /></clipPath
      ><clipPath clipPathUnits="userSpaceOnUse" id="clipPath2"
      ><path d="M0 0 L0 25 L168 25 L168 0 Z"
      /></clipPath
      ><clipPath clipPathUnits="userSpaceOnUse" id="clipPath3"
      ><path d="M0 0 L0 15 L168 15 L168 0 Z"
      /></clipPath
      ><clipPath clipPathUnits="userSpaceOnUse" id="clipPath4"
      ><path d="M-7 -7 L556 -7 L556 111 L-7 111 L-7 -7 Z"
      /></clipPath
      ><clipPath clipPathUnits="userSpaceOnUse" id="clipPath5"
      ><path d="M0 0 L0 85 L545 85 L545 0 Z"
      /></clipPath
      ><clipPath clipPathUnits="userSpaceOnUse" id="clipPath6"
      ><path d="M0 0 L0 15 L545 15 L545 0 Z"
      /></clipPath
      ><clipPath clipPathUnits="userSpaceOnUse" id="clipPath7"
      ><path d="M-7 -7 L636 -7 L636 174 L-7 174 L-7 -7 Z"
      /></clipPath
      ><clipPath clipPathUnits="userSpaceOnUse" id="clipPath8"
      ><path d="M0 0 L0 148 L625 148 L625 0 Z"
      /></clipPath
      ><clipPath clipPathUnits="userSpaceOnUse" id="clipPath9"
      ><path d="M0 0 L0 15 L625 15 L625 0 Z"
      /></clipPath
      ><clipPath clipPathUnits="userSpaceOnUse" id="clipPath10"
      ><path d="M-7 -7 L578 -7 L578 143 L-7 143 L-7 -7 Z"
      /></clipPath
      ><clipPath clipPathUnits="userSpaceOnUse" id="clipPath11"
      ><path d="M0 0 L0 117 L567 117 L567 0 Z"
      /></clipPath
      ><clipPath clipPathUnits="userSpaceOnUse" id="clipPath12"
      ><path d="M0 0 L0 15 L567 15 L567 0 Z"
      /></clipPath
      ><clipPath clipPathUnits="userSpaceOnUse" id="clipPath13"
      ><path d="M-7 -7 L106 -7 L106 84 L-7 84 L-7 -7 Z"
      /></clipPath
      ><clipPath clipPathUnits="userSpaceOnUse" id="clipPath14"
      ><path d="M0 0 L0 58 L95 58 L95 0 Z"
      /></clipPath
      ><clipPath clipPathUnits="userSpaceOnUse" id="clipPath15"
      ><path d="M0 0 L0 15 L95 15 L95 0 Z"
      /></clipPath
      ><clipPath clipPathUnits="userSpaceOnUse" id="clipPath16"
      ><path d="M-7 -7 L274 -7 L274 84 L-7 84 L-7 -7 Z"
      /></clipPath
      ><clipPath clipPathUnits="userSpaceOnUse" id="clipPath17"
      ><path d="M0 0 L0 58 L263 58 L263 0 Z"
      /></clipPath
      ><clipPath clipPathUnits="userSpaceOnUse" id="clipPath18"
      ><path d="M0 0 L0 15 L264 15 L264 0 Z"
      /></clipPath
      ><clipPath clipPathUnits="userSpaceOnUse" id="clipPath19"
      ><path d="M-7 -7 L38 -7 L38 26 L-7 26 L-7 -7 Z"
      /></clipPath
      ><clipPath clipPathUnits="userSpaceOnUse" id="clipPath20"
      ><path d="M0 0 L0 15 L27 15 L27 0 Z"
      /></clipPath
      ><clipPath clipPathUnits="userSpaceOnUse" id="clipPath21"
      ><path d="M-7 -7 L36 -7 L36 26 L-7 26 L-7 -7 Z"
      /></clipPath
      ><clipPath clipPathUnits="userSpaceOnUse" id="clipPath22"
      ><path d="M0 0 L0 15 L25 15 L25 0 Z"
      /></clipPath
      ><clipPath clipPathUnits="userSpaceOnUse" id="clipPath23"
      ><path d="M-7 -7 L51 -7 L51 51 L-7 51 L-7 -7 Z"
      /></clipPath
      ><clipPath clipPathUnits="userSpaceOnUse" id="clipPath24"
      ><path d="M0 0 L0 40 L40 40 L40 0 Z"
      /></clipPath
      ><clipPath clipPathUnits="userSpaceOnUse" id="clipPath25"
      ><path d="M0 0 L129 0 L129 186 L0 186 L0 0 Z"
      /></clipPath
      ><clipPath clipPathUnits="userSpaceOnUse" id="clipPath26"
      ><path d="M0 0 L0 186 L129 186 L129 0 Z"
      /></clipPath
      ><clipPath clipPathUnits="userSpaceOnUse" id="clipPath27"
      ><path d="M0 0 L129 0 L129 192 L0 192 L0 0 Z"
      /></clipPath
      ><clipPath clipPathUnits="userSpaceOnUse" id="clipPath28"
      ><path d="M84 84 L84 99 L32 99 L32 84 ZM0 0 L0 192 L129 192 L129 0 Z"
      /></clipPath
      ><clipPath clipPathUnits="userSpaceOnUse" id="clipPath29"
      ><path d="M0 0 L327 0 L327 129 L0 129 L0 0 Z"
      /></clipPath
      ><clipPath clipPathUnits="userSpaceOnUse" id="clipPath30"
      ><path d="M190 55 L190 70 L137 70 L137 55 ZM0 0 L0 129 L327 129 L327 0 Z"
      /></clipPath
      ><clipPath clipPathUnits="userSpaceOnUse" id="clipPath31"
      ><path d="M0 0 L129 0 L129 310 L0 310 L0 0 Z"
      /></clipPath
      ><clipPath clipPathUnits="userSpaceOnUse" id="clipPath32"
      ><path d="M108 144 L108 159 L15 159 L15 144 ZM0 0 L0 310 L129 310 L129 0 Z"
      /></clipPath
      ><clipPath clipPathUnits="userSpaceOnUse" id="clipPath33"
      ><path d="M0 0 L731 0 L731 601 L0 601 L0 0 Z"
      /></clipPath
      ><clipPath clipPathUnits="userSpaceOnUse" id="clipPath34"
      ><path d="M370 201 L370 216 L318 216 L318 201 ZM594 429 L594 444 L542 444 L542 429 ZM218 554 L218 569 L165 569 L165 554 ZM0 0 L0 601 L731 601 L731 159 L675 159 L675 144 L731 144 L731 0 Z"
      /></clipPath
      ><clipPath clipPathUnits="userSpaceOnUse" id="clipPath35"
      ><path d="M0 0 L129 0 L129 477 L0 477 L0 0 Z"
      /></clipPath
      ><clipPath clipPathUnits="userSpaceOnUse" id="clipPath36"
      ><path d="M0 0 L0 477 L129 477 L129 0 Z"
      /></clipPath
      ><clipPath clipPathUnits="userSpaceOnUse" id="clipPath37"
      ><path d="M0 0 L262 0 L262 449 L0 449 L0 0 Z"
      /></clipPath
      ><clipPath clipPathUnits="userSpaceOnUse" id="clipPath38"
      ><path d="M125 430 L125 445 L72 445 L72 430 ZM0 0 L0 449 L262 449 L262 92 L225 92 L225 77 L262 77 L262 0 Z"
      /></clipPath
      ><clipPath clipPathUnits="userSpaceOnUse" id="clipPath39"
      ><path d="M0 0 L159 0 L159 639 L0 639 L0 0 Z"
      /></clipPath
      ><clipPath clipPathUnits="userSpaceOnUse" id="clipPath40"
      ><path d="M0 0 L0 639 L159 639 L159 0 Z"
      /></clipPath
      ><clipPath clipPathUnits="userSpaceOnUse" id="clipPath41"
      ><path d="M-53 -15 L106 -15 L106 30 L-53 30 L-53 -15 Z"
      /></clipPath
      ><clipPath clipPathUnits="userSpaceOnUse" id="clipPath42"
      ><path d="M-52 -15 L104 -15 L104 30 L-52 30 L-52 -15 Z"
      /></clipPath
      ><clipPath clipPathUnits="userSpaceOnUse" id="clipPath43"
      ><path d="M-93 -15 L186 -15 L186 30 L-93 30 L-93 -15 Z"
      /></clipPath
    ></defs
    ><g fill="white" text-rendering="geometricPrecision" fill-opacity="1" stroke-opacity="1" stroke="white"
    ><rect x="0" width="923" height="626" y="0" stroke="none"
    /></g
    ><g font-size="11px" transform="translate(254,2)" fill-opacity="1" fill="rgb(122,207,245)" text-rendering="geometricPrecision" image-rendering="optimizeQuality" font-family="sans-serif" stroke="rgb(122,207,245)" font-weight="bold" stroke-opacity="1"
    ><rect x="0" width="168" height="40" y="0" clip-path="url(#clipPath1)" stroke="none"
    /></g
    ><g fill-opacity="1" text-rendering="geometricPrecision" stroke="black" stroke-linecap="butt" transform="translate(254,2)" stroke-miterlimit="0" stroke-opacity="1" fill="black" font-weight="bold" font-family="sans-serif" stroke-linejoin="round" font-size="11px" image-rendering="optimizeQuality"
    ><rect fill="none" x="0" width="168" height="40" y="0" clip-path="url(#clipPath1)"
      /><line y2="15" fill="none" x1="0" clip-path="url(#clipPath1)" x2="168" y1="15"
    /></g
    ><g font-size="11px" transform="translate(254,2)" fill-opacity="1" fill="black" text-rendering="geometricPrecision" image-rendering="optimizeQuality" font-family="sans-serif" stroke="black" font-weight="bold" stroke-opacity="1"
    ><text x="32" xml:space="preserve" y="12" clip-path="url(#clipPath3)" stroke="none"
      >EspecificarTarefaUI</text
    ></g
    ><g font-size="11px" transform="translate(2,99)" fill-opacity="1" fill="rgb(122,207,245)" text-rendering="geometricPrecision" image-rendering="optimizeQuality" font-family="sans-serif" stroke="rgb(122,207,245)" font-weight="bold" stroke-opacity="1"
    ><rect x="0" width="545" height="100" y="0" clip-path="url(#clipPath4)" stroke="none"
    /></g
    ><g fill-opacity="1" text-rendering="geometricPrecision" stroke="black" stroke-linecap="butt" transform="translate(2,99)" stroke-miterlimit="0" stroke-opacity="1" fill="black" font-weight="bold" font-family="sans-serif" stroke-linejoin="round" font-size="11px" image-rendering="optimizeQuality"
    ><rect fill="none" x="0" width="545" height="100" y="0" clip-path="url(#clipPath4)"
      /><line y2="15" fill="none" x1="0" clip-path="url(#clipPath4)" x2="545" y1="15"
    /></g
    ><g font-size="11px" transform="matrix(1,0,0,1,2,114)" fill-opacity="1" fill="black" text-rendering="geometricPrecision" image-rendering="optimizeQuality" font-family="sans-serif" stroke="black" stroke-opacity="1"
    ><text x="2" xml:space="preserve" y="14" clip-path="url(#clipPath5)" stroke="none"
      >+getCategoriasTarefa() : List&lt;CategoriaTarefa&gt;</text
    ></g
    ><g font-size="11px" transform="matrix(1,0,0,1,2,114)" fill-opacity="1" fill="black" text-rendering="geometricPrecision" image-rendering="optimizeQuality" font-family="sans-serif" stroke="black" stroke-opacity="1"
    ><text x="2" xml:space="preserve" y="29" clip-path="url(#clipPath5)" stroke="none"
      >+getCategoriaById(catId : int) : void</text
    ></g
    ><g font-size="11px" transform="matrix(1,0,0,1,2,114)" fill-opacity="1" fill="black" text-rendering="geometricPrecision" image-rendering="optimizeQuality" font-family="sans-serif" stroke="black" stroke-opacity="1"
    ><text x="2" xml:space="preserve" y="44" clip-path="url(#clipPath5)" stroke="none"
      >+novaTarefa(design : string, descInf : string, descTec : string, duracao : float, custo : float, catId : int) : boolean</text
    ></g
    ><g font-size="11px" transform="matrix(1,0,0,1,2,114)" fill-opacity="1" fill="black" text-rendering="geometricPrecision" image-rendering="optimizeQuality" font-family="sans-serif" stroke="black" stroke-opacity="1"
    ><text x="2" xml:space="preserve" y="59" clip-path="url(#clipPath5)" stroke="none"
      >+registaTarefa() : boolean</text
    ></g
    ><g font-size="11px" transform="matrix(1,0,0,1,2,114)" fill-opacity="1" fill="black" text-rendering="geometricPrecision" image-rendering="optimizeQuality" font-family="sans-serif" stroke="black" stroke-opacity="1"
    ><text x="2" xml:space="preserve" y="74" clip-path="url(#clipPath5)" stroke="none"
      >+novaCompetenciaTecnica(codigo : string, descBreve : string, descDet : string, areaAtividadeId : int) : void</text
    ></g
    ><g font-size="11px" transform="translate(2,99)" fill-opacity="1" fill="black" text-rendering="geometricPrecision" image-rendering="optimizeQuality" font-family="sans-serif" stroke="black" font-weight="bold" stroke-opacity="1"
    ><text x="199" xml:space="preserve" y="12" clip-path="url(#clipPath6)" stroke="none"
      >EspecificarTarefaController</text
    ></g
    ><g font-size="11px" transform="translate(232,257)" fill-opacity="1" fill="rgb(122,207,245)" text-rendering="geometricPrecision" image-rendering="optimizeQuality" font-family="sans-serif" stroke="rgb(122,207,245)" font-weight="bold" stroke-opacity="1"
    ><rect x="0" width="625" height="163" y="0" clip-path="url(#clipPath7)" stroke="none"
    /></g
    ><g fill-opacity="1" text-rendering="geometricPrecision" stroke="black" stroke-linecap="butt" transform="translate(232,257)" stroke-miterlimit="0" stroke-opacity="1" fill="black" font-weight="bold" font-family="sans-serif" stroke-linejoin="round" font-size="11px" image-rendering="optimizeQuality"
    ><rect fill="none" x="0" width="625" height="163" y="0" clip-path="url(#clipPath7)"
      /><line y2="15" fill="none" x1="0" clip-path="url(#clipPath7)" x2="625" y1="15"
    /></g
    ><g font-size="11px" transform="matrix(1,0,0,1,232,272)" fill-opacity="1" fill="black" text-rendering="geometricPrecision" image-rendering="optimizeQuality" font-family="sans-serif" stroke="black" stroke-opacity="1"
    ><text x="2" xml:space="preserve" y="14" clip-path="url(#clipPath8)" stroke="none"
      >-nome : string</text
    ></g
    ><g font-size="11px" transform="matrix(1,0,0,1,232,272)" fill-opacity="1" fill="black" text-rendering="geometricPrecision" image-rendering="optimizeQuality" font-family="sans-serif" stroke="black" stroke-opacity="1"
    ><text x="2" xml:space="preserve" y="29" clip-path="url(#clipPath8)" stroke="none"
      >-NIF : string</text
    ></g
    ><g font-size="11px" transform="matrix(1,0,0,1,232,272)" fill-opacity="1" fill="black" text-rendering="geometricPrecision" image-rendering="optimizeQuality" font-family="sans-serif" stroke="black" stroke-opacity="1"
    ><text x="2" xml:space="preserve" y="44" clip-path="url(#clipPath8)" stroke="none"
      >-website : string</text
    ></g
    ><g font-size="11px" transform="matrix(1,0,0,1,232,272)" fill-opacity="1" fill="black" text-rendering="geometricPrecision" image-rendering="optimizeQuality" font-family="sans-serif" stroke="black" stroke-opacity="1"
    ><text x="2" xml:space="preserve" y="59" clip-path="url(#clipPath8)" stroke="none"
      >-telefone : string</text
    ></g
    ><g font-size="11px" transform="matrix(1,0,0,1,232,272)" fill-opacity="1" fill="black" text-rendering="geometricPrecision" image-rendering="optimizeQuality" font-family="sans-serif" stroke="black" stroke-opacity="1"
    ><text x="2" xml:space="preserve" y="74" clip-path="url(#clipPath8)" stroke="none"
      >-email : string</text
      ><line stroke-linecap="butt" clip-path="url(#clipPath8)" fill="none" x1="0" x2="625" y1="79" y2="79" stroke-linejoin="bevel" stroke-miterlimit="0"
    /></g
    ><g font-size="11px" transform="matrix(1,0,0,1,232,272)" fill-opacity="1" fill="black" text-rendering="geometricPrecision" image-rendering="optimizeQuality" font-family="sans-serif" stroke="black" stroke-opacity="1"
    ><text x="2" xml:space="preserve" y="93" clip-path="url(#clipPath8)" stroke="none"
      >+novaTarefa(design : string, descInf : string, descTec : string, duracao : float, custo : float, categoria : CategoriaTarefa) : Tarefa</text
    ></g
    ><g font-size="11px" transform="matrix(1,0,0,1,232,272)" fill-opacity="1" fill="black" text-rendering="geometricPrecision" image-rendering="optimizeQuality" font-family="sans-serif" stroke="black" stroke-opacity="1"
    ><text x="2" xml:space="preserve" y="108" clip-path="url(#clipPath8)" stroke="none"
      >+registaTarefa(tarefa : Tarefa) : boolean</text
    ></g
    ><g font-size="11px" transform="matrix(1,0,0,1,232,272)" fill-opacity="1" fill="black" text-rendering="geometricPrecision" image-rendering="optimizeQuality" font-family="sans-serif" stroke="black" stroke-opacity="1"
    ><text x="2" xml:space="preserve" y="123" clip-path="url(#clipPath8)" stroke="none"
      >+validaTarefa(tarefa : Tarefa) : boolean</text
    ></g
    ><g font-size="11px" transform="matrix(1,0,0,1,232,272)" fill-opacity="1" fill="black" text-rendering="geometricPrecision" image-rendering="optimizeQuality" font-family="sans-serif" stroke="black" stroke-opacity="1"
    ><text x="2" xml:space="preserve" y="138" clip-path="url(#clipPath8)" stroke="none"
      >-adicionaTarefa(tarefa : Tarefa) : boolean</text
    ></g
    ><g font-size="11px" transform="translate(232,257)" fill-opacity="1" fill="black" text-rendering="geometricPrecision" image-rendering="optimizeQuality" font-family="sans-serif" stroke="black" font-weight="bold" stroke-opacity="1"
    ><text x="278" xml:space="preserve" y="12" clip-path="url(#clipPath9)" stroke="none"
      >Organizacao</text
    ></g
    ><g font-size="11px" transform="translate(296,485)" fill-opacity="1" fill="rgb(122,207,245)" text-rendering="geometricPrecision" image-rendering="optimizeQuality" font-family="sans-serif" stroke="rgb(122,207,245)" font-weight="bold" stroke-opacity="1"
    ><rect x="0" width="567" height="132" y="0" clip-path="url(#clipPath10)" stroke="none"
    /></g
    ><g fill-opacity="1" text-rendering="geometricPrecision" stroke="black" stroke-linecap="butt" transform="translate(296,485)" stroke-miterlimit="0" stroke-opacity="1" fill="black" font-weight="bold" font-family="sans-serif" stroke-linejoin="round" font-size="11px" image-rendering="optimizeQuality"
    ><rect fill="none" x="0" width="567" height="132" y="0" clip-path="url(#clipPath10)"
      /><line y2="15" fill="none" x1="0" clip-path="url(#clipPath10)" x2="567" y1="15"
    /></g
    ><g font-size="11px" transform="matrix(1,0,0,1,296,500)" fill-opacity="1" fill="black" text-rendering="geometricPrecision" image-rendering="optimizeQuality" font-family="sans-serif" stroke="black" stroke-opacity="1"
    ><text x="2" xml:space="preserve" y="14" clip-path="url(#clipPath11)" stroke="none"
      >-codigo : string</text
    ></g
    ><g font-size="11px" transform="matrix(1,0,0,1,296,500)" fill-opacity="1" fill="black" text-rendering="geometricPrecision" image-rendering="optimizeQuality" font-family="sans-serif" stroke="black" stroke-opacity="1"
    ><text x="2" xml:space="preserve" y="29" clip-path="url(#clipPath11)" stroke="none"
      >-design : string</text
    ></g
    ><g font-size="11px" transform="matrix(1,0,0,1,296,500)" fill-opacity="1" fill="black" text-rendering="geometricPrecision" image-rendering="optimizeQuality" font-family="sans-serif" stroke="black" stroke-opacity="1"
    ><text x="2" xml:space="preserve" y="44" clip-path="url(#clipPath11)" stroke="none"
      >-descInf : string</text
    ></g
    ><g font-size="11px" transform="matrix(1,0,0,1,296,500)" fill-opacity="1" fill="black" text-rendering="geometricPrecision" image-rendering="optimizeQuality" font-family="sans-serif" stroke="black" stroke-opacity="1"
    ><text x="2" xml:space="preserve" y="59" clip-path="url(#clipPath11)" stroke="none"
      >-descTec : string</text
    ></g
    ><g font-size="11px" transform="matrix(1,0,0,1,296,500)" fill-opacity="1" fill="black" text-rendering="geometricPrecision" image-rendering="optimizeQuality" font-family="sans-serif" stroke="black" stroke-opacity="1"
    ><text x="2" xml:space="preserve" y="74" clip-path="url(#clipPath11)" stroke="none"
      >-duracao : float</text
    ></g
    ><g font-size="11px" transform="matrix(1,0,0,1,296,500)" fill-opacity="1" fill="black" text-rendering="geometricPrecision" image-rendering="optimizeQuality" font-family="sans-serif" stroke="black" stroke-opacity="1"
    ><text x="2" xml:space="preserve" y="89" clip-path="url(#clipPath11)" stroke="none"
      >-custo : float</text
      ><line stroke-linecap="butt" clip-path="url(#clipPath11)" fill="none" x1="0" x2="567" y1="94" y2="94" stroke-linejoin="bevel" stroke-miterlimit="0"
    /></g
    ><g font-size="11px" transform="matrix(1,0,0,1,296,500)" fill-opacity="1" fill="black" text-rendering="geometricPrecision" image-rendering="optimizeQuality" font-family="sans-serif" stroke="black" stroke-opacity="1"
    ><text x="2" xml:space="preserve" y="108" clip-path="url(#clipPath11)" stroke="none"
      >+Tarefa(design : string, descInf : string, descTec : string, duracao : float, custo : float, categoria : CategoriaTarefa)</text
    ></g
    ><g font-size="11px" transform="translate(296,485)" fill-opacity="1" fill="black" text-rendering="geometricPrecision" image-rendering="optimizeQuality" font-family="sans-serif" stroke="black" font-weight="bold" stroke-opacity="1"
    ><text x="266" xml:space="preserve" y="12" clip-path="url(#clipPath12)" stroke="none"
      >Tarefa</text
    ></g
    ><g font-size="11px" transform="translate(2,549)" fill-opacity="1" fill="rgb(122,207,245)" text-rendering="geometricPrecision" image-rendering="optimizeQuality" font-family="sans-serif" stroke="rgb(122,207,245)" font-weight="bold" stroke-opacity="1"
    ><rect x="0" width="95" height="73" y="0" clip-path="url(#clipPath13)" stroke="none"
    /></g
    ><g fill-opacity="1" text-rendering="geometricPrecision" stroke="black" stroke-linecap="butt" transform="translate(2,549)" stroke-miterlimit="0" stroke-opacity="1" fill="black" font-weight="bold" font-family="sans-serif" stroke-linejoin="round" font-size="11px" image-rendering="optimizeQuality"
    ><rect fill="none" x="0" width="95" height="73" y="0" clip-path="url(#clipPath13)"
      /><line y2="15" fill="none" x1="0" clip-path="url(#clipPath13)" x2="95" y1="15"
    /></g
    ><g font-size="11px" transform="matrix(1,0,0,1,2,564)" fill-opacity="1" fill="black" text-rendering="geometricPrecision" image-rendering="optimizeQuality" font-family="sans-serif" stroke="black" stroke-opacity="1"
    ><text x="2" xml:space="preserve" y="14" clip-path="url(#clipPath14)" stroke="none"
      >-codigo : string</text
    ></g
    ><g font-size="11px" transform="matrix(1,0,0,1,2,564)" fill-opacity="1" fill="black" text-rendering="geometricPrecision" image-rendering="optimizeQuality" font-family="sans-serif" stroke="black" stroke-opacity="1"
    ><text x="2" xml:space="preserve" y="29" clip-path="url(#clipPath14)" stroke="none"
      >-desc : string</text
      ><line stroke-linecap="butt" clip-path="url(#clipPath14)" fill="none" x1="0" x2="95" y1="34" y2="34" stroke-linejoin="bevel" stroke-miterlimit="0"
    /></g
    ><g font-size="11px" transform="matrix(1,0,0,1,2,564)" fill-opacity="1" fill="black" text-rendering="geometricPrecision" image-rendering="optimizeQuality" font-family="sans-serif" stroke="black" stroke-opacity="1"
    ><text x="2" xml:space="preserve" y="48" clip-path="url(#clipPath14)" stroke="none"
      >+generateId() : int</text
    ></g
    ><g font-size="11px" transform="translate(2,549)" fill-opacity="1" fill="black" text-rendering="geometricPrecision" image-rendering="optimizeQuality" font-family="sans-serif" stroke="black" font-weight="bold" stroke-opacity="1"
    ><text x="5" xml:space="preserve" y="12" clip-path="url(#clipPath15)" stroke="none"
      >CategoriaTarefa</text
    ></g
    ><g font-size="11px" transform="translate(600,2)" fill-opacity="1" fill="rgb(122,207,245)" text-rendering="geometricPrecision" image-rendering="optimizeQuality" font-family="sans-serif" stroke="rgb(122,207,245)" font-weight="bold" stroke-opacity="1"
    ><rect x="0" width="263" height="73" y="0" clip-path="url(#clipPath16)" stroke="none"
    /></g
    ><g fill-opacity="1" text-rendering="geometricPrecision" stroke="black" stroke-linecap="butt" transform="translate(600,2)" stroke-miterlimit="0" stroke-opacity="1" fill="black" font-weight="bold" font-family="sans-serif" stroke-linejoin="round" font-size="11px" image-rendering="optimizeQuality"
    ><rect fill="none" x="0" width="263" height="73" y="0" clip-path="url(#clipPath16)"
      /><line y2="15" fill="none" x1="0" clip-path="url(#clipPath16)" x2="263" y1="15"
    /></g
    ><g font-size="11px" transform="matrix(1,0,0,1,600,17)" fill-opacity="1" fill="black" text-rendering="geometricPrecision" image-rendering="optimizeQuality" font-family="sans-serif" stroke="black" stroke-opacity="1"
    ><text x="2" xml:space="preserve" y="14" clip-path="url(#clipPath17)" stroke="none"
      >-designacao : string</text
    ></g
    ><g stroke-linecap="butt" font-size="11px" transform="matrix(1,0,0,1,600,17)" fill-opacity="1" fill="black" text-rendering="geometricPrecision" image-rendering="optimizeQuality" font-family="sans-serif" stroke-linejoin="bevel" stroke="black" stroke-opacity="1" stroke-miterlimit="0"
    ><line y2="19" fill="none" x1="0" clip-path="url(#clipPath17)" x2="263" y1="19"
    /></g
    ><g font-size="11px" transform="matrix(1,0,0,1,600,17)" fill-opacity="1" fill="black" text-rendering="geometricPrecision" image-rendering="optimizeQuality" font-family="sans-serif" stroke="black" stroke-opacity="1"
    ><text x="2" xml:space="preserve" y="33" clip-path="url(#clipPath17)" stroke="none"
      >+getCategoriaById(id : int) : CategoriaTarefa</text
    ></g
    ><g font-size="11px" transform="matrix(1,0,0,1,600,17)" fill-opacity="1" fill="black" text-rendering="geometricPrecision" image-rendering="optimizeQuality" font-family="sans-serif" stroke="black" stroke-opacity="1"
    ><text x="2" xml:space="preserve" y="48" clip-path="url(#clipPath17)" stroke="none"
      >+getCategoriasTarefa() : List&lt;CategoriaTarefa&gt;</text
    ></g
    ><g font-size="11px" transform="translate(600,2)" fill-opacity="1" fill="black" text-rendering="geometricPrecision" image-rendering="optimizeQuality" font-family="sans-serif" stroke="black" font-weight="bold" stroke-opacity="1"
    ><text x="103" xml:space="preserve" y="12" clip-path="url(#clipPath18)" stroke="none"
      >Plataforma</text
    ></g
    ><g font-size="11px" transform="translate(265,577)" fill-opacity="1" fill="black" text-rendering="geometricPrecision" image-rendering="optimizeQuality" font-family="sans-serif" stroke="black" stroke-opacity="1"
    ><text x="10" xml:space="preserve" y="12" clip-path="url(#clipPath20)" stroke="none"
      >1</text
    ></g
    ><g font-size="11px" transform="translate(102,575)" fill-opacity="1" fill="black" text-rendering="geometricPrecision" image-rendering="optimizeQuality" font-family="sans-serif" stroke="black" stroke-opacity="1"
    ><text x="10" xml:space="preserve" y="12" clip-path="url(#clipPath20)" stroke="none"
      >1</text
    ></g
    ><g font-size="11px" transform="translate(573,425)" fill-opacity="1" fill="black" text-rendering="geometricPrecision" image-rendering="optimizeQuality" font-family="sans-serif" stroke="black" stroke-opacity="1"
    ><text x="10" xml:space="preserve" y="12" clip-path="url(#clipPath20)" stroke="none"
      >1</text
    ></g
    ><g font-size="11px" transform="translate(578,464)" fill-opacity="1" fill="black" text-rendering="geometricPrecision" image-rendering="optimizeQuality" font-family="sans-serif" stroke="black" stroke-opacity="1"
    ><text x="10" xml:space="preserve" y="12" clip-path="url(#clipPath22)" stroke="none"
      >*</text
    ></g
    ><g font-size="11px" transform="translate(661,68)" fill-opacity="1" fill="black" text-rendering="geometricPrecision" image-rendering="optimizeQuality" font-family="sans-serif" stroke="black" stroke-opacity="1"
    ><text x="16" xml:space="preserve" y="24" clip-path="url(#clipPath24)" stroke="none"
      >1</text
    ></g
    ><g font-size="11px" transform="translate(34,515)" fill-opacity="1" fill="black" text-rendering="geometricPrecision" image-rendering="optimizeQuality" font-family="sans-serif" stroke="black" stroke-opacity="1"
    ><text x="11" xml:space="preserve" y="24" clip-path="url(#clipPath24)" stroke="none"
      >0..*</text
    ></g
    ><g font-size="11px" transform="translate(720,67)" fill-opacity="1" fill="black" text-rendering="geometricPrecision" image-rendering="optimizeQuality" font-family="sans-serif" stroke="black" stroke-opacity="1"
    ><text x="16" xml:space="preserve" y="24" clip-path="url(#clipPath24)" stroke="none"
      >1</text
    ></g
    ><g font-size="11px" transform="translate(720,224)" fill-opacity="1" fill="black" text-rendering="geometricPrecision" image-rendering="optimizeQuality" font-family="sans-serif" stroke="black" stroke-opacity="1"
    ><text x="17" xml:space="preserve" y="24" clip-path="url(#clipPath24)" stroke="none"
      >*</text
    ></g
    ><g font-size="11px" transform="translate(862,3)" fill-opacity="1" fill="black" text-rendering="geometricPrecision" image-rendering="optimizeQuality" font-family="sans-serif" stroke="black" stroke-opacity="1"
    ><text x="16" xml:space="preserve" y="24" clip-path="url(#clipPath24)" stroke="none"
      >1</text
    ></g
    ><g font-size="11px" transform="translate(861,516)" fill-opacity="1" fill="black" text-rendering="geometricPrecision" image-rendering="optimizeQuality" font-family="sans-serif" stroke="black" stroke-opacity="1"
    ><text x="11" xml:space="preserve" y="24" clip-path="url(#clipPath24)" stroke="none"
      >0..*</text
    ></g
    ><g fill-opacity="1" text-rendering="geometricPrecision" stroke="black" stroke-linecap="butt" transform="translate(236,-21)" stroke-opacity="1" fill="black" stroke-dasharray="5" font-family="sans-serif" stroke-linejoin="round" font-size="11px" stroke-dashoffset="1" image-rendering="optimizeQuality"
    ><line y2="120" fill="none" x1="62" clip-path="url(#clipPath26)" x2="62" y1="63"
      /><line clip-path="url(#clipPath26)" stroke-dashoffset="0" fill="none" x1="62" x2="68" y1="120" y2="108" stroke-dasharray="none"
      /><line clip-path="url(#clipPath26)" stroke-dashoffset="0" fill="none" x1="62" x2="56" y1="120" y2="108" stroke-dasharray="none"
    /></g
    ><g fill-opacity="1" text-rendering="geometricPrecision" stroke="black" stroke-linecap="butt" transform="translate(439,137)" stroke-opacity="1" fill="black" stroke-dasharray="5" font-family="sans-serif" stroke-linejoin="round" font-size="11px" stroke-dashoffset="1" image-rendering="optimizeQuality"
    ><line y2="120" fill="none" x1="63" clip-path="url(#clipPath26)" x2="63" y1="62"
      /><line clip-path="url(#clipPath26)" stroke-dashoffset="0" fill="none" x1="63" x2="69" y1="120" y2="108" stroke-dasharray="none"
      /><line clip-path="url(#clipPath26)" stroke-dashoffset="0" fill="none" x1="63" x2="57" y1="120" y2="108" stroke-dasharray="none"
    /></g
    ><g stroke-linecap="butt" font-size="11px" transform="translate(516,358)" fill-opacity="1" fill="black" text-rendering="geometricPrecision" image-rendering="optimizeQuality" font-family="sans-serif" stroke-linejoin="round" stroke="black" stroke-opacity="1"
    ><line y2="126" fill="none" x1="62" clip-path="url(#clipPath28)" x2="62" y1="62"
      /><line y2="114" fill="none" x1="62" clip-path="url(#clipPath28)" x2="68" y1="126"
      /><line y2="114" fill="none" x1="62" clip-path="url(#clipPath28)" x2="56" y1="126"
    /></g
    ><g stroke-linecap="butt" font-size="11px" transform="translate(34,512)" fill-opacity="1" fill="black" text-rendering="geometricPrecision" image-rendering="optimizeQuality" font-family="sans-serif" stroke-linejoin="round" stroke="black" stroke-opacity="1"
    ><line y2="62" fill="none" x1="262" clip-path="url(#clipPath30)" x2="63" y1="62"
      /><line y2="68" fill="none" x1="63" clip-path="url(#clipPath30)" x2="75" y1="62"
      /><line y2="56" fill="none" x1="63" clip-path="url(#clipPath30)" x2="75" y1="62"
    /></g
    ><g stroke-linecap="butt" font-size="11px" transform="translate(666,13)" fill-opacity="1" fill="black" text-rendering="geometricPrecision" image-rendering="optimizeQuality" font-family="sans-serif" stroke-linejoin="round" stroke="black" stroke-opacity="1"
    ><line y2="244" fill="none" x1="62" clip-path="url(#clipPath32)" x2="62" y1="62"
    /></g
    ><g stroke-linecap="butt" font-size="11px" transform="translate(6,13)" fill-opacity="1" fill="black" text-rendering="geometricPrecision" image-rendering="optimizeQuality" font-family="sans-serif" stroke-linejoin="round" stroke="black" stroke-opacity="1"
    ><line y2="212" fill="none" x1="665" clip-path="url(#clipPath34)" x2="665" y1="62"
      /><line y2="212" fill="none" x1="665" clip-path="url(#clipPath34)" x2="62" y1="212"
      /><line y2="535" fill="none" x1="62" clip-path="url(#clipPath34)" x2="62" y1="212"
    /></g
    ><g fill-opacity="1" text-rendering="geometricPrecision" stroke="black" stroke-linecap="butt" transform="translate(-37,137)" stroke-opacity="1" fill="black" stroke-dasharray="5" font-family="sans-serif" stroke-linejoin="round" font-size="11px" stroke-dashoffset="1" image-rendering="optimizeQuality"
    ><line y2="411" fill="none" x1="63" clip-path="url(#clipPath36)" x2="63" y1="62"
      /><line clip-path="url(#clipPath36)" stroke-dashoffset="0" fill="none" x1="63" x2="69" y1="411" y2="399" stroke-dasharray="none"
      /><line clip-path="url(#clipPath36)" stroke-dashoffset="0" fill="none" x1="63" x2="57" y1="411" y2="399" stroke-dasharray="none"
    /></g
    ><g fill-opacity="1" text-rendering="geometricPrecision" stroke="black" stroke-linecap="butt" transform="translate(99,137)" stroke-opacity="1" fill="black" stroke-dasharray="5" font-family="sans-serif" stroke-linejoin="round" font-size="11px" stroke-dashoffset="1" image-rendering="optimizeQuality"
    ><line y2="382" fill="none" x1="63" clip-path="url(#clipPath38)" x2="63" y1="62"
      /><line y2="382" fill="none" x1="63" clip-path="url(#clipPath38)" x2="197" y1="382"
      /><line clip-path="url(#clipPath38)" stroke-dashoffset="0" fill="none" x1="197" x2="185" y1="382" y2="376" stroke-dasharray="none"
      /><line clip-path="url(#clipPath38)" stroke-dashoffset="0" fill="none" x1="197" x2="185" y1="382" y2="388" stroke-dasharray="none"
    /></g
    ><g stroke-linecap="butt" font-size="11px" transform="translate(801,-24)" fill-opacity="1" fill="black" text-rendering="geometricPrecision" image-rendering="optimizeQuality" font-family="sans-serif" stroke-linejoin="round" stroke="black" stroke-opacity="1"
    ><line y2="63" fill="none" x1="63" clip-path="url(#clipPath40)" x2="93" y1="63"
      /><line y2="573" fill="none" x1="93" clip-path="url(#clipPath40)" x2="93" y1="63"
      /><line y2="573" fill="none" x1="93" clip-path="url(#clipPath40)" x2="63" y1="573"
    /></g
    ><g font-size="11px" transform="translate(867,286)" fill-opacity="1" fill="black" text-rendering="geometricPrecision" image-rendering="optimizeQuality" font-family="sans-serif" stroke="black" stroke-opacity="1"
    ><text x="10" xml:space="preserve" y="12" clip-path="url(#clipPath41)" stroke="none"
      >possui</text
    ></g
    ><g font-size="11px" transform="translate(324,214)" fill-opacity="1" fill="black" text-rendering="geometricPrecision" image-rendering="optimizeQuality" font-family="sans-serif" stroke="black" stroke-opacity="1"
    ><text x="10" xml:space="preserve" y="12" clip-path="url(#clipPath42)" stroke="none"
      >possui</text
    ></g
    ><g font-size="11px" transform="translate(681,157)" fill-opacity="1" fill="black" text-rendering="geometricPrecision" image-rendering="optimizeQuality" font-family="sans-serif" stroke="black" stroke-opacity="1"
    ><text x="9" xml:space="preserve" y="12" clip-path="url(#clipPath43)" stroke="none"
      >tem registadas</text
    ></g
    ><g font-size="11px" transform="translate(171,567)" fill-opacity="1" fill="black" text-rendering="geometricPrecision" image-rendering="optimizeQuality" font-family="sans-serif" stroke="black" stroke-opacity="1"
    ><text x="10" xml:space="preserve" y="12" clip-path="url(#clipPath41)" stroke="none"
      >possui</text
    ></g
    ><g font-size="11px" transform="translate(548,442)" fill-opacity="1" fill="black" text-rendering="geometricPrecision" image-rendering="optimizeQuality" font-family="sans-serif" stroke="black" stroke-opacity="1"
    ><text x="10" xml:space="preserve" y="12" clip-path="url(#clipPath42)" stroke="none"
      >possui</text
    ></g
    ><g font-size="8px" fill-opacity="1" fill="rgb(120,120,120)" text-rendering="geometricPrecision" image-rendering="optimizeQuality" stroke="rgb(120,120,120)" stroke-opacity="1"
    ><text x="0" xml:space="preserve" y="10" stroke="none"
      >Visual Paradigm Standard(Joel Ribeiro(Instituto Superior de Engenharia do Porto))</text
    ></g
  ></g
></svg
>
