<?xml version="1.0" encoding="UTF-8"?>
<!DOCTYPE svg PUBLIC '-//W3C//DTD SVG 1.0//EN'
          'http://www.w3.org/TR/2001/REC-SVG-20010904/DTD/svg10.dtd'>
<svg fill-opacity="0" xmlns:xlink="http://www.w3.org/1999/xlink" color-rendering="auto" color-interpolation="auto" text-rendering="auto" stroke="rgb(0,0,0)" stroke-linecap="square" width="1135" stroke-miterlimit="10" shape-rendering="auto" stroke-opacity="0" fill="rgb(0,0,0)" stroke-dasharray="none" font-weight="normal" stroke-width="1" height="912" xmlns="http://www.w3.org/2000/svg" font-family="'Dialog'" font-style="normal" stroke-linejoin="miter" font-size="12px" stroke-dashoffset="0" image-rendering="auto"
><!--Generated by the Batik Graphics2D SVG Generator--><defs id="genericDefs"
  /><g
  ><defs id="defs1"
    ><clipPath clipPathUnits="userSpaceOnUse" id="clipPath1"
      ><path d="M-7 -7 L166 -7 L166 917 L-7 917 L-7 -7 Z"
      /></clipPath
      ><clipPath clipPathUnits="userSpaceOnUse" id="clipPath2"
      ><path d="M-7 -7 L26 -7 L26 31 L-7 31 L-7 -7 Z"
      /></clipPath
      ><clipPath clipPathUnits="userSpaceOnUse" id="clipPath3"
      ><path d="M-7 -7 L19 -7 L19 791 L-7 791 L-7 -7 Z"
      /></clipPath
      ><clipPath clipPathUnits="userSpaceOnUse" id="clipPath4"
      ><path d="M-7 -7 L102 -7 L102 917 L-7 917 L-7 -7 Z"
      /></clipPath
      ><clipPath clipPathUnits="userSpaceOnUse" id="clipPath5"
      ><path d="M-7 -7 L19 -7 L19 24 L-7 24 L-7 -7 Z"
      /></clipPath
      ><clipPath clipPathUnits="userSpaceOnUse" id="clipPath6"
      ><path d="M-7 -7 L81 -7 L81 917 L-7 917 L-7 -7 Z"
      /></clipPath
      ><clipPath clipPathUnits="userSpaceOnUse" id="clipPath7"
      ><path d="M-7 -7 L122 -7 L122 917 L-7 917 L-7 -7 Z"
      /></clipPath
      ><clipPath clipPathUnits="userSpaceOnUse" id="clipPath8"
      ><path d="M-7 -7 L742 -7 L742 733 L-7 733 L-7 -7 Z"
      /></clipPath
      ><clipPath clipPathUnits="userSpaceOnUse" id="clipPath9"
      ><path d="M125 23 L125 37 L38 37 L38 23 ZM-7 -7 L-7 733 L742 733 L742 -7 Z"
      /></clipPath
      ><clipPath clipPathUnits="userSpaceOnUse" id="clipPath10"
      ><path d="M0 0 L0 18 L34 18 L34 0 Z"
      /></clipPath
      ><clipPath clipPathUnits="userSpaceOnUse" id="clipPath11"
      ><path d="M-7 -7 L19 -7 L19 274 L-7 274 L-7 -7 Z"
      /></clipPath
      ><clipPath clipPathUnits="userSpaceOnUse" id="clipPath12"
      ><path d="M-7 -7 L111 -7 L111 917 L-7 917 L-7 -7 Z"
      /></clipPath
      ><clipPath clipPathUnits="userSpaceOnUse" id="clipPath13"
      ><path d="M-7 -7 L97 -7 L97 917 L-7 917 L-7 -7 Z"
      /></clipPath
      ><clipPath clipPathUnits="userSpaceOnUse" id="clipPath14"
      ><path d="M-7 -7 L119 -7 L119 917 L-7 917 L-7 -7 Z"
      /></clipPath
      ><clipPath clipPathUnits="userSpaceOnUse" id="clipPath15"
      ><path d="M-7 -7 L742 -7 L742 716 L-7 716 L-7 -7 Z"
      /></clipPath
      ><clipPath clipPathUnits="userSpaceOnUse" id="clipPath16"
      ><path d="M0 0 L0 15 L108 15 L108 0 Z"
      /></clipPath
      ><clipPath clipPathUnits="userSpaceOnUse" id="clipPath17"
      ><path d="M0 0 L0 4 L731 4 L731 0 Z"
      /></clipPath
      ><clipPath clipPathUnits="userSpaceOnUse" id="clipPath18"
      ><path d="M-7 -7 L704 -7 L704 620 L-7 620 L-7 -7 Z"
      /></clipPath
      ><clipPath clipPathUnits="userSpaceOnUse" id="clipPath19"
      ><path d="M253 23 L253 37 L41 37 L41 23 ZM-7 -7 L-7 620 L704 620 L704 -7 Z"
      /></clipPath
      ><clipPath clipPathUnits="userSpaceOnUse" id="clipPath20"
      ><path d="M0 0 L0 18 L23 18 L23 0 Z"
      /></clipPath
      ><clipPath clipPathUnits="userSpaceOnUse" id="clipPath21"
      ><path d="M-7 -7 L19 -7 L19 26 L-7 26 L-7 -7 Z"
      /></clipPath
      ><clipPath clipPathUnits="userSpaceOnUse" id="clipPath22"
      ><path d="M-7 -7 L704 -7 L704 552 L-7 552 L-7 -7 Z"
      /></clipPath
      ><clipPath clipPathUnits="userSpaceOnUse" id="clipPath23"
      ><path d="M0 0 L0 15 L234 15 L234 0 Z"
      /></clipPath
      ><clipPath clipPathUnits="userSpaceOnUse" id="clipPath24"
      ><path d="M0 0 L0 4 L693 4 L693 0 Z"
      /></clipPath
      ><clipPath clipPathUnits="userSpaceOnUse" id="clipPath25"
      ><path d="M-7 -7 L427 -7 L427 141 L-7 141 L-7 -7 Z"
      /></clipPath
      ><clipPath clipPathUnits="userSpaceOnUse" id="clipPath26"
      ><path d="M0 0 L0 15 L252 15 L252 0 Z"
      /></clipPath
      ><clipPath clipPathUnits="userSpaceOnUse" id="clipPath27"
      ><path d="M0 0 L0 4 L416 4 L416 0 Z"
      /></clipPath
      ><clipPath clipPathUnits="userSpaceOnUse" id="clipPath28"
      ><path d="M-7 -7 L217 -7 L217 162 L-7 162 L-7 -7 Z"
      /></clipPath
      ><clipPath clipPathUnits="userSpaceOnUse" id="clipPath29"
      ><path d="M107 24 L107 38 L38 38 L38 24 ZM-7 -7 L-7 162 L217 162 L217 -7 Z"
      /></clipPath
      ><clipPath clipPathUnits="userSpaceOnUse" id="clipPath30"
      ><path d="M-7 -7 L427 -7 L427 159 L-7 159 L-7 -7 Z"
      /></clipPath
      ><clipPath clipPathUnits="userSpaceOnUse" id="clipPath31"
      ><path d="M270 22 L270 37 L38 37 L38 22 ZM-7 -7 L-7 159 L427 159 L427 -7 Z"
      /></clipPath
      ><clipPath clipPathUnits="userSpaceOnUse" id="clipPath32"
      ><path d="M-7 -7 L217 -7 L217 62 L-7 62 L-7 -7 Z"
      /></clipPath
      ><clipPath clipPathUnits="userSpaceOnUse" id="clipPath33"
      ><path d="M0 0 L0 4 L206 4 L206 0 Z"
      /></clipPath
      ><clipPath clipPathUnits="userSpaceOnUse" id="clipPath34"
      ><path d="M-7 -7 L217 -7 L217 94 L-7 94 L-7 -7 Z"
      /></clipPath
      ><clipPath clipPathUnits="userSpaceOnUse" id="clipPath35"
      ><path d="M0 0 L0 15 L90 15 L90 0 Z"
      /></clipPath
      ><clipPath clipPathUnits="userSpaceOnUse" id="clipPath36"
      ><path d="M-7 -7 L704 -7 L704 61 L-7 61 L-7 -7 Z"
      /></clipPath
      ><clipPath clipPathUnits="userSpaceOnUse" id="clipPath37"
      ><path d="M-155 -15 L310 -15 L310 30 L-155 30 L-155 -15 Z"
      /></clipPath
      ><clipPath clipPathUnits="userSpaceOnUse" id="clipPath38"
      ><path d="M-91 -15 L182 -15 L182 30 L-91 30 L-91 -15 Z"
      /></clipPath
      ><clipPath clipPathUnits="userSpaceOnUse" id="clipPath39"
      ><path d="M-70 -30 L140 -30 L140 60 L-70 60 L-70 -30 Z"
      /></clipPath
      ><clipPath clipPathUnits="userSpaceOnUse" id="clipPath40"
      ><path d="M-111 -15 L222 -15 L222 30 L-111 30 L-111 -15 Z"
      /></clipPath
      ><clipPath clipPathUnits="userSpaceOnUse" id="clipPath41"
      ><path d="M-100 -15 L200 -15 L200 30 L-100 30 L-100 -15 Z"
      /></clipPath
      ><clipPath clipPathUnits="userSpaceOnUse" id="clipPath42"
      ><path d="M-86 -30 L172 -30 L172 60 L-86 60 L-86 -30 Z"
      /></clipPath
      ><clipPath clipPathUnits="userSpaceOnUse" id="clipPath43"
      ><path d="M-108 -15 L216 -15 L216 30 L-108 30 L-108 -15 Z"
      /></clipPath
      ><clipPath clipPathUnits="userSpaceOnUse" id="clipPath44"
      ><path d="M0 0 L459 0 L459 129 L0 129 L0 0 Z"
      /></clipPath
      ><clipPath clipPathUnits="userSpaceOnUse" id="clipPath45"
      ><path d="M377 29 L377 59 L77 59 L77 29 ZM0 0 L0 129 L459 129 L459 0 Z"
      /></clipPath
      ><clipPath clipPathUnits="userSpaceOnUse" id="clipPath46"
      ><path d="M0 0 L277 0 L277 129 L0 129 L0 0 Z"
      /></clipPath
      ><clipPath clipPathUnits="userSpaceOnUse" id="clipPath47"
      ><path d="M186 40 L186 55 L78 55 L78 40 ZM0 0 L0 129 L277 129 L277 0 Z"
      /></clipPath
      ><clipPath clipPathUnits="userSpaceOnUse" id="clipPath48"
      ><path d="M0 0 L389 0 L389 129 L0 129 L0 0 Z"
      /></clipPath
      ><clipPath clipPathUnits="userSpaceOnUse" id="clipPath49"
      ><path d="M269 6 L269 53 L91 53 L91 6 ZM0 0 L0 129 L389 129 L389 97 L368 97 L368 82 L389 82 L389 0 Z"
      /></clipPath
      ><clipPath clipPathUnits="userSpaceOnUse" id="clipPath50"
      ><path d="M0 0 L305 0 L305 129 L0 129 L0 0 Z"
      /></clipPath
      ><clipPath clipPathUnits="userSpaceOnUse" id="clipPath51"
      ><path d="M214 42 L214 57 L86 57 L86 42 ZM0 0 L0 129 L305 129 L305 96 L77 96 L77 81 L305 81 L305 0 Z"
      /></clipPath
      ><clipPath clipPathUnits="userSpaceOnUse" id="clipPath52"
      ><path d="M0 0 L161 0 L161 149 L0 149 L0 0 Z"
      /></clipPath
      ><clipPath clipPathUnits="userSpaceOnUse" id="clipPath53"
      ><path d="M1 0 L1 36 L0 36 L0 149 L161 149 L161 80 L100 80 L100 65 L161 65 L161 0 Z"
      /></clipPath
      ><clipPath clipPathUnits="userSpaceOnUse" id="clipPath54"
      ><path d="M0 0 L529 0 L529 170 L0 170 L0 0 Z"
      /></clipPath
      ><clipPath clipPathUnits="userSpaceOnUse" id="clipPath55"
      ><path d="M234 25 L234 40 L106 40 L106 25 ZM420 64 L420 79 L97 79 L97 64 ZM0 0 L0 170 L529 170 L529 0 Z"
      /></clipPath
      ><clipPath clipPathUnits="userSpaceOnUse" id="clipPath56"
      ><path d="M229 42 L229 57 L150 57 L150 42 ZM0 0 L0 129 L359 129 L359 125 L389 125 L389 0 Z"
      /></clipPath
      ><clipPath clipPathUnits="userSpaceOnUse" id="clipPath57"
      ><path d="M0 0 L857 0 L857 129 L0 129 L0 0 Z"
      /></clipPath
      ><clipPath clipPathUnits="userSpaceOnUse" id="clipPath58"
      ><path d="M492 43 L492 58 L359 58 L359 43 ZM0 0 L0 129 L857 129 L857 0 Z"
      /></clipPath
      ><clipPath clipPathUnits="userSpaceOnUse" id="clipPath59"
      ><path d="M262 43 L262 58 L185 58 L185 43 ZM0 0 L0 129 L459 129 L459 0 Z"
      /></clipPath
      ><clipPath clipPathUnits="userSpaceOnUse" id="clipPath60"
      ><path d="M-77 -15 L154 -15 L154 30 L-77 30 L-77 -15 Z"
      /></clipPath
      ><clipPath clipPathUnits="userSpaceOnUse" id="clipPath61"
      ><path d="M-133 -15 L266 -15 L266 30 L-133 30 L-133 -15 Z"
      /></clipPath
      ><clipPath clipPathUnits="userSpaceOnUse" id="clipPath62"
      ><path d="M-79 -15 L158 -15 L158 30 L-79 30 L-79 -15 Z"
      /></clipPath
      ><clipPath clipPathUnits="userSpaceOnUse" id="clipPath63"
      ><path d="M-323 -15 L646 -15 L646 30 L-323 30 L-323 -15 Z"
      /></clipPath
      ><clipPath clipPathUnits="userSpaceOnUse" id="clipPath64"
      ><path d="M-114 -15 L228 -15 L228 30 L-114 30 L-114 -15 Z"
      /></clipPath
      ><clipPath clipPathUnits="userSpaceOnUse" id="clipPath65"
      ><path d="M-128 -15 L256 -15 L256 30 L-128 30 L-128 -15 Z"
      /></clipPath
      ><clipPath clipPathUnits="userSpaceOnUse" id="clipPath66"
      ><path d="M-178 -47 L356 -47 L356 94 L-178 94 L-178 -47 Z"
      /></clipPath
      ><clipPath clipPathUnits="userSpaceOnUse" id="clipPath67"
      ><path d="M-300 -30 L600 -30 L600 60 L-300 60 L-300 -30 Z"
      /></clipPath
    ></defs
    ><g fill="white" text-rendering="geometricPrecision" fill-opacity="1" stroke-opacity="1" stroke="white"
    ><rect x="0" width="1135" height="912" y="0" stroke="none"
    /></g
    ><g font-size="11px" transform="translate(273,2)" fill-opacity="1" fill="rgb(122,207,245)" text-rendering="geometricPrecision" image-rendering="optimizeQuality" font-family="sans-serif" stroke="rgb(122,207,245)" stroke-opacity="1"
    ><rect x="0" width="154" height="35" y="0" clip-path="url(#clipPath1)" stroke="none"
    /></g
    ><g stroke-linecap="butt" font-size="11px" transform="translate(273,2)" fill-opacity="1" fill="black" text-rendering="geometricPrecision" image-rendering="optimizeQuality" font-family="sans-serif" stroke-linejoin="round" stroke="black" stroke-opacity="1" stroke-miterlimit="0"
    ><rect fill="none" x="0" width="154" height="35" y="0" clip-path="url(#clipPath1)"
      /><line clip-path="url(#clipPath1)" fill="none" x1="77" x2="77" y1="35" y2="906" stroke-linejoin="bevel" stroke-dasharray="8,3"
    /></g
    ><g font-size="11px" transform="translate(3,83)" fill-opacity="1" fill="black" text-rendering="geometricPrecision" image-rendering="optimizeQuality" font-family="sans-serif" stroke="black" stroke-opacity="1"
    ><circle r="7" clip-path="url(#clipPath2)" cx="7" cy="9" stroke="none"
    /></g
    ><g font-size="11px" transform="translate(347,93)" fill-opacity="1" fill="rgb(122,207,245)" text-rendering="geometricPrecision" image-rendering="optimizeQuality" font-family="sans-serif" stroke="rgb(122,207,245)" stroke-opacity="1"
    ><rect x="0" width="8" height="780" y="0" clip-path="url(#clipPath3)" stroke="none"
    /></g
    ><g stroke-linecap="butt" font-size="11px" transform="translate(347,93)" fill-opacity="1" fill="black" text-rendering="geometricPrecision" image-rendering="optimizeQuality" font-family="sans-serif" stroke-linejoin="round" stroke="black" stroke-opacity="1" stroke-miterlimit="0"
    ><rect fill="none" x="0" width="8" height="780" y="0" clip-path="url(#clipPath3)"
    /></g
    ><g font-size="11px" transform="translate(463,2)" fill-opacity="1" fill="rgb(122,207,245)" text-rendering="geometricPrecision" image-rendering="optimizeQuality" font-family="sans-serif" stroke="rgb(122,207,245)" stroke-opacity="1"
    ><rect x="0" width="90" height="35" y="0" clip-path="url(#clipPath4)" stroke="none"
    /></g
    ><g stroke-linecap="butt" font-size="11px" transform="translate(463,2)" fill-opacity="1" fill="black" text-rendering="geometricPrecision" image-rendering="optimizeQuality" font-family="sans-serif" stroke-linejoin="round" stroke="black" stroke-opacity="1" stroke-miterlimit="0"
    ><rect fill="none" x="0" width="90" height="35" y="0" clip-path="url(#clipPath4)"
      /><line clip-path="url(#clipPath4)" fill="none" x1="45" x2="45" y1="35" y2="906" stroke-linejoin="bevel" stroke-dasharray="8,3"
    /></g
    ><g font-size="11px" transform="translate(505,197)" fill-opacity="1" fill="rgb(122,207,245)" text-rendering="geometricPrecision" image-rendering="optimizeQuality" font-family="sans-serif" stroke="rgb(122,207,245)" stroke-opacity="1"
    ><rect x="0" width="8" height="13" y="0" clip-path="url(#clipPath5)" stroke="none"
    /></g
    ><g stroke-linecap="butt" font-size="11px" transform="translate(505,197)" fill-opacity="1" fill="black" text-rendering="geometricPrecision" image-rendering="optimizeQuality" font-family="sans-serif" stroke-linejoin="round" stroke="black" stroke-opacity="1" stroke-miterlimit="0"
    ><rect fill="none" x="0" width="8" height="13" y="0" clip-path="url(#clipPath5)"
    /></g
    ><g font-size="11px" transform="translate(856,2)" fill-opacity="1" fill="rgb(122,207,245)" text-rendering="geometricPrecision" image-rendering="optimizeQuality" font-family="sans-serif" stroke="rgb(122,207,245)" stroke-opacity="1"
    ><rect x="0" width="69" height="35" y="0" clip-path="url(#clipPath6)" stroke="none"
    /></g
    ><g stroke-linecap="butt" font-size="11px" transform="translate(856,2)" fill-opacity="1" fill="black" text-rendering="geometricPrecision" image-rendering="optimizeQuality" font-family="sans-serif" stroke-linejoin="round" stroke="black" stroke-opacity="1" stroke-miterlimit="0"
    ><rect fill="none" x="0" width="69" height="35" y="0" clip-path="url(#clipPath6)"
      /><line clip-path="url(#clipPath6)" fill="none" x1="34" x2="34" y1="35" y2="906" stroke-linejoin="bevel" stroke-dasharray="8,3"
    /></g
    ><g font-size="11px" transform="translate(563,2)" fill-opacity="1" fill="rgb(122,207,245)" text-rendering="geometricPrecision" image-rendering="optimizeQuality" font-family="sans-serif" stroke="rgb(122,207,245)" stroke-opacity="1"
    ><rect x="0" width="110" height="35" y="0" clip-path="url(#clipPath7)" stroke="none"
    /></g
    ><g stroke-linecap="butt" font-size="11px" transform="translate(563,2)" fill-opacity="1" fill="black" text-rendering="geometricPrecision" image-rendering="optimizeQuality" font-family="sans-serif" stroke-linejoin="round" stroke="black" stroke-opacity="1" stroke-miterlimit="0"
    ><rect fill="none" x="0" width="110" height="35" y="0" clip-path="url(#clipPath7)"
      /><line clip-path="url(#clipPath7)" fill="none" x1="55" x2="55" y1="35" y2="906" stroke-linejoin="bevel" stroke-dasharray="8,3"
    /></g
    ><g fill-opacity="1" text-rendering="geometricPrecision" stroke="black" stroke-linecap="butt" transform="translate(308,110)" stroke-miterlimit="0" stroke-opacity="1" fill="black" font-weight="bold" font-family="sans-serif" stroke-linejoin="round" font-size="11px" image-rendering="optimizeQuality"
    ><rect fill="none" x="0" width="731" height="722" y="0" clip-path="url(#clipPath9)"
    /></g
    ><g font-size="11px" transform="translate(308,110)" fill-opacity="1" fill="white" text-rendering="geometricPrecision" image-rendering="optimizeQuality" font-family="sans-serif" stroke="white" font-weight="bold" stroke-opacity="1"
    ><path d="M33 0 L33 9 L27 17 L0 17 L0 0 Z" stroke="none" clip-path="url(#clipPath9)"
    /></g
    ><g fill-opacity="1" text-rendering="geometricPrecision" stroke="black" stroke-linecap="butt" transform="translate(308,110)" stroke-miterlimit="0" stroke-opacity="1" fill="black" font-weight="bold" font-family="sans-serif" stroke-linejoin="round" font-size="11px" image-rendering="optimizeQuality"
    ><path fill="none" d="M33 0 L33 9 L27 17 L0 17 L0 0 Z" clip-path="url(#clipPath9)"
    /></g
    ><g font-size="11px" transform="translate(308,110)" fill-opacity="1" fill="black" text-rendering="geometricPrecision" image-rendering="optimizeQuality" font-family="sans-serif" stroke="black" font-weight="bold" stroke-opacity="1"
    ><text x="5" xml:space="preserve" y="12" clip-path="url(#clipPath10)" stroke="none"
      >loop</text
    ></g
    ><g font-size="11px" transform="translate(615,348)" fill-opacity="1" fill="rgb(122,207,245)" text-rendering="geometricPrecision" image-rendering="optimizeQuality" font-family="sans-serif" stroke="rgb(122,207,245)" stroke-opacity="1"
    ><rect x="0" width="8" height="263" y="0" clip-path="url(#clipPath11)" stroke="none"
    /></g
    ><g stroke-linecap="butt" font-size="11px" transform="translate(615,348)" fill-opacity="1" fill="black" text-rendering="geometricPrecision" image-rendering="optimizeQuality" font-family="sans-serif" stroke-linejoin="round" stroke="black" stroke-opacity="1" stroke-miterlimit="0"
    ><rect fill="none" x="0" width="8" height="263" y="0" clip-path="url(#clipPath11)"
    /></g
    ><g font-size="11px" transform="translate(751,2)" fill-opacity="1" fill="rgb(122,207,245)" text-rendering="geometricPrecision" image-rendering="optimizeQuality" font-family="sans-serif" stroke="rgb(122,207,245)" stroke-opacity="1"
    ><rect x="0" width="99" height="35" y="0" clip-path="url(#clipPath12)" stroke="none"
    /></g
    ><g stroke-linecap="butt" font-size="11px" transform="translate(751,2)" fill-opacity="1" fill="black" text-rendering="geometricPrecision" image-rendering="optimizeQuality" font-family="sans-serif" stroke-linejoin="round" stroke="black" stroke-opacity="1" stroke-miterlimit="0"
    ><rect fill="none" x="0" width="99" height="35" y="0" clip-path="url(#clipPath12)"
      /><line clip-path="url(#clipPath12)" fill="none" x1="49" x2="49" y1="35" y2="906" stroke-linejoin="bevel" stroke-dasharray="8,3"
    /></g
    ><g font-size="11px" transform="translate(1045,2)" fill-opacity="1" fill="rgb(122,207,245)" text-rendering="geometricPrecision" image-rendering="optimizeQuality" font-family="sans-serif" stroke="rgb(122,207,245)" stroke-opacity="1"
    ><rect x="0" width="85" height="35" y="0" clip-path="url(#clipPath13)" stroke="none"
    /></g
    ><g stroke-linecap="butt" font-size="11px" transform="translate(1045,2)" fill-opacity="1" fill="black" text-rendering="geometricPrecision" image-rendering="optimizeQuality" font-family="sans-serif" stroke-linejoin="round" stroke="black" stroke-opacity="1" stroke-miterlimit="0"
    ><rect fill="none" x="0" width="85" height="35" y="0" clip-path="url(#clipPath13)"
      /><line clip-path="url(#clipPath13)" fill="none" x1="42" x2="42" y1="35" y2="906" stroke-linejoin="bevel" stroke-dasharray="8,3"
    /></g
    ><g font-size="11px" transform="translate(931,2)" fill-opacity="1" fill="rgb(122,207,245)" text-rendering="geometricPrecision" image-rendering="optimizeQuality" font-family="sans-serif" stroke="rgb(122,207,245)" stroke-opacity="1"
    ><rect x="0" width="107" height="35" y="0" clip-path="url(#clipPath14)" stroke="none"
    /></g
    ><g stroke-linecap="butt" font-size="11px" transform="translate(931,2)" fill-opacity="1" fill="black" text-rendering="geometricPrecision" image-rendering="optimizeQuality" font-family="sans-serif" stroke-linejoin="round" stroke="black" stroke-opacity="1" stroke-miterlimit="0"
    ><rect fill="none" x="0" width="107" height="35" y="0" clip-path="url(#clipPath14)"
      /><line clip-path="url(#clipPath14)" fill="none" x1="53" x2="53" y1="35" y2="906" stroke-linejoin="bevel" stroke-dasharray="8,3"
    /></g
    ><g font-size="11px" transform="translate(336,132)" fill-opacity="1" fill="white" text-rendering="geometricPrecision" image-rendering="optimizeQuality" font-family="sans-serif" stroke="white" stroke-opacity="1"
    ><rect x="9" width="89" height="17" y="-1" clip-path="url(#clipPath16)" stroke="none"
      /><text fill="black" x="10" xml:space="preserve" y="12" clip-path="url(#clipPath16)" stroke="none"
      >[Para cada tarefa]</text
    ></g
    ><g fill-opacity="1" text-rendering="geometricPrecision" stroke="black" stroke-linecap="butt" transform="translate(323,242)" stroke-miterlimit="0" stroke-opacity="1" fill="black" font-weight="bold" font-family="sans-serif" stroke-linejoin="round" font-size="11px" image-rendering="optimizeQuality"
    ><rect fill="none" x="0" width="693" height="609" y="0" clip-path="url(#clipPath19)"
    /></g
    ><g font-size="11px" transform="translate(323,242)" fill-opacity="1" fill="white" text-rendering="geometricPrecision" image-rendering="optimizeQuality" font-family="sans-serif" stroke="white" font-weight="bold" stroke-opacity="1"
    ><path d="M22 0 L22 9 L16 17 L0 17 L0 0 Z" stroke="none" clip-path="url(#clipPath19)"
    /></g
    ><g fill-opacity="1" text-rendering="geometricPrecision" stroke="black" stroke-linecap="butt" transform="translate(323,242)" stroke-miterlimit="0" stroke-opacity="1" fill="black" font-weight="bold" font-family="sans-serif" stroke-linejoin="round" font-size="11px" image-rendering="optimizeQuality"
    ><path fill="none" d="M22 0 L22 9 L16 17 L0 17 L0 0 Z" clip-path="url(#clipPath19)"
    /></g
    ><g font-size="11px" transform="translate(323,242)" fill-opacity="1" fill="black" text-rendering="geometricPrecision" image-rendering="optimizeQuality" font-family="sans-serif" stroke="black" font-weight="bold" stroke-opacity="1"
    ><text x="5" xml:space="preserve" y="12" clip-path="url(#clipPath20)" stroke="none"
      >alt</text
    ></g
    ><g font-size="11px" transform="translate(798,490)" fill-opacity="1" fill="rgb(122,207,245)" text-rendering="geometricPrecision" image-rendering="optimizeQuality" font-family="sans-serif" stroke="rgb(122,207,245)" stroke-opacity="1"
    ><rect x="0" width="8" height="15" y="0" clip-path="url(#clipPath21)" stroke="none"
    /></g
    ><g stroke-linecap="butt" font-size="11px" transform="translate(798,490)" fill-opacity="1" fill="black" text-rendering="geometricPrecision" image-rendering="optimizeQuality" font-family="sans-serif" stroke-linejoin="round" stroke="black" stroke-opacity="1" stroke-miterlimit="0"
    ><rect fill="none" x="0" width="8" height="15" y="0" clip-path="url(#clipPath21)"
    /></g
    ><g font-size="11px" transform="translate(981,528)" fill-opacity="1" fill="rgb(122,207,245)" text-rendering="geometricPrecision" image-rendering="optimizeQuality" font-family="sans-serif" stroke="rgb(122,207,245)" stroke-opacity="1"
    ><rect x="0" width="8" height="15" y="0" clip-path="url(#clipPath21)" stroke="none"
    /></g
    ><g stroke-linecap="butt" font-size="11px" transform="translate(981,528)" fill-opacity="1" fill="black" text-rendering="geometricPrecision" image-rendering="optimizeQuality" font-family="sans-serif" stroke-linejoin="round" stroke="black" stroke-opacity="1" stroke-miterlimit="0"
    ><rect fill="none" x="0" width="8" height="15" y="0" clip-path="url(#clipPath21)"
    /></g
    ><g fill-opacity="1" text-rendering="geometricPrecision" stroke="black" stroke-linecap="butt" transform="translate(323,259)" stroke-miterlimit="0" stroke-opacity="1" fill="black" stroke-dasharray="5,2" font-family="sans-serif" stroke-linejoin="bevel" font-size="11px" image-rendering="optimizeQuality"
    ><line y2="540" fill="none" x1="0" clip-path="url(#clipPath22)" x2="692" y1="540"
    /></g
    ><g font-size="11px" transform="translate(351,264)" fill-opacity="1" fill="white" text-rendering="geometricPrecision" image-rendering="optimizeQuality" font-family="sans-serif" stroke="white" stroke-opacity="1"
    ><rect x="9" width="215" height="17" y="-1" clip-path="url(#clipPath23)" stroke="none"
      /><text fill="black" x="10" xml:space="preserve" y="12" clip-path="url(#clipPath23)" stroke="none"
      >[email.equals(tarefa.getColaboradorEmail()]</text
    ></g
    ><g font-size="11px" transform="translate(620,437)" fill-opacity="1" fill="white" text-rendering="geometricPrecision" image-rendering="optimizeQuality" font-family="sans-serif" stroke="white" stroke-opacity="1"
    ><rect x="9" width="234" height="17" y="-1" clip-path="url(#clipPath26)" stroke="none"
      /><text fill="black" x="10" xml:space="preserve" y="12" clip-path="url(#clipPath26)" stroke="none"
      >[Para cada anuncio e enquando found == false]</text
    ></g
    ><g fill-opacity="1" text-rendering="geometricPrecision" stroke="black" stroke-linecap="butt" transform="translate(325,619)" stroke-miterlimit="0" stroke-opacity="1" fill="black" font-weight="bold" font-family="sans-serif" stroke-linejoin="round" font-size="11px" image-rendering="optimizeQuality"
    ><rect fill="none" x="0" width="206" height="151" y="0" clip-path="url(#clipPath29)"
    /></g
    ><g font-size="11px" transform="translate(325,619)" fill-opacity="1" fill="white" text-rendering="geometricPrecision" image-rendering="optimizeQuality" font-family="sans-serif" stroke="white" font-weight="bold" stroke-opacity="1"
    ><path d="M22 0 L22 9 L16 17 L0 17 L0 0 Z" stroke="none" clip-path="url(#clipPath29)"
    /></g
    ><g fill-opacity="1" text-rendering="geometricPrecision" stroke="black" stroke-linecap="butt" transform="translate(325,619)" stroke-miterlimit="0" stroke-opacity="1" fill="black" font-weight="bold" font-family="sans-serif" stroke-linejoin="round" font-size="11px" image-rendering="optimizeQuality"
    ><path fill="none" d="M22 0 L22 9 L16 17 L0 17 L0 0 Z" clip-path="url(#clipPath29)"
    /></g
    ><g font-size="11px" transform="translate(325,619)" fill-opacity="1" fill="black" text-rendering="geometricPrecision" image-rendering="optimizeQuality" font-family="sans-serif" stroke="black" font-weight="bold" stroke-opacity="1"
    ><text x="5" xml:space="preserve" y="12" clip-path="url(#clipPath20)" stroke="none"
      >alt</text
    ></g
    ><g font-size="11px" transform="translate(1083,683)" fill-opacity="1" fill="rgb(122,207,245)" text-rendering="geometricPrecision" image-rendering="optimizeQuality" font-family="sans-serif" stroke="rgb(122,207,245)" stroke-opacity="1"
    ><rect x="0" width="8" height="15" y="0" clip-path="url(#clipPath21)" stroke="none"
    /></g
    ><g stroke-linecap="butt" font-size="11px" transform="translate(1083,683)" fill-opacity="1" fill="black" text-rendering="geometricPrecision" image-rendering="optimizeQuality" font-family="sans-serif" stroke-linejoin="round" stroke="black" stroke-opacity="1" stroke-miterlimit="0"
    ><rect fill="none" x="0" width="8" height="15" y="0" clip-path="url(#clipPath21)"
    /></g
    ><g font-size="11px" transform="translate(2,852)" fill-opacity="1" fill="black" text-rendering="geometricPrecision" image-rendering="optimizeQuality" font-family="sans-serif" stroke="black" stroke-opacity="1"
    ><circle r="7" clip-path="url(#clipPath2)" cx="7" cy="9" stroke="none"
    /></g
    ><g fill-opacity="1" text-rendering="geometricPrecision" stroke="black" stroke-linecap="butt" transform="translate(592,415)" stroke-miterlimit="0" stroke-opacity="1" fill="black" font-weight="bold" font-family="sans-serif" stroke-linejoin="round" font-size="11px" image-rendering="optimizeQuality"
    ><rect fill="none" x="0" width="416" height="148" y="0" clip-path="url(#clipPath31)"
    /></g
    ><g font-size="11px" transform="translate(592,415)" fill-opacity="1" fill="white" text-rendering="geometricPrecision" image-rendering="optimizeQuality" font-family="sans-serif" stroke="white" font-weight="bold" stroke-opacity="1"
    ><path d="M33 0 L33 9 L27 17 L0 17 L0 0 Z" stroke="none" clip-path="url(#clipPath31)"
    /></g
    ><g fill-opacity="1" text-rendering="geometricPrecision" stroke="black" stroke-linecap="butt" transform="translate(592,415)" stroke-miterlimit="0" stroke-opacity="1" fill="black" font-weight="bold" font-family="sans-serif" stroke-linejoin="round" font-size="11px" image-rendering="optimizeQuality"
    ><path fill="none" d="M33 0 L33 9 L27 17 L0 17 L0 0 Z" clip-path="url(#clipPath31)"
    /></g
    ><g font-size="11px" transform="translate(592,415)" fill-opacity="1" fill="black" text-rendering="geometricPrecision" image-rendering="optimizeQuality" font-family="sans-serif" stroke="black" font-weight="bold" stroke-opacity="1"
    ><text x="5" xml:space="preserve" y="12" clip-path="url(#clipPath10)" stroke="none"
      >loop</text
    ></g
    ><g fill-opacity="1" text-rendering="geometricPrecision" stroke="black" stroke-linecap="butt" transform="translate(325,637)" stroke-miterlimit="0" stroke-opacity="1" fill="black" stroke-dasharray="5,2" font-family="sans-serif" stroke-linejoin="bevel" font-size="11px" image-rendering="optimizeQuality"
    ><line y2="82" fill="none" x1="0" clip-path="url(#clipPath34)" x2="205" y1="82"
    /></g
    ><g font-size="11px" transform="translate(353,642)" fill-opacity="1" fill="white" text-rendering="geometricPrecision" image-rendering="optimizeQuality" font-family="sans-serif" stroke="white" stroke-opacity="1"
    ><rect x="9" width="72" height="17" y="-1" clip-path="url(#clipPath35)" stroke="none"
      /><text fill="black" x="10" xml:space="preserve" y="12" clip-path="url(#clipPath35)" stroke="none"
      >[found==false]</text
    ></g
    ><g font-size="11px" transform="translate(273,2)" fill-opacity="1" fill="black" text-rendering="geometricPrecision" image-rendering="optimizeQuality" font-family="sans-serif" stroke="black" stroke-opacity="1"
    ><text x="5" xml:space="preserve" y="12" clip-path="url(#clipPath37)" stroke="none"
      >registoTarefa : RegistoTarefa</text
    ></g
    ><g font-size="11px" transform="translate(463,2)" fill-opacity="1" fill="black" text-rendering="geometricPrecision" image-rendering="optimizeQuality" font-family="sans-serif" stroke="black" stroke-opacity="1"
    ><text x="11" xml:space="preserve" y="12" clip-path="url(#clipPath38)" stroke="none"
      >: List&lt;Tarefa&gt;</text
    ></g
    ><g font-size="11px" transform="translate(856,2)" fill-opacity="1" fill="black" text-rendering="geometricPrecision" image-rendering="optimizeQuality" font-family="sans-serif" stroke="black" stroke-opacity="1"
    ><text x="17" xml:space="preserve" y="12" clip-path="url(#clipPath39)" stroke="none"
      >tarefa :</text
      ><text x="18" xml:space="preserve" y="27" clip-path="url(#clipPath39)" stroke="none"
      >Tarefa</text
    ></g
    ><g font-size="11px" transform="translate(563,2)" fill-opacity="1" fill="black" text-rendering="geometricPrecision" image-rendering="optimizeQuality" font-family="sans-serif" stroke="black" stroke-opacity="1"
    ><text x="13" xml:space="preserve" y="12" clip-path="url(#clipPath40)" stroke="none"
      >: RegistoAnuncio</text
    ></g
    ><g font-size="11px" transform="translate(751,2)" fill-opacity="1" fill="black" text-rendering="geometricPrecision" image-rendering="optimizeQuality" font-family="sans-serif" stroke="black" stroke-opacity="1"
    ><text x="11" xml:space="preserve" y="12" clip-path="url(#clipPath41)" stroke="none"
      >: List&lt;Anuncio&gt;</text
    ></g
    ><g font-size="11px" transform="translate(1045,2)" fill-opacity="1" fill="black" text-rendering="geometricPrecision" image-rendering="optimizeQuality" font-family="sans-serif" stroke="black" stroke-opacity="1"
    ><text x="23" xml:space="preserve" y="12" clip-path="url(#clipPath42)" stroke="none"
      >tarefas :</text
      ><text x="12" xml:space="preserve" y="27" clip-path="url(#clipPath42)" stroke="none"
      >List&lt;Tarefa&gt;</text
    ></g
    ><g font-size="11px" transform="translate(931,2)" fill-opacity="1" fill="black" text-rendering="geometricPrecision" image-rendering="optimizeQuality" font-family="sans-serif" stroke="black" stroke-opacity="1"
    ><text x="9" xml:space="preserve" y="12" clip-path="url(#clipPath43)" stroke="none"
      >anuncio : Anuncio</text
    ></g
    ><g stroke-linecap="butt" font-size="11px" transform="translate(-45,30)" fill-opacity="1" fill="black" text-rendering="geometricPrecision" image-rendering="optimizeQuality" font-family="sans-serif" stroke-linejoin="round" stroke="black" stroke-opacity="1"
    ><line y2="63" fill="none" x1="62" clip-path="url(#clipPath45)" x2="392" y1="63"
      /><polygon points=" 392 63 380 57 380 69" clip-path="url(#clipPath45)" stroke="none"
      /><polygon fill="none" points=" 392 63 380 57 380 69" clip-path="url(#clipPath45)"
    /></g
    ><g stroke-linecap="butt" font-size="11px" transform="translate(292,135)" fill-opacity="1" fill="black" text-rendering="geometricPrecision" image-rendering="optimizeQuality" font-family="sans-serif" stroke-linejoin="round" stroke="black" stroke-opacity="1"
    ><line y2="63" fill="none" x1="63" clip-path="url(#clipPath47)" x2="211" y1="63"
      /><polygon points=" 211 63 199 57 199 69" clip-path="url(#clipPath47)" stroke="none"
      /><polygon fill="none" points=" 211 63 199 57 199 69" clip-path="url(#clipPath47)"
    /></g
    ><g stroke-linecap="butt" font-size="11px" transform="translate(292,288)" fill-opacity="1" fill="black" text-rendering="geometricPrecision" image-rendering="optimizeQuality" font-family="sans-serif" stroke-linejoin="round" stroke="black" stroke-opacity="1"
    ><line y2="62" fill="none" x1="63" clip-path="url(#clipPath49)" x2="323" y1="62"
      /><polygon points=" 323 62 311 56 311 68" clip-path="url(#clipPath49)" stroke="none"
      /><polygon fill="none" points=" 323 62 311 56 311 68" clip-path="url(#clipPath49)"
    /></g
    ><g stroke-linecap="butt" font-size="11px" transform="translate(560,428)" fill-opacity="1" fill="black" text-rendering="geometricPrecision" image-rendering="optimizeQuality" font-family="sans-serif" stroke-linejoin="round" stroke="black" stroke-opacity="1"
    ><line y2="62" fill="none" x1="62" clip-path="url(#clipPath51)" x2="238" y1="62"
      /><polygon points=" 238 62 226 56 226 68" clip-path="url(#clipPath51)" stroke="none"
      /><polygon fill="none" points=" 238 62 226 56 226 68" clip-path="url(#clipPath51)"
    /></g
    ><g stroke-linecap="butt" font-size="11px" transform="translate(560,305)" fill-opacity="1" fill="black" text-rendering="geometricPrecision" image-rendering="optimizeQuality" font-family="sans-serif" stroke-linejoin="round" stroke="black" stroke-opacity="1"
    ><line y2="63" fill="none" x1="62" clip-path="url(#clipPath53)" x2="95" y1="63"
      /><line y2="83" fill="none" x1="95" clip-path="url(#clipPath53)" x2="95" y1="63"
      /><line y2="83" fill="none" x1="95" clip-path="url(#clipPath53)" x2="62" y1="83"
      /><polygon points=" 62 83 74 89 74 77" clip-path="url(#clipPath53)" stroke="none"
      /><polygon fill="none" points=" 62 83 74 89 74 77" clip-path="url(#clipPath53)"
    /></g
    ><g stroke-linecap="butt" font-size="11px" transform="translate(540,445)" fill-opacity="1" fill="black" text-rendering="geometricPrecision" image-rendering="optimizeQuality" font-family="sans-serif" stroke-linejoin="round" stroke="black" stroke-opacity="1"
    ><line y2="83" fill="none" x1="83" clip-path="url(#clipPath55)" x2="441" y1="83"
      /><polygon points=" 441 83 429 77 429 89" clip-path="url(#clipPath55)" stroke="none"
      /><polygon fill="none" points=" 441 83 429 77 429 89" clip-path="url(#clipPath55)"
    /></g
    ><g fill-opacity="1" text-rendering="geometricPrecision" stroke="black" stroke-linecap="butt" transform="translate(292,538)" stroke-miterlimit="0" stroke-opacity="1" fill="black" stroke-dasharray="8,3" font-family="sans-serif" stroke-linejoin="round" font-size="11px" image-rendering="optimizeQuality"
    ><line y2="62" fill="none" x1="323" clip-path="url(#clipPath56)" x2="63" y1="62"
      /><line clip-path="url(#clipPath56)" fill="none" x1="63" x2="75" y1="62" y2="68" stroke-dasharray="none" stroke-miterlimit="10"
      /><line clip-path="url(#clipPath56)" fill="none" x1="63" x2="75" y1="62" y2="56" stroke-dasharray="none" stroke-miterlimit="10"
    /></g
    ><g stroke-linecap="butt" font-size="11px" transform="translate(292,620)" fill-opacity="1" fill="black" text-rendering="geometricPrecision" image-rendering="optimizeQuality" font-family="sans-serif" stroke-linejoin="round" stroke="black" stroke-opacity="1"
    ><line y2="63" fill="none" x1="63" clip-path="url(#clipPath58)" x2="791" y1="63"
      /><polygon points=" 791 63 779 57 779 69" clip-path="url(#clipPath58)" stroke="none"
      /><polygon fill="none" points=" 791 63 779 57 779 69" clip-path="url(#clipPath58)"
    /></g
    ><g stroke-linecap="butt" font-size="11px" transform="translate(-45,799)" fill-opacity="1" fill="black" text-rendering="geometricPrecision" image-rendering="optimizeQuality" font-family="sans-serif" stroke-linejoin="round" stroke="black" stroke-opacity="1"
    ><line y2="63" fill="none" x1="392" clip-path="url(#clipPath59)" x2="62" y1="63"
      /><polygon points=" 62 63 74 69 74 57" clip-path="url(#clipPath59)" stroke="none"
      /><polygon fill="none" points=" 62 63 74 69 74 57" clip-path="url(#clipPath59)"
    /></g
    ><g font-size="11px" transform="translate(140,842)" fill-opacity="1" fill="white" text-rendering="geometricPrecision" image-rendering="optimizeQuality" font-family="sans-serif" stroke="white" stroke-opacity="1"
    ><rect x="0" width="77" height="15" y="0" clip-path="url(#clipPath60)" stroke="none"
      /><text fill="black" x="10" xml:space="preserve" y="12" clip-path="url(#clipPath60)" stroke="none"
      >1.4: tarefas</text
    ></g
    ><g font-size="11px" transform="translate(651,663)" fill-opacity="1" fill="white" text-rendering="geometricPrecision" image-rendering="optimizeQuality" font-family="sans-serif" stroke="white" stroke-opacity="1"
    ><rect x="0" width="133" height="15" y="0" clip-path="url(#clipPath61)" stroke="none"
      /><text fill="black" x="10" xml:space="preserve" y="12" clip-path="url(#clipPath61)" stroke="none"
      >1.3: tarefas.add(tarefa)</text
    ></g
    ><g font-size="11px" transform="translate(442,580)" fill-opacity="1" fill="white" text-rendering="geometricPrecision" image-rendering="optimizeQuality" font-family="sans-serif" stroke="white" stroke-opacity="1"
    ><rect x="0" width="79" height="15" y="0" clip-path="url(#clipPath62)" stroke="none"
      /><text fill="black" x="9" xml:space="preserve" y="12" clip-path="url(#clipPath62)" stroke="none"
      >1.2.4: found</text
    ></g
    ><g font-size="11px" transform="translate(637,509)" fill-opacity="1" fill="white" text-rendering="geometricPrecision" image-rendering="optimizeQuality" font-family="sans-serif" stroke="white" stroke-opacity="1"
    ><rect x="0" width="323" height="15" y="0" clip-path="url(#clipPath63)" stroke="none"
      /><text fill="black" x="10" xml:space="preserve" y="12" clip-path="url(#clipPath63)" stroke="none"
      >1.2.3: found = anuncio.getCodigoTarefa.equals(codigoTarefa)</text
    ></g
    ><g font-size="11px" transform="translate(660,370)" fill-opacity="1" fill="white" text-rendering="geometricPrecision" image-rendering="optimizeQuality" font-family="sans-serif" stroke="white" stroke-opacity="1"
    ><rect x="0" width="114" height="15" y="0" clip-path="url(#clipPath64)" stroke="none"
      /><text fill="black" x="10" xml:space="preserve" y="12" clip-path="url(#clipPath64)" stroke="none"
      >1.2.1: found = false</text
    ></g
    ><g font-size="11px" transform="translate(646,470)" fill-opacity="1" fill="white" text-rendering="geometricPrecision" image-rendering="optimizeQuality" font-family="sans-serif" stroke="white" stroke-opacity="1"
    ><rect x="0" width="128" height="15" y="0" clip-path="url(#clipPath65)" stroke="none"
      /><text fill="black" x="10" xml:space="preserve" y="12" clip-path="url(#clipPath65)" stroke="none"
      >1.2.2: anuncio = get(i)</text
    ></g
    ><g font-size="11px" transform="translate(383,294)" fill-opacity="1" fill="white" text-rendering="geometricPrecision" image-rendering="optimizeQuality" font-family="sans-serif" stroke="white" stroke-opacity="1"
    ><rect x="0" width="178" height="47" y="0" clip-path="url(#clipPath66)" stroke="none"
      /><text fill="black" x="79" xml:space="preserve" y="13" clip-path="url(#clipPath66)" stroke="none"
      >1.2:</text
      ><text fill="black" x="5" xml:space="preserve" y="28" clip-path="url(#clipPath66)" stroke="none"
      >tensAnuncioComCodigoTarefa(tar</text
      ><text fill="black" x="24" xml:space="preserve" y="43" clip-path="url(#clipPath66)" stroke="none"
      >efa.getCodigo()) : boolean</text
    ></g
    ><g font-size="11px" transform="translate(370,175)" fill-opacity="1" fill="white" text-rendering="geometricPrecision" image-rendering="optimizeQuality" font-family="sans-serif" stroke="white" stroke-opacity="1"
    ><rect x="0" width="108" height="15" y="0" clip-path="url(#clipPath43)" stroke="none"
      /><text fill="black" x="9" xml:space="preserve" y="12" clip-path="url(#clipPath43)" stroke="none"
      >1.1: tarefa = get(i)</text
    ></g
    ><g font-size="11px" transform="translate(32,59)" fill-opacity="1" fill="white" text-rendering="geometricPrecision" image-rendering="optimizeQuality" font-family="sans-serif" stroke="white" stroke-opacity="1"
    ><rect x="0" width="300" height="30" y="0" clip-path="url(#clipPath67)" stroke="none"
      /><text fill="black" x="22" xml:space="preserve" y="12" clip-path="url(#clipPath67)" stroke="none"
      >1: getTarefasNaoPublicadasByEmail(email : string =</text
      ><text fill="black" x="79" xml:space="preserve" y="27" clip-path="url(#clipPath67)" stroke="none"
      >email) : List&lt;Tarefa&gt;: tarefas</text
    ></g
    ><g font-size="8px" fill-opacity="1" fill="rgb(120,120,120)" text-rendering="geometricPrecision" image-rendering="optimizeQuality" stroke="rgb(120,120,120)" stroke-opacity="1"
    ><text x="0" xml:space="preserve" y="10" stroke="none"
      >Visual Paradigm Standard(Joel Ribeiro(Instituto Superior de Engenharia do Porto))</text
    ></g
  ></g
></svg
>
