<?xml version="1.0" encoding="UTF-8"?>
<!DOCTYPE svg PUBLIC '-//W3C//DTD SVG 1.0//EN'
          'http://www.w3.org/TR/2001/REC-SVG-20010904/DTD/svg10.dtd'>
<svg fill-opacity="0" xmlns:xlink="http://www.w3.org/1999/xlink" color-rendering="auto" color-interpolation="auto" text-rendering="auto" stroke="rgb(0,0,0)" stroke-linecap="square" width="987" stroke-miterlimit="10" shape-rendering="auto" stroke-opacity="0" fill="rgb(0,0,0)" stroke-dasharray="none" font-weight="normal" stroke-width="1" height="393" xmlns="http://www.w3.org/2000/svg" font-family="'Dialog'" font-style="normal" stroke-linejoin="miter" font-size="12px" stroke-dashoffset="0" image-rendering="auto"
><!--Generated by the Batik Graphics2D SVG Generator--><defs id="genericDefs"
  /><g
  ><defs id="defs1"
    ><clipPath clipPathUnits="userSpaceOnUse" id="clipPath1"
      ><path d="M-7 -7 L98 -7 L98 398 L-7 398 L-7 -7 Z"
      /></clipPath
      ><clipPath clipPathUnits="userSpaceOnUse" id="clipPath2"
      ><path d="M-7 -7 L151 -7 L151 398 L-7 398 L-7 -7 Z"
      /></clipPath
      ><clipPath clipPathUnits="userSpaceOnUse" id="clipPath3"
      ><path d="M-7 -7 L19 -7 L19 25 L-7 25 L-7 -7 Z"
      /></clipPath
      ><clipPath clipPathUnits="userSpaceOnUse" id="clipPath4"
      ><path d="M-7 -7 L136 -7 L136 398 L-7 398 L-7 -7 Z"
      /></clipPath
      ><clipPath clipPathUnits="userSpaceOnUse" id="clipPath5"
      ><path d="M-7 -7 L19 -7 L19 83 L-7 83 L-7 -7 Z"
      /></clipPath
      ><clipPath clipPathUnits="userSpaceOnUse" id="clipPath6"
      ><path d="M-7 -7 L19 -7 L19 295 L-7 295 L-7 -7 Z"
      /></clipPath
      ><clipPath clipPathUnits="userSpaceOnUse" id="clipPath7"
      ><path d="M-7 -7 L195 -7 L195 398 L-7 398 L-7 -7 Z"
      /></clipPath
      ><clipPath clipPathUnits="userSpaceOnUse" id="clipPath8"
      ><path d="M-7 -7 L94 -7 L94 398 L-7 398 L-7 -7 Z"
      /></clipPath
      ><clipPath clipPathUnits="userSpaceOnUse" id="clipPath9"
      ><path d="M-7 -7 L19 -7 L19 23 L-7 23 L-7 -7 Z"
      /></clipPath
      ><clipPath clipPathUnits="userSpaceOnUse" id="clipPath10"
      ><path d="M-87 -15 L174 -15 L174 30 L-87 30 L-87 -15 Z"
      /></clipPath
      ><clipPath clipPathUnits="userSpaceOnUse" id="clipPath11"
      ><path d="M-140 -15 L280 -15 L280 30 L-140 30 L-140 -15 Z"
      /></clipPath
      ><clipPath clipPathUnits="userSpaceOnUse" id="clipPath12"
      ><path d="M-125 -15 L250 -15 L250 30 L-125 30 L-125 -15 Z"
      /></clipPath
      ><clipPath clipPathUnits="userSpaceOnUse" id="clipPath13"
      ><path d="M-184 -15 L368 -15 L368 30 L-184 30 L-184 -15 Z"
      /></clipPath
      ><clipPath clipPathUnits="userSpaceOnUse" id="clipPath14"
      ><path d="M-83 -15 L166 -15 L166 30 L-83 30 L-83 -15 Z"
      /></clipPath
      ><clipPath clipPathUnits="userSpaceOnUse" id="clipPath15"
      ><path d="M0 0 L955 0 L955 115 L0 115 L0 0 Z"
      /></clipPath
      ><clipPath clipPathUnits="userSpaceOnUse" id="clipPath16"
      ><path d="M514 30 L514 50 L55 50 L55 30 ZM0 0 L0 115 L955 115 L955 0 L234 0 L234 12 L60 12 L60 0 Z"
      /></clipPath
      ><clipPath clipPathUnits="userSpaceOnUse" id="clipPath17"
      ><path d="M0 0 L432 0 L432 115 L0 115 L0 0 Z"
      /></clipPath
      ><clipPath clipPathUnits="userSpaceOnUse" id="clipPath18"
      ><path d="M180 29 L180 45 L115 45 L115 29 ZM234 72 L234 89 L71 89 L71 72 ZM0 0 L0 115 L432 115 L432 0 L186 0 L186 8 L120 8 L120 0 Z"
      /></clipPath
      ><clipPath clipPathUnits="userSpaceOnUse" id="clipPath19"
      ><path d="M0 0 L146 0 L146 135 L0 135 L0 0 Z"
      /></clipPath
      ><clipPath clipPathUnits="userSpaceOnUse" id="clipPath20"
      ><path d="M0 0 L0 135 L146 135 L146 122 L120 122 L120 106 L146 106 L146 81 L115 81 L115 47 L146 47 L146 0 Z"
      /></clipPath
      ><clipPath clipPathUnits="userSpaceOnUse" id="clipPath21"
      ><path d="M186 34 L186 50 L120 50 L120 34 ZM180 71 L180 87 L115 87 L115 71 ZM0 0 L0 115 L71 115 L71 114 L234 114 L234 115 L432 115 L432 0 L298 0 L298 9 L115 9 L115 0 Z"
      /></clipPath
      ><clipPath clipPathUnits="userSpaceOnUse" id="clipPath22"
      ><path d="M0 0 L567 0 L567 115 L0 115 L0 0 Z"
      /></clipPath
      ><clipPath clipPathUnits="userSpaceOnUse" id="clipPath23"
      ><path d="M234 31 L234 48 L71 48 L71 31 ZM374 75 L374 91 L69 91 L69 75 ZM0 0 L0 115 L567 115 L567 0 L180 0 L180 4 L115 4 L115 0 Z"
      /></clipPath
      ><clipPath clipPathUnits="userSpaceOnUse" id="clipPath24"
      ><path d="M0 0 L752 0 L752 115 L0 115 L0 0 Z"
      /></clipPath
      ><clipPath clipPathUnits="userSpaceOnUse" id="clipPath25"
      ><path d="M374 31 L374 47 L69 47 L69 31 ZM234 72 L234 88 L60 88 L60 72 ZM0 0 L0 115 L55 115 L55 106 L514 106 L514 115 L752 115 L752 0 L234 0 L234 4 L71 4 L71 0 Z"
      /></clipPath
      ><clipPath clipPathUnits="userSpaceOnUse" id="clipPath26"
      ><path d="M234 35 L234 51 L60 51 L60 35 ZM514 69 L514 89 L55 89 L55 69 ZM0 0 L0 115 L567 115 L567 0 L374 0 L374 10 L69 10 L69 0 Z"
      /></clipPath
      ><clipPath clipPathUnits="userSpaceOnUse" id="clipPath27"
      ><path d="M-174 -16 L348 -16 L348 32 L-174 32 L-174 -16 Z"
      /></clipPath
      ><clipPath clipPathUnits="userSpaceOnUse" id="clipPath28"
      ><path d="M-305 -16 L610 -16 L610 32 L-305 32 L-305 -16 Z"
      /></clipPath
      ><clipPath clipPathUnits="userSpaceOnUse" id="clipPath29"
      ><path d="M-163 -17 L326 -17 L326 34 L-163 34 L-163 -17 Z"
      /></clipPath
      ><clipPath clipPathUnits="userSpaceOnUse" id="clipPath30"
      ><path d="M-66 -16 L132 -16 L132 32 L-66 32 L-66 -16 Z"
      /></clipPath
      ><clipPath clipPathUnits="userSpaceOnUse" id="clipPath31"
      ><path d="M-183 -34 L366 -34 L366 68 L-183 68 L-183 -34 Z"
      /></clipPath
      ><clipPath clipPathUnits="userSpaceOnUse" id="clipPath32"
      ><path d="M-65 -16 L130 -16 L130 32 L-65 32 L-65 -16 Z"
      /></clipPath
      ><clipPath clipPathUnits="userSpaceOnUse" id="clipPath33"
      ><path d="M-459 -20 L918 -20 L918 40 L-459 40 L-459 -20 Z"
      /></clipPath
    ></defs
    ><g fill="white" text-rendering="geometricPrecision" fill-opacity="1" stroke-opacity="1" stroke="white"
    ><rect x="0" width="987" height="393" y="0" stroke="none"
    /></g
    ><g font-size="11px" transform="translate(347.5556,2)" fill-opacity="1" fill="rgb(122,207,245)" text-rendering="geometricPrecision" image-rendering="optimizeQuality" font-family="sans-serif" stroke="rgb(122,207,245)" stroke-opacity="1"
    ><rect x="0" width="86" height="35" y="0" clip-path="url(#clipPath1)" stroke="none"
    /></g
    ><g stroke-linecap="butt" font-size="11px" transform="translate(347.5556,2)" fill-opacity="1" fill="black" text-rendering="geometricPrecision" image-rendering="optimizeQuality" font-family="sans-serif" stroke-linejoin="round" stroke="black" stroke-opacity="1" stroke-miterlimit="0"
    ><rect fill="none" x="0" width="86" height="35" y="0" clip-path="url(#clipPath1)"
      /><line clip-path="url(#clipPath1)" fill="none" x1="43" x2="43" y1="35" y2="387" stroke-linejoin="bevel" stroke-dasharray="8,3"
    /></g
    ><g font-size="11px" transform="translate(843.5556,2)" fill-opacity="1" fill="rgb(122,207,245)" text-rendering="geometricPrecision" image-rendering="optimizeQuality" font-family="sans-serif" stroke="rgb(122,207,245)" stroke-opacity="1"
    ><rect x="0" width="139" height="35" y="0" clip-path="url(#clipPath2)" stroke="none"
    /></g
    ><g stroke-linecap="butt" font-size="11px" transform="translate(843.5556,2)" fill-opacity="1" fill="black" text-rendering="geometricPrecision" image-rendering="optimizeQuality" font-family="sans-serif" stroke-linejoin="round" stroke="black" stroke-opacity="1" stroke-miterlimit="0"
    ><rect fill="none" x="0" width="139" height="35" y="0" clip-path="url(#clipPath2)"
      /><line clip-path="url(#clipPath2)" fill="none" x1="69" x2="69" y1="35" y2="387" stroke-linejoin="bevel" stroke-dasharray="8,3"
    /></g
    ><g font-size="11px" transform="translate(909.5556,355)" fill-opacity="1" fill="rgb(122,207,245)" text-rendering="geometricPrecision" image-rendering="optimizeQuality" font-family="sans-serif" stroke="rgb(122,207,245)" stroke-opacity="1"
    ><rect x="0" width="8" height="14" y="0" clip-path="url(#clipPath3)" stroke="none"
    /></g
    ><g stroke-linecap="butt" font-size="11px" transform="translate(909.5556,355)" fill-opacity="1" fill="black" text-rendering="geometricPrecision" image-rendering="optimizeQuality" font-family="sans-serif" stroke-linejoin="round" stroke="black" stroke-opacity="1" stroke-miterlimit="0"
    ><rect fill="none" x="0" width="8" height="14" y="0" clip-path="url(#clipPath3)"
    /></g
    ><g font-size="11px" transform="translate(2.5556,2)" fill-opacity="1" fill="rgb(122,207,245)" text-rendering="geometricPrecision" image-rendering="optimizeQuality" font-family="sans-serif" stroke="rgb(122,207,245)" stroke-opacity="1"
    ><rect x="0" width="124" height="35" y="0" clip-path="url(#clipPath4)" stroke="none"
    /></g
    ><g stroke-linecap="butt" font-size="11px" transform="translate(2.5556,2)" fill-opacity="1" fill="black" text-rendering="geometricPrecision" image-rendering="optimizeQuality" font-family="sans-serif" stroke-linejoin="round" stroke="black" stroke-opacity="1" stroke-miterlimit="0"
    ><rect fill="none" x="0" width="124" height="35" y="0" clip-path="url(#clipPath4)"
      /><line clip-path="url(#clipPath4)" fill="none" x1="62" x2="62" y1="35" y2="387" stroke-linejoin="bevel" stroke-dasharray="8,3"
    /></g
    ><g font-size="11px" transform="translate(387.5556,139)" fill-opacity="1" fill="rgb(122,207,245)" text-rendering="geometricPrecision" image-rendering="optimizeQuality" font-family="sans-serif" stroke="rgb(122,207,245)" stroke-opacity="1"
    ><rect x="0" width="8" height="72" y="0" clip-path="url(#clipPath5)" stroke="none"
    /></g
    ><g stroke-linecap="butt" font-size="11px" transform="translate(387.5556,139)" fill-opacity="1" fill="black" text-rendering="geometricPrecision" image-rendering="optimizeQuality" font-family="sans-serif" stroke-linejoin="round" stroke="black" stroke-opacity="1" stroke-miterlimit="0"
    ><rect fill="none" x="0" width="8" height="72" y="0" clip-path="url(#clipPath5)"
    /></g
    ><g font-size="11px" transform="translate(61.5556,78)" fill-opacity="1" fill="rgb(122,207,245)" text-rendering="geometricPrecision" image-rendering="optimizeQuality" font-family="sans-serif" stroke="rgb(122,207,245)" stroke-opacity="1"
    ><rect x="0" width="8" height="284" y="0" clip-path="url(#clipPath6)" stroke="none"
    /></g
    ><g stroke-linecap="butt" font-size="11px" transform="translate(61.5556,78)" fill-opacity="1" fill="black" text-rendering="geometricPrecision" image-rendering="optimizeQuality" font-family="sans-serif" stroke-linejoin="round" stroke="black" stroke-opacity="1" stroke-miterlimit="0"
    ><rect fill="none" x="0" width="8" height="284" y="0" clip-path="url(#clipPath6)"
    /></g
    ><g font-size="11px" transform="translate(618.5556,2)" fill-opacity="1" fill="rgb(122,207,245)" text-rendering="geometricPrecision" image-rendering="optimizeQuality" font-family="sans-serif" stroke="rgb(122,207,245)" stroke-opacity="1"
    ><rect x="0" width="183" height="35" y="0" clip-path="url(#clipPath7)" stroke="none"
    /></g
    ><g stroke-linecap="butt" font-size="11px" transform="translate(618.5556,2)" fill-opacity="1" fill="black" text-rendering="geometricPrecision" image-rendering="optimizeQuality" font-family="sans-serif" stroke-linejoin="round" stroke="black" stroke-opacity="1" stroke-miterlimit="0"
    ><rect fill="none" x="0" width="183" height="35" y="0" clip-path="url(#clipPath7)"
      /><line clip-path="url(#clipPath7)" fill="none" x1="91" x2="91" y1="35" y2="387" stroke-linejoin="bevel" stroke-dasharray="8,3"
    /></g
    ><g font-size="11px" transform="translate(484.5556,2)" fill-opacity="1" fill="rgb(122,207,245)" text-rendering="geometricPrecision" image-rendering="optimizeQuality" font-family="sans-serif" stroke="rgb(122,207,245)" stroke-opacity="1"
    ><rect x="0" width="82" height="35" y="0" clip-path="url(#clipPath8)" stroke="none"
    /></g
    ><g stroke-linecap="butt" font-size="11px" transform="translate(484.5556,2)" fill-opacity="1" fill="black" text-rendering="geometricPrecision" image-rendering="optimizeQuality" font-family="sans-serif" stroke-linejoin="round" stroke="black" stroke-opacity="1" stroke-miterlimit="0"
    ><rect fill="none" x="0" width="82" height="35" y="0" clip-path="url(#clipPath8)"
      /><line clip-path="url(#clipPath8)" fill="none" x1="41" x2="41" y1="35" y2="387" stroke-linejoin="bevel" stroke-dasharray="8,3"
    /></g
    ><g font-size="11px" transform="translate(521.5556,235)" fill-opacity="1" fill="rgb(122,207,245)" text-rendering="geometricPrecision" image-rendering="optimizeQuality" font-family="sans-serif" stroke="rgb(122,207,245)" stroke-opacity="1"
    ><rect x="0" width="8" height="12" y="0" clip-path="url(#clipPath9)" stroke="none"
    /></g
    ><g stroke-linecap="butt" font-size="11px" transform="translate(521.5556,235)" fill-opacity="1" fill="black" text-rendering="geometricPrecision" image-rendering="optimizeQuality" font-family="sans-serif" stroke-linejoin="round" stroke="black" stroke-opacity="1" stroke-miterlimit="0"
    ><rect fill="none" x="0" width="8" height="12" y="0" clip-path="url(#clipPath9)"
    /></g
    ><g font-size="11px" transform="translate(705.5556,277)" fill-opacity="1" fill="rgb(122,207,245)" text-rendering="geometricPrecision" image-rendering="optimizeQuality" font-family="sans-serif" stroke="rgb(122,207,245)" stroke-opacity="1"
    ><rect x="0" width="8" height="12" y="0" clip-path="url(#clipPath9)" stroke="none"
    /></g
    ><g stroke-linecap="butt" font-size="11px" transform="translate(705.5556,277)" fill-opacity="1" fill="black" text-rendering="geometricPrecision" image-rendering="optimizeQuality" font-family="sans-serif" stroke-linejoin="round" stroke="black" stroke-opacity="1" stroke-miterlimit="0"
    ><rect fill="none" x="0" width="8" height="12" y="0" clip-path="url(#clipPath9)"
    /></g
    ><g font-size="11px" transform="translate(521.5556,316)" fill-opacity="1" fill="rgb(122,207,245)" text-rendering="geometricPrecision" image-rendering="optimizeQuality" font-family="sans-serif" stroke="rgb(122,207,245)" stroke-opacity="1"
    ><rect x="0" width="8" height="12" y="0" clip-path="url(#clipPath9)" stroke="none"
    /></g
    ><g stroke-linecap="butt" font-size="11px" transform="translate(521.5556,316)" fill-opacity="1" fill="black" text-rendering="geometricPrecision" image-rendering="optimizeQuality" font-family="sans-serif" stroke-linejoin="round" stroke="black" stroke-opacity="1" stroke-miterlimit="0"
    ><rect fill="none" x="0" width="8" height="12" y="0" clip-path="url(#clipPath9)"
    /></g
    ><g font-size="11px" transform="translate(347.5556,2)" fill-opacity="1" fill="black" text-rendering="geometricPrecision" image-rendering="optimizeQuality" font-family="sans-serif" stroke="black" stroke-opacity="1"
    ><text x="9" xml:space="preserve" y="12" clip-path="url(#clipPath10)" stroke="none"
      >fl : Freelancer</text
    ></g
    ><g font-size="11px" transform="translate(843.5556,2)" fill-opacity="1" fill="black" text-rendering="geometricPrecision" image-rendering="optimizeQuality" font-family="sans-serif" stroke="black" stroke-opacity="1"
    ><text x="9" xml:space="preserve" y="12" clip-path="url(#clipPath11)" stroke="none"
      >aut : AutorizacaoFacade</text
    ></g
    ><g font-size="11px" transform="translate(2.5556,2)" fill-opacity="1" fill="black" text-rendering="geometricPrecision" image-rendering="optimizeQuality" font-family="sans-serif" stroke="black" stroke-opacity="1"
    ><text x="9" xml:space="preserve" y="12" clip-path="url(#clipPath12)" stroke="none"
      >rf : RegistoFreelancer</text
    ></g
    ><g font-size="11px" transform="translate(618.5556,2)" fill-opacity="1" fill="black" text-rendering="geometricPrecision" image-rendering="optimizeQuality" font-family="sans-serif" stroke="black" stroke-opacity="1"
    ><text x="9" xml:space="preserve" y="12" clip-path="url(#clipPath13)" stroke="none"
      >alg : AlgoritmoGeradorPasswords</text
    ></g
    ><g font-size="11px" transform="translate(484.5556,2)" fill-opacity="1" fill="black" text-rendering="geometricPrecision" image-rendering="optimizeQuality" font-family="sans-serif" stroke="black" stroke-opacity="1"
    ><text x="11" xml:space="preserve" y="12" clip-path="url(#clipPath14)" stroke="none"
      >: Plataforma</text
    ></g
    ><g stroke-linecap="butt" font-size="11px" transform="translate(13.5556,298)" fill-opacity="1" fill="black" text-rendering="geometricPrecision" image-rendering="optimizeQuality" font-family="sans-serif" stroke-linejoin="round" stroke="black" stroke-opacity="1"
    ><line y2="56" fill="none" x1="56" clip-path="url(#clipPath16)" x2="896" y1="56"
      /><polygon points=" 896 56 884 50 884 62" clip-path="url(#clipPath16)" stroke="none"
      /><polygon fill="none" points=" 896 56 884 50 884 62" clip-path="url(#clipPath16)"
    /></g
    ><g stroke-linecap="butt" font-size="11px" transform="translate(13.5556,137)" fill-opacity="1" fill="black" text-rendering="geometricPrecision" image-rendering="optimizeQuality" font-family="sans-serif" stroke-linejoin="round" stroke="black" stroke-opacity="1"
    ><line y2="56" fill="none" x1="56" clip-path="url(#clipPath18)" x2="374" y1="56"
      /><polygon points=" 374 56 362 50 362 62" clip-path="url(#clipPath18)" stroke="none"
      /><polygon fill="none" points=" 374 56 362 50 362 62" clip-path="url(#clipPath18)"
    /></g
    ><g stroke-linecap="butt" font-size="11px" transform="translate(13.5556,23)" fill-opacity="1" fill="black" text-rendering="geometricPrecision" image-rendering="optimizeQuality" font-family="sans-serif" stroke-linejoin="round" stroke="black" stroke-opacity="1"
    ><line y2="55" fill="none" x1="56" clip-path="url(#clipPath20)" x2="87" y1="55"
      /><line y2="75" fill="none" x1="87" clip-path="url(#clipPath20)" x2="87" y1="55"
      /><line y2="75" fill="none" x1="87" clip-path="url(#clipPath20)" x2="56" y1="75"
      /><polygon points=" 56 75 68 81 68 69" clip-path="url(#clipPath20)" stroke="none"
      /><polygon fill="none" points=" 56 75 68 81 68 69" clip-path="url(#clipPath20)"
    /></g
    ><g stroke-linecap="butt" font-size="11px" transform="translate(13.5556,95)" fill-opacity="1" fill="black" text-rendering="geometricPrecision" image-rendering="optimizeQuality" font-family="sans-serif" stroke-linejoin="round" stroke="black" stroke-opacity="1"
    ><line y2="55" fill="none" x1="56" clip-path="url(#clipPath21)" x2="374" y1="55"
      /><polygon points=" 374 55 362 49 362 61" clip-path="url(#clipPath21)" stroke="none"
      /><polygon fill="none" points=" 374 55 362 49 362 61" clip-path="url(#clipPath21)"
    /></g
    ><g stroke-linecap="butt" font-size="11px" transform="translate(13.5556,178)" fill-opacity="1" fill="black" text-rendering="geometricPrecision" image-rendering="optimizeQuality" font-family="sans-serif" stroke-linejoin="round" stroke="black" stroke-opacity="1"
    ><line y2="56" fill="none" x1="56" clip-path="url(#clipPath23)" x2="508" y1="56"
      /><polygon points=" 508 56 496 50 496 62" clip-path="url(#clipPath23)" stroke="none"
      /><polygon fill="none" points=" 508 56 496 50 496 62" clip-path="url(#clipPath23)"
    /></g
    ><g stroke-linecap="butt" font-size="11px" transform="translate(13.5556,222)" fill-opacity="1" fill="black" text-rendering="geometricPrecision" image-rendering="optimizeQuality" font-family="sans-serif" stroke-linejoin="round" stroke="black" stroke-opacity="1"
    ><line y2="55" fill="none" x1="56" clip-path="url(#clipPath25)" x2="693" y1="55"
      /><polygon points=" 693 55 681 49 681 61" clip-path="url(#clipPath25)" stroke="none"
      /><polygon fill="none" points=" 693 55 681 49 681 61" clip-path="url(#clipPath25)"
    /></g
    ><g stroke-linecap="butt" font-size="11px" transform="translate(13.5556,259)" fill-opacity="1" fill="black" text-rendering="geometricPrecision" image-rendering="optimizeQuality" font-family="sans-serif" stroke-linejoin="round" stroke="black" stroke-opacity="1"
    ><line y2="56" fill="none" x1="56" clip-path="url(#clipPath26)" x2="508" y1="56"
      /><polygon points=" 508 56 496 50 496 62" clip-path="url(#clipPath26)" stroke="none"
      /><polygon fill="none" points=" 508 56 496 50 496 62" clip-path="url(#clipPath26)"
    /></g
    ><g font-size="11px" transform="translate(73.5556,294)" fill-opacity="1" fill="white" text-rendering="geometricPrecision" image-rendering="optimizeQuality" font-family="sans-serif" stroke="white" stroke-opacity="1"
    ><rect x="0" width="174" height="16" y="0" clip-path="url(#clipPath27)" stroke="none"
      /><text fill="black" x="10" xml:space="preserve" y="12" clip-path="url(#clipPath27)" stroke="none"
      >6: getAutorizationFacade(): aut</text
    ></g
    ><g font-size="11px" transform="translate(82.5556,253)" fill-opacity="1" fill="white" text-rendering="geometricPrecision" image-rendering="optimizeQuality" font-family="sans-serif" stroke="white" stroke-opacity="1"
    ><rect x="0" width="305" height="16" y="0" clip-path="url(#clipPath28)" stroke="none"
      /><text fill="black" x="9" xml:space="preserve" y="12" clip-path="url(#clipPath28)" stroke="none"
      >5: geraPassword(nome : string, email : string) : string: pwd</text
    ></g
    ><g font-size="11px" transform="translate(84.5556,209)" fill-opacity="1" fill="white" text-rendering="geometricPrecision" image-rendering="optimizeQuality" font-family="sans-serif" stroke="white" stroke-opacity="1"
    ><rect x="0" width="163" height="17" y="0" clip-path="url(#clipPath29)" stroke="none"
      /><text fill="black" x="10" xml:space="preserve" y="13" clip-path="url(#clipPath29)" stroke="none"
      >4: getPassword() : string: alg</text
    ></g
    ><g font-size="11px" transform="translate(133.5556,129)" fill-opacity="1" fill="white" text-rendering="geometricPrecision" image-rendering="optimizeQuality" font-family="sans-serif" stroke="white" stroke-opacity="1"
    ><rect x="0" width="66" height="16" y="0" clip-path="url(#clipPath30)" stroke="none"
      /><text fill="black" x="10" xml:space="preserve" y="12" clip-path="url(#clipPath30)" stroke="none"
      >2: : nome</text
    ></g
    ><g font-size="11px" transform="translate(128.5556,70)" fill-opacity="1" fill="white" text-rendering="geometricPrecision" image-rendering="optimizeQuality" font-family="sans-serif" stroke="white" stroke-opacity="1"
    ><rect x="0" width="183" height="34" y="0" clip-path="url(#clipPath31)" stroke="none"
      /><text fill="black" x="9" xml:space="preserve" y="21" clip-path="url(#clipPath31)" stroke="none"
      >1: RegistaFreelancer(Freelancer)</text
    ></g
    ><g font-size="11px" transform="translate(128.5556,166)" fill-opacity="1" fill="white" text-rendering="geometricPrecision" image-rendering="optimizeQuality" font-family="sans-serif" stroke="white" stroke-opacity="1"
    ><rect x="0" width="65" height="16" y="0" clip-path="url(#clipPath32)" stroke="none"
      /><text fill="black" x="10" xml:space="preserve" y="12" clip-path="url(#clipPath32)" stroke="none"
      >3: : email</text
    ></g
    ><g font-size="11px" transform="translate(68.5556,328)" fill-opacity="1" fill="white" text-rendering="geometricPrecision" image-rendering="optimizeQuality" font-family="sans-serif" stroke="white" stroke-opacity="1"
    ><rect x="0" width="459" height="20" y="0" clip-path="url(#clipPath33)" stroke="none"
      /><text fill="black" x="21" xml:space="preserve" y="14" clip-path="url(#clipPath33)" stroke="none"
      >7: registaUtilizadorComPapel(nome, email, pwd, "FRELANCER") : boolean: bRegista</text
    ></g
    ><g font-size="8px" fill-opacity="1" fill="rgb(120,120,120)" text-rendering="geometricPrecision" image-rendering="optimizeQuality" stroke="rgb(120,120,120)" stroke-opacity="1"
    ><text x="0" xml:space="preserve" y="10" stroke="none"
      >Visual Paradigm Standard(Marcel(Instituto Superior de Engenharia do Porto))</text
    ></g
  ></g
></svg
>
