<?xml version="1.0" encoding="UTF-8"?>
<!DOCTYPE svg PUBLIC '-//W3C//DTD SVG 1.0//EN'
          'http://www.w3.org/TR/2001/REC-SVG-20010904/DTD/svg10.dtd'>
<svg fill-opacity="0" xmlns:xlink="http://www.w3.org/1999/xlink" color-rendering="auto" color-interpolation="auto" text-rendering="auto" stroke="rgb(0,0,0)" stroke-linecap="square" width="1418" stroke-miterlimit="10" shape-rendering="auto" stroke-opacity="0" fill="rgb(0,0,0)" stroke-dasharray="none" font-weight="normal" stroke-width="1" height="822" xmlns="http://www.w3.org/2000/svg" font-family="'Dialog'" font-style="normal" stroke-linejoin="miter" font-size="12px" stroke-dashoffset="0" image-rendering="auto"
><!--Generated by the Batik Graphics2D SVG Generator--><defs id="genericDefs"
  /><g
  ><defs id="defs1"
    ><clipPath clipPathUnits="userSpaceOnUse" id="clipPath1"
      ><path d="M-7 -7 L19 -7 L19 23 L-7 23 L-7 -7 Z"
      /></clipPath
      ><clipPath clipPathUnits="userSpaceOnUse" id="clipPath2"
      ><path d="M-7 -7 L71 -7 L71 789 L-7 789 L-7 -7 Z"
      /></clipPath
      ><clipPath clipPathUnits="userSpaceOnUse" id="clipPath3"
      ><path d="M-7 -7 L166 -7 L166 789 L-7 789 L-7 -7 Z"
      /></clipPath
      ><clipPath clipPathUnits="userSpaceOnUse" id="clipPath4"
      ><path d="M-7 -7 L203 -7 L203 789 L-7 789 L-7 -7 Z"
      /></clipPath
      ><clipPath clipPathUnits="userSpaceOnUse" id="clipPath5"
      ><path d="M-7 -7 L19 -7 L19 93 L-7 93 L-7 -7 Z"
      /></clipPath
      ><clipPath clipPathUnits="userSpaceOnUse" id="clipPath6"
      ><path d="M-7 -7 L19 -7 L19 244 L-7 244 L-7 -7 Z"
      /></clipPath
      ><clipPath clipPathUnits="userSpaceOnUse" id="clipPath7"
      ><path d="M-7 -7 L19 -7 L19 237 L-7 237 L-7 -7 Z"
      /></clipPath
      ><clipPath clipPathUnits="userSpaceOnUse" id="clipPath8"
      ><path d="M-7 -7 L19 -7 L19 269 L-7 269 L-7 -7 Z"
      /></clipPath
      ><clipPath clipPathUnits="userSpaceOnUse" id="clipPath9"
      ><path d="M-7 -7 L85 -7 L85 408 L-7 408 L-7 -7 Z"
      /></clipPath
      ><clipPath clipPathUnits="userSpaceOnUse" id="clipPath10"
      ><path d="M-7 -7 L135 -7 L135 789 L-7 789 L-7 -7 Z"
      /></clipPath
      ><clipPath clipPathUnits="userSpaceOnUse" id="clipPath11"
      ><path d="M-7 -7 L119 -7 L119 789 L-7 789 L-7 -7 Z"
      /></clipPath
      ><clipPath clipPathUnits="userSpaceOnUse" id="clipPath12"
      ><path d="M-7 -7 L94 -7 L94 789 L-7 789 L-7 -7 Z"
      /></clipPath
      ><clipPath clipPathUnits="userSpaceOnUse" id="clipPath13"
      ><path d="M-7 -7 L136 -7 L136 789 L-7 789 L-7 -7 Z"
      /></clipPath
      ><clipPath clipPathUnits="userSpaceOnUse" id="clipPath14"
      ><path d="M-7 -7 L19 -7 L19 101 L-7 101 L-7 -7 Z"
      /></clipPath
      ><clipPath clipPathUnits="userSpaceOnUse" id="clipPath15"
      ><path d="M-7 -7 L165 -7 L165 61 L-7 61 L-7 -7 Z"
      /></clipPath
      ><clipPath clipPathUnits="userSpaceOnUse" id="clipPath16"
      ><path d="M0 0 L0 18 L25 18 L25 0 Z"
      /></clipPath
      ><clipPath clipPathUnits="userSpaceOnUse" id="clipPath17"
      ><path d="M0 0 L0 50 L154 50 L154 0 Z"
      /></clipPath
      ><clipPath clipPathUnits="userSpaceOnUse" id="clipPath18"
      ><path d="M-7 -7 L218 -7 L218 61 L-7 61 L-7 -7 Z"
      /></clipPath
      ><clipPath clipPathUnits="userSpaceOnUse" id="clipPath19"
      ><path d="M0 0 L0 50 L207 50 L207 0 Z"
      /></clipPath
      ><clipPath clipPathUnits="userSpaceOnUse" id="clipPath20"
      ><path d="M-7 -7 L19 -7 L19 28 L-7 28 L-7 -7 Z"
      /></clipPath
      ><clipPath clipPathUnits="userSpaceOnUse" id="clipPath21"
      ><path d="M-7 -7 L19 -7 L19 26 L-7 26 L-7 -7 Z"
      /></clipPath
      ><clipPath clipPathUnits="userSpaceOnUse" id="clipPath22"
      ><path d="M-7 -7 L19 -7 L19 192 L-7 192 L-7 -7 Z"
      /></clipPath
      ><clipPath clipPathUnits="userSpaceOnUse" id="clipPath23"
      ><path d="M-7 -7 L210 -7 L210 61 L-7 61 L-7 -7 Z"
      /></clipPath
      ><clipPath clipPathUnits="userSpaceOnUse" id="clipPath24"
      ><path d="M0 0 L0 50 L199 50 L199 0 Z"
      /></clipPath
      ><clipPath clipPathUnits="userSpaceOnUse" id="clipPath25"
      ><path d="M-134 -15 L268 -15 L268 30 L-134 30 L-134 -15 Z"
      /></clipPath
      ><clipPath clipPathUnits="userSpaceOnUse" id="clipPath26"
      ><path d="M-155 -15 L310 -15 L310 30 L-155 30 L-155 -15 Z"
      /></clipPath
      ><clipPath clipPathUnits="userSpaceOnUse" id="clipPath27"
      ><path d="M-192 -15 L384 -15 L384 30 L-192 30 L-192 -15 Z"
      /></clipPath
      ><clipPath clipPathUnits="userSpaceOnUse" id="clipPath28"
      ><path d="M-74 -30 L148 -30 L148 60 L-74 60 L-74 -30 Z"
      /></clipPath
      ><clipPath clipPathUnits="userSpaceOnUse" id="clipPath29"
      ><path d="M-124 -15 L248 -15 L248 30 L-124 30 L-124 -15 Z"
      /></clipPath
      ><clipPath clipPathUnits="userSpaceOnUse" id="clipPath30"
      ><path d="M-108 -15 L216 -15 L216 30 L-108 30 L-108 -15 Z"
      /></clipPath
      ><clipPath clipPathUnits="userSpaceOnUse" id="clipPath31"
      ><path d="M-83 -15 L166 -15 L166 30 L-83 30 L-83 -15 Z"
      /></clipPath
      ><clipPath clipPathUnits="userSpaceOnUse" id="clipPath32"
      ><path d="M-125 -30 L250 -30 L250 60 L-125 60 L-125 -30 Z"
      /></clipPath
      ><clipPath clipPathUnits="userSpaceOnUse" id="clipPath33"
      ><path d="M0 0 L431 0 L431 146 L0 146 L0 0 Z"
      /></clipPath
      ><clipPath clipPathUnits="userSpaceOnUse" id="clipPath34"
      ><path d="M135 21 L135 36 L1 36 L1 21 ZM290 48 L290 63 L127 63 L127 48 ZM320 86 L320 131 L92 131 L92 86 ZM0 0 L0 146 L384 146 L384 128 L431 128 L431 1 L284 1 L284 0 Z"
      /></clipPath
      ><clipPath clipPathUnits="userSpaceOnUse" id="clipPath35"
      ><path d="M320 15 L320 60 L92 60 L92 15 ZM293 87 L293 102 L118 102 L118 87 ZM0 0 L0 146 L431 146 L431 112 L384 112 L384 57 L431 57 L431 0 Z"
      /></clipPath
      ><clipPath clipPathUnits="userSpaceOnUse" id="clipPath36"
      ><path d="M293 47 L293 62 L118 62 L118 47 ZM0 0 L0 146 L431 146 L431 72 L384 72 L384 17 L431 17 L431 0 L320 0 L320 20 L92 20 L92 0 Z"
      /></clipPath
      ><clipPath clipPathUnits="userSpaceOnUse" id="clipPath37"
      ><path d="M0 0 L415 0 L415 129 L0 129 L0 0 Z"
      /></clipPath
      ><clipPath clipPathUnits="userSpaceOnUse" id="clipPath38"
      ><path d="M318 34 L318 49 L84 49 L84 34 ZM281 74 L281 89 L111 89 L111 74 ZM0 0 L0 129 L360 129 L360 93 L415 93 L415 0 Z"
      /></clipPath
      ><clipPath clipPathUnits="userSpaceOnUse" id="clipPath39"
      ><path d="M327 1 L327 16 L93 16 L93 1 ZM290 41 L290 56 L120 56 L120 41 ZM0 0 L0 146 L431 146 L431 99 L369 99 L369 60 L431 60 L431 0 Z"
      /></clipPath
      ><clipPath clipPathUnits="userSpaceOnUse" id="clipPath40"
      ><path d="M286 44 L286 59 L124 59 L124 44 ZM0 0 L0 146 L431 146 L431 0 Z"
      /></clipPath
      ><clipPath clipPathUnits="userSpaceOnUse" id="clipPath41"
      ><path d="M0 0 L336 0 L336 129 L0 129 L0 0 Z"
      /></clipPath
      ><clipPath clipPathUnits="userSpaceOnUse" id="clipPath42"
      ><path d="M0 0 L0 129 L285 129 L285 97 L336 97 L336 67 L281 67 L281 23 L336 23 L336 0 L254 0 L254 52 L81 52 L81 0 Z"
      /></clipPath
      ><clipPath clipPathUnits="userSpaceOnUse" id="clipPath43"
      ><path d="M0 0 L482 0 L482 70 L0 70 L0 0 Z"
      /></clipPath
      ><clipPath clipPathUnits="userSpaceOnUse" id="clipPath44"
      ><path d="M430 4 L430 20 L40 20 L40 4 ZM339 38 L339 54 L46 54 L46 38 ZM0 0 L0 70 L482 70 L482 17 L439 17 L439 2 L482 2 L482 0 Z"
      /></clipPath
      ><clipPath clipPathUnits="userSpaceOnUse" id="clipPath45"
      ><path d="M0 0 L176 0 L176 70 L0 70 L0 0 Z"
      /></clipPath
      ><clipPath clipPathUnits="userSpaceOnUse" id="clipPath46"
      ><path d="M10 0 L10 12 L0 12 L0 70 L176 70 L176 49 L140 49 L140 19 L176 19 L176 9 L19 9 L19 0 Z"
      /></clipPath
      ><clipPath clipPathUnits="userSpaceOnUse" id="clipPath47"
      ><path d="M266 10 L266 49 L66 49 L66 10 ZM0 0 L0 129 L336 129 L336 83 L335 83 L335 63 L336 63 L336 0 Z"
      /></clipPath
      ><clipPath clipPathUnits="userSpaceOnUse" id="clipPath48"
      ><path d="M0 0 L542 0 L542 129 L0 129 L0 0 Z"
      /></clipPath
      ><clipPath clipPathUnits="userSpaceOnUse" id="clipPath49"
      ><path d="M416 32 L416 52 L120 52 L120 32 ZM51 0 L51 18 L0 18 L0 129 L522 129 L522 119 L542 119 L542 105 L518 105 L518 71 L542 71 L542 0 Z"
      /></clipPath
      ><clipPath clipPathUnits="userSpaceOnUse" id="clipPath50"
      ><path d="M0 0 L320 0 L320 129 L0 129 L0 0 Z"
      /></clipPath
      ><clipPath clipPathUnits="userSpaceOnUse" id="clipPath51"
      ><path d="M247 13 L247 57 L66 57 L66 13 ZM39 0 L39 42 L0 42 L0 129 L70 129 L70 87 L299 87 L299 129 L320 129 L320 0 Z"
      /></clipPath
      ><clipPath clipPathUnits="userSpaceOnUse" id="clipPath52"
      ><path d="M0 0 L484 0 L484 70 L0 70 L0 0 Z"
      /></clipPath
      ><clipPath clipPathUnits="userSpaceOnUse" id="clipPath53"
      ><path d="M339 5 L339 21 L46 21 L46 5 ZM0 0 L0 63 L21 63 L21 70 L484 70 L484 0 Z"
      /></clipPath
      ><clipPath clipPathUnits="userSpaceOnUse" id="clipPath54"
      ><path d="M0 0 L159 0 L159 149 L0 149 L0 0 Z"
      /></clipPath
      ><clipPath clipPathUnits="userSpaceOnUse" id="clipPath55"
      ><path d="M0 0 L0 149 L159 149 L159 92 L101 92 L101 50 L159 50 L159 0 Z"
      /></clipPath
      ><clipPath clipPathUnits="userSpaceOnUse" id="clipPath56"
      ><path d="M0 0 L160 0 L160 149 L0 149 L0 0 Z"
      /></clipPath
      ><clipPath clipPathUnits="userSpaceOnUse" id="clipPath57"
      ><path d="M0 0 L0 149 L160 149 L160 115 L101 115 L101 100 L160 100 L160 86 L97 86 L97 52 L160 52 L160 0 Z"
      /></clipPath
      ><clipPath clipPathUnits="userSpaceOnUse" id="clipPath58"
      ><path d="M0 0 L361 0 L361 70 L0 70 L0 0 Z"
      /></clipPath
      ><clipPath clipPathUnits="userSpaceOnUse" id="clipPath59"
      ><path d="M316 15 L316 30 L37 30 L37 15 ZM0 0 L0 70 L40 70 L40 60 L361 60 L361 0 Z"
      /></clipPath
      ><clipPath clipPathUnits="userSpaceOnUse" id="clipPath60"
      ><path d="M0 0 L0 149 L101 149 L101 140 L159 140 L159 75 L101 75 L101 60 L159 60 L159 46 L97 46 L97 12 L159 12 L159 0 Z"
      /></clipPath
      ><clipPath clipPathUnits="userSpaceOnUse" id="clipPath61"
      ><path d="M0 0 L260 0 L260 70 L0 70 L0 0 Z"
      /></clipPath
      ><clipPath clipPathUnits="userSpaceOnUse" id="clipPath62"
      ><path d="M0 0 L0 70 L260 70 L260 67 L37 67 L37 52 L260 52 L260 30 L40 30 L40 0 Z"
      /></clipPath
      ><clipPath clipPathUnits="userSpaceOnUse" id="clipPath63"
      ><path d="M-229 -49 L458 -49 L458 98 L-229 98 L-229 -49 Z"
      /></clipPath
      ><clipPath clipPathUnits="userSpaceOnUse" id="clipPath64"
      ><path d="M-356 -15 L712 -15 L712 30 L-356 30 L-356 -15 Z"
      /></clipPath
      ><clipPath clipPathUnits="userSpaceOnUse" id="clipPath65"
      ><path d="M-279 -15 L558 -15 L558 30 L-279 30 L-279 -15 Z"
      /></clipPath
      ><clipPath clipPathUnits="userSpaceOnUse" id="clipPath66"
      ><path d="M-182 -34 L364 -34 L364 68 L-182 68 L-182 -34 Z"
      /></clipPath
      ><clipPath clipPathUnits="userSpaceOnUse" id="clipPath67"
      ><path d="M-187 -42 L374 -42 L374 84 L-187 84 L-187 -42 Z"
      /></clipPath
      ><clipPath clipPathUnits="userSpaceOnUse" id="clipPath68"
      ><path d="M-293 -16 L586 -16 L586 32 L-293 32 L-293 -16 Z"
      /></clipPath
      ><clipPath clipPathUnits="userSpaceOnUse" id="clipPath69"
      ><path d="M-181 -44 L362 -44 L362 88 L-181 88 L-181 -44 Z"
      /></clipPath
      ><clipPath clipPathUnits="userSpaceOnUse" id="clipPath70"
      ><path d="M-296 -20 L592 -20 L592 40 L-296 40 L-296 -20 Z"
      /></clipPath
      ><clipPath clipPathUnits="userSpaceOnUse" id="clipPath71"
      ><path d="M-200 -39 L400 -39 L400 78 L-200 78 L-200 -39 Z"
      /></clipPath
      ><clipPath clipPathUnits="userSpaceOnUse" id="clipPath72"
      ><path d="M-234 -15 L468 -15 L468 30 L-234 30 L-234 -15 Z"
      /></clipPath
      ><clipPath clipPathUnits="userSpaceOnUse" id="clipPath73"
      ><path d="M-390 -16 L780 -16 L780 32 L-390 32 L-390 -16 Z"
      /></clipPath
      ><clipPath clipPathUnits="userSpaceOnUse" id="clipPath74"
      ><path d="M-173 -55 L346 -55 L346 110 L-173 110 L-173 -55 Z"
      /></clipPath
      ><clipPath clipPathUnits="userSpaceOnUse" id="clipPath75"
      ><path d="M-162 -15 L324 -15 L324 30 L-162 30 L-162 -15 Z"
      /></clipPath
      ><clipPath clipPathUnits="userSpaceOnUse" id="clipPath76"
      ><path d="M-170 -15 L340 -15 L340 30 L-170 30 L-170 -15 Z"
      /></clipPath
      ><clipPath clipPathUnits="userSpaceOnUse" id="clipPath77"
      ><path d="M-175 -15 L350 -15 L350 30 L-175 30 L-175 -15 Z"
      /></clipPath
      ><clipPath clipPathUnits="userSpaceOnUse" id="clipPath78"
      ><path d="M-228 -45 L456 -45 L456 90 L-228 90 L-228 -45 Z"
      /></clipPath
      ><clipPath clipPathUnits="userSpaceOnUse" id="clipPath79"
      ><path d="M-163 -15 L326 -15 L326 30 L-163 30 L-163 -15 Z"
      /></clipPath
    ></defs
    ><g fill="white" text-rendering="geometricPrecision" fill-opacity="1" stroke-opacity="1" stroke="white"
    ><rect x="0" width="1418" height="822" y="0" stroke="none"
    /></g
    ><g font-size="11px" fill-opacity="1" fill="rgb(122,207,245)" text-rendering="geometricPrecision" image-rendering="optimizeQuality" font-family="sans-serif" stroke="rgb(122,207,245)" stroke-opacity="1"
    ><rect x="0" width="8" height="12" y="0" clip-path="url(#clipPath1)" stroke="none"
    /></g
    ><g stroke-linecap="butt" font-size="11px" fill-opacity="1" fill="black" text-rendering="geometricPrecision" image-rendering="optimizeQuality" font-family="sans-serif" stroke-linejoin="round" stroke="black" stroke-opacity="1" stroke-miterlimit="0"
    ><rect fill="none" x="0" width="8" height="12" y="0" clip-path="url(#clipPath1)"
    /></g
    ><g font-size="11px" transform="translate(56,40)" fill-opacity="1" fill="rgb(122,207,245)" text-rendering="geometricPrecision" image-rendering="optimizeQuality" font-family="sans-serif" stroke="rgb(122,207,245)" stroke-opacity="1"
    ><circle r="5" clip-path="url(#clipPath2)" cx="30" cy="5" stroke="none"
      /><rect x="26" width="8" height="727" y="50" clip-path="url(#clipPath2)" stroke="none"
    /></g
    ><g stroke-linecap="butt" font-size="11px" transform="translate(56,40)" fill-opacity="1" fill="black" text-rendering="geometricPrecision" image-rendering="optimizeQuality" font-family="sans-serif" stroke-linejoin="round" stroke="black" stroke-opacity="1" stroke-miterlimit="0"
    ><circle fill="none" r="5" clip-path="url(#clipPath2)" cx="30" cy="5"
      /><rect fill="none" x="26" width="8" height="727" y="50" clip-path="url(#clipPath2)"
      /><line y2="25" fill="none" x1="30" clip-path="url(#clipPath2)" x2="30" y1="10"
      /><line y2="36" fill="none" x1="30" clip-path="url(#clipPath2)" x2="21" y1="25"
      /><line y2="36" fill="none" x1="30" clip-path="url(#clipPath2)" x2="39" y1="25"
      /><line y2="16" fill="none" x1="21" clip-path="url(#clipPath2)" x2="39" y1="16"
    /></g
    ><g font-size="11px" transform="translate(302,40)" fill-opacity="1" fill="rgb(122,207,245)" text-rendering="geometricPrecision" image-rendering="optimizeQuality" font-family="sans-serif" stroke="rgb(122,207,245)" stroke-opacity="1"
    ><rect x="0" width="154" height="35" y="0" clip-path="url(#clipPath3)" stroke="none"
    /></g
    ><g stroke-linecap="butt" font-size="11px" transform="translate(302,40)" fill-opacity="1" fill="black" text-rendering="geometricPrecision" image-rendering="optimizeQuality" font-family="sans-serif" stroke-linejoin="round" stroke="black" stroke-opacity="1" stroke-miterlimit="0"
    ><rect fill="none" x="0" width="154" height="35" y="0" clip-path="url(#clipPath3)"
      /><line clip-path="url(#clipPath3)" fill="none" x1="77" x2="77" y1="35" y2="778" stroke-linejoin="bevel" stroke-dasharray="8,3"
    /></g
    ><g font-size="11px" transform="translate(498,40)" fill-opacity="1" fill="rgb(122,207,245)" text-rendering="geometricPrecision" image-rendering="optimizeQuality" font-family="sans-serif" stroke="rgb(122,207,245)" stroke-opacity="1"
    ><rect x="0" width="191" height="35" y="0" clip-path="url(#clipPath4)" stroke="none"
    /></g
    ><g stroke-linecap="butt" font-size="11px" transform="translate(498,40)" fill-opacity="1" fill="black" text-rendering="geometricPrecision" image-rendering="optimizeQuality" font-family="sans-serif" stroke-linejoin="round" stroke="black" stroke-opacity="1" stroke-miterlimit="0"
    ><rect fill="none" x="0" width="191" height="35" y="0" clip-path="url(#clipPath4)"
      /><line clip-path="url(#clipPath4)" fill="none" x1="95" x2="95" y1="35" y2="778" stroke-linejoin="bevel" stroke-dasharray="8,3"
    /></g
    ><g font-size="11px" transform="translate(376,125)" fill-opacity="1" fill="rgb(122,207,245)" text-rendering="geometricPrecision" image-rendering="optimizeQuality" font-family="sans-serif" stroke="rgb(122,207,245)" stroke-opacity="1"
    ><rect x="0" width="8" height="82" y="0" clip-path="url(#clipPath5)" stroke="none"
    /></g
    ><g stroke-linecap="butt" font-size="11px" transform="translate(376,125)" fill-opacity="1" fill="black" text-rendering="geometricPrecision" image-rendering="optimizeQuality" font-family="sans-serif" stroke-linejoin="round" stroke="black" stroke-opacity="1" stroke-miterlimit="0"
    ><rect fill="none" x="0" width="8" height="82" y="0" clip-path="url(#clipPath5)"
    /></g
    ><g font-size="11px" transform="translate(376,237)" fill-opacity="1" fill="rgb(122,207,245)" text-rendering="geometricPrecision" image-rendering="optimizeQuality" font-family="sans-serif" stroke="rgb(122,207,245)" stroke-opacity="1"
    ><rect x="0" width="8" height="233" y="0" clip-path="url(#clipPath6)" stroke="none"
    /></g
    ><g stroke-linecap="butt" font-size="11px" transform="translate(376,237)" fill-opacity="1" fill="black" text-rendering="geometricPrecision" image-rendering="optimizeQuality" font-family="sans-serif" stroke-linejoin="round" stroke="black" stroke-opacity="1" stroke-miterlimit="0"
    ><rect fill="none" x="0" width="8" height="233" y="0" clip-path="url(#clipPath6)"
    /></g
    ><g font-size="11px" transform="translate(590,247)" fill-opacity="1" fill="rgb(122,207,245)" text-rendering="geometricPrecision" image-rendering="optimizeQuality" font-family="sans-serif" stroke="rgb(122,207,245)" stroke-opacity="1"
    ><rect x="0" width="8" height="226" y="0" clip-path="url(#clipPath7)" stroke="none"
    /></g
    ><g stroke-linecap="butt" font-size="11px" transform="translate(590,247)" fill-opacity="1" fill="black" text-rendering="geometricPrecision" image-rendering="optimizeQuality" font-family="sans-serif" stroke-linejoin="round" stroke="black" stroke-opacity="1" stroke-miterlimit="0"
    ><rect fill="none" x="0" width="8" height="226" y="0" clip-path="url(#clipPath7)"
    /></g
    ><g font-size="11px" transform="translate(376,501)" fill-opacity="1" fill="rgb(122,207,245)" text-rendering="geometricPrecision" image-rendering="optimizeQuality" font-family="sans-serif" stroke="rgb(122,207,245)" stroke-opacity="1"
    ><rect x="0" width="8" height="258" y="0" clip-path="url(#clipPath8)" stroke="none"
    /></g
    ><g stroke-linecap="butt" font-size="11px" transform="translate(376,501)" fill-opacity="1" fill="black" text-rendering="geometricPrecision" image-rendering="optimizeQuality" font-family="sans-serif" stroke-linejoin="round" stroke="black" stroke-opacity="1" stroke-miterlimit="0"
    ><rect fill="none" x="0" width="8" height="258" y="0" clip-path="url(#clipPath8)"
    /></g
    ><g font-size="11px" transform="translate(1126,421)" fill-opacity="1" fill="rgb(122,207,245)" text-rendering="geometricPrecision" image-rendering="optimizeQuality" font-family="sans-serif" stroke="rgb(122,207,245)" stroke-opacity="1"
    ><rect x="0" width="73" height="35" y="0" clip-path="url(#clipPath9)" stroke="none"
    /></g
    ><g stroke-linecap="butt" font-size="11px" transform="translate(1126,421)" fill-opacity="1" fill="black" text-rendering="geometricPrecision" image-rendering="optimizeQuality" font-family="sans-serif" stroke-linejoin="round" stroke="black" stroke-opacity="1" stroke-miterlimit="0"
    ><rect fill="none" x="0" width="73" height="35" y="0" clip-path="url(#clipPath9)"
      /><line clip-path="url(#clipPath9)" fill="none" x1="36" x2="36" y1="35" y2="397" stroke-linejoin="bevel" stroke-dasharray="8,3"
    /></g
    ><g font-size="11px" transform="translate(1171,40)" fill-opacity="1" fill="rgb(122,207,245)" text-rendering="geometricPrecision" image-rendering="optimizeQuality" font-family="sans-serif" stroke="rgb(122,207,245)" stroke-opacity="1"
    ><rect x="0" width="123" height="35" y="0" clip-path="url(#clipPath10)" stroke="none"
    /></g
    ><g stroke-linecap="butt" font-size="11px" transform="translate(1171,40)" fill-opacity="1" fill="black" text-rendering="geometricPrecision" image-rendering="optimizeQuality" font-family="sans-serif" stroke-linejoin="round" stroke="black" stroke-opacity="1" stroke-miterlimit="0"
    ><rect fill="none" x="0" width="123" height="35" y="0" clip-path="url(#clipPath10)"
      /><line clip-path="url(#clipPath10)" fill="none" x1="61" x2="61" y1="35" y2="778" stroke-linejoin="bevel" stroke-dasharray="8,3"
    /></g
    ><g font-size="11px" transform="translate(840,40)" fill-opacity="1" fill="rgb(122,207,245)" text-rendering="geometricPrecision" image-rendering="optimizeQuality" font-family="sans-serif" stroke="rgb(122,207,245)" stroke-opacity="1"
    ><rect x="0" width="107" height="35" y="0" clip-path="url(#clipPath11)" stroke="none"
    /></g
    ><g stroke-linecap="butt" font-size="11px" transform="translate(840,40)" fill-opacity="1" fill="black" text-rendering="geometricPrecision" image-rendering="optimizeQuality" font-family="sans-serif" stroke-linejoin="round" stroke="black" stroke-opacity="1" stroke-miterlimit="0"
    ><rect fill="none" x="0" width="107" height="35" y="0" clip-path="url(#clipPath11)"
      /><line clip-path="url(#clipPath11)" fill="none" x1="53" x2="53" y1="35" y2="180" stroke-linejoin="bevel" stroke-dasharray="8,3"
      /><line clip-path="url(#clipPath11)" fill="none" x1="53" x2="53" y1="230" y2="261" stroke-linejoin="bevel" stroke-dasharray="8,3"
      /><line clip-path="url(#clipPath11)" fill="none" x1="53" x2="53" y1="311" y2="778" stroke-linejoin="bevel" stroke-dasharray="8,3"
    /></g
    ><g font-size="11px" transform="translate(752,40)" fill-opacity="1" fill="rgb(122,207,245)" text-rendering="geometricPrecision" image-rendering="optimizeQuality" font-family="sans-serif" stroke="rgb(122,207,245)" stroke-opacity="1"
    ><rect x="0" width="82" height="35" y="0" clip-path="url(#clipPath12)" stroke="none"
    /></g
    ><g stroke-linecap="butt" font-size="11px" transform="translate(752,40)" fill-opacity="1" fill="black" text-rendering="geometricPrecision" image-rendering="optimizeQuality" font-family="sans-serif" stroke-linejoin="round" stroke="black" stroke-opacity="1" stroke-miterlimit="0"
    ><rect fill="none" x="0" width="82" height="35" y="0" clip-path="url(#clipPath12)"
      /><line clip-path="url(#clipPath12)" fill="none" x1="41" x2="41" y1="35" y2="778" stroke-linejoin="bevel" stroke-dasharray="8,3"
    /></g
    ><g font-size="11px" transform="translate(953,40)" fill-opacity="1" fill="rgb(122,207,245)" text-rendering="geometricPrecision" image-rendering="optimizeQuality" font-family="sans-serif" stroke="rgb(122,207,245)" stroke-opacity="1"
    ><rect x="0" width="124" height="35" y="0" clip-path="url(#clipPath13)" stroke="none"
    /></g
    ><g stroke-linecap="butt" font-size="11px" transform="translate(953,40)" fill-opacity="1" fill="black" text-rendering="geometricPrecision" image-rendering="optimizeQuality" font-family="sans-serif" stroke-linejoin="round" stroke="black" stroke-opacity="1" stroke-miterlimit="0"
    ><rect fill="none" x="0" width="124" height="35" y="0" clip-path="url(#clipPath13)"
      /><line clip-path="url(#clipPath13)" fill="none" x1="62" x2="62" y1="35" y2="261" stroke-linejoin="bevel" stroke-dasharray="8,3"
      /><line clip-path="url(#clipPath13)" fill="none" x1="62" x2="62" y1="311" y2="778" stroke-linejoin="bevel" stroke-dasharray="8,3"
    /></g
    ><g font-size="11px" transform="translate(790,257)" fill-opacity="1" fill="rgb(122,207,245)" text-rendering="geometricPrecision" image-rendering="optimizeQuality" font-family="sans-serif" stroke="rgb(122,207,245)" stroke-opacity="1"
    ><rect x="0" width="8" height="12" y="0" clip-path="url(#clipPath1)" stroke="none"
    /></g
    ><g stroke-linecap="butt" font-size="11px" transform="translate(790,257)" fill-opacity="1" fill="black" text-rendering="geometricPrecision" image-rendering="optimizeQuality" font-family="sans-serif" stroke-linejoin="round" stroke="black" stroke-opacity="1" stroke-miterlimit="0"
    ><rect fill="none" x="0" width="8" height="12" y="0" clip-path="url(#clipPath1)"
    /></g
    ><g font-size="11px" transform="translate(590,543)" fill-opacity="1" fill="rgb(122,207,245)" text-rendering="geometricPrecision" image-rendering="optimizeQuality" font-family="sans-serif" stroke="rgb(122,207,245)" stroke-opacity="1"
    ><rect x="0" width="8" height="90" y="0" clip-path="url(#clipPath14)" stroke="none"
    /></g
    ><g stroke-linecap="butt" font-size="11px" transform="translate(590,543)" fill-opacity="1" fill="black" text-rendering="geometricPrecision" image-rendering="optimizeQuality" font-family="sans-serif" stroke-linejoin="round" stroke="black" stroke-opacity="1" stroke-miterlimit="0"
    ><rect fill="none" x="0" width="8" height="90" y="0" clip-path="url(#clipPath14)"
    /></g
    ><g stroke-linecap="butt" font-size="11px" transform="translate(806,220)" fill-opacity="1" fill="black" text-rendering="geometricPrecision" image-rendering="optimizeQuality" font-family="sans-serif" stroke-linejoin="round" stroke="black" stroke-opacity="1" stroke-miterlimit="0"
    ><rect fill="none" x="0" width="154" height="50" y="0" clip-path="url(#clipPath15)"
      /><path fill="none" d="M24 0 L24 9 L18 17 L0 17" clip-path="url(#clipPath15)"
    /></g
    ><g font-size="11px" transform="translate(806,220)" fill-opacity="1" fill="black" text-rendering="geometricPrecision" image-rendering="optimizeQuality" font-family="sans-serif" stroke="black" font-weight="bold" stroke-opacity="1"
    ><text x="5" xml:space="preserve" y="12" clip-path="url(#clipPath16)" stroke="none"
      >ref</text
    ></g
    ><g font-size="11px" transform="translate(806,220)" fill-opacity="1" fill="black" text-rendering="geometricPrecision" image-rendering="optimizeQuality" font-family="sans-serif" stroke="black" stroke-opacity="1"
    ><text x="23" xml:space="preserve" y="29" clip-path="url(#clipPath17)" stroke="none"
      >IUC_getEmailByLogin</text
    ></g
    ><g stroke-linecap="butt" font-size="11px" transform="translate(1071,650)" fill-opacity="1" fill="black" text-rendering="geometricPrecision" image-rendering="optimizeQuality" font-family="sans-serif" stroke-linejoin="round" stroke="black" stroke-opacity="1" stroke-miterlimit="0"
    ><rect fill="none" x="0" width="207" height="50" y="0" clip-path="url(#clipPath18)"
      /><path fill="none" d="M24 0 L24 9 L18 17 L0 17" clip-path="url(#clipPath18)"
    /></g
    ><g font-size="11px" transform="translate(1071,650)" fill-opacity="1" fill="black" text-rendering="geometricPrecision" image-rendering="optimizeQuality" font-family="sans-serif" stroke="black" font-weight="bold" stroke-opacity="1"
    ><text x="5" xml:space="preserve" y="12" clip-path="url(#clipPath16)" stroke="none"
      >ref</text
    ></g
    ><g font-size="11px" transform="translate(1071,650)" fill-opacity="1" fill="black" text-rendering="geometricPrecision" image-rendering="optimizeQuality" font-family="sans-serif" stroke="black" stroke-opacity="1"
    ><text x="38" xml:space="preserve" y="29" clip-path="url(#clipPath19)" stroke="none"
      >IUC_RegiColabComoUtiliz</text
    ></g
    ><g font-size="11px" transform="translate(890,372)" fill-opacity="1" fill="rgb(122,207,245)" text-rendering="geometricPrecision" image-rendering="optimizeQuality" font-family="sans-serif" stroke="rgb(122,207,245)" stroke-opacity="1"
    ><rect x="0" width="8" height="12" y="0" clip-path="url(#clipPath1)" stroke="none"
    /></g
    ><g stroke-linecap="butt" font-size="11px" transform="translate(890,372)" fill-opacity="1" fill="black" text-rendering="geometricPrecision" image-rendering="optimizeQuality" font-family="sans-serif" stroke-linejoin="round" stroke="black" stroke-opacity="1" stroke-miterlimit="0"
    ><rect fill="none" x="0" width="8" height="12" y="0" clip-path="url(#clipPath1)"
    /></g
    ><g font-size="11px" transform="translate(1012,426)" fill-opacity="1" fill="rgb(122,207,245)" text-rendering="geometricPrecision" image-rendering="optimizeQuality" font-family="sans-serif" stroke="rgb(122,207,245)" stroke-opacity="1"
    ><rect x="0" width="8" height="17" y="0" clip-path="url(#clipPath20)" stroke="none"
    /></g
    ><g stroke-linecap="butt" font-size="11px" transform="translate(1012,426)" fill-opacity="1" fill="black" text-rendering="geometricPrecision" image-rendering="optimizeQuality" font-family="sans-serif" stroke-linejoin="round" stroke="black" stroke-opacity="1" stroke-miterlimit="0"
    ><rect fill="none" x="0" width="8" height="17" y="0" clip-path="url(#clipPath20)"
    /></g
    ><g font-size="11px" transform="translate(1012,460)" fill-opacity="1" fill="rgb(122,207,245)" text-rendering="geometricPrecision" image-rendering="optimizeQuality" font-family="sans-serif" stroke="rgb(122,207,245)" stroke-opacity="1"
    ><rect x="0" width="8" height="15" y="0" clip-path="url(#clipPath21)" stroke="none"
    /></g
    ><g stroke-linecap="butt" font-size="11px" transform="translate(1012,460)" fill-opacity="1" fill="black" text-rendering="geometricPrecision" image-rendering="optimizeQuality" font-family="sans-serif" stroke-linejoin="round" stroke="black" stroke-opacity="1" stroke-miterlimit="0"
    ><rect fill="none" x="0" width="8" height="15" y="0" clip-path="url(#clipPath21)"
    /></g
    ><g font-size="11px" transform="translate(1012,573)" fill-opacity="1" fill="rgb(122,207,245)" text-rendering="geometricPrecision" image-rendering="optimizeQuality" font-family="sans-serif" stroke="rgb(122,207,245)" stroke-opacity="1"
    ><rect x="0" width="8" height="181" y="0" clip-path="url(#clipPath22)" stroke="none"
    /></g
    ><g stroke-linecap="butt" font-size="11px" transform="translate(1012,573)" fill-opacity="1" fill="black" text-rendering="geometricPrecision" image-rendering="optimizeQuality" font-family="sans-serif" stroke-linejoin="round" stroke="black" stroke-opacity="1" stroke-miterlimit="0"
    ><rect fill="none" x="0" width="8" height="181" y="0" clip-path="url(#clipPath22)"
    /></g
    ><g font-size="11px" transform="translate(789,334)" fill-opacity="1" fill="rgb(122,207,245)" text-rendering="geometricPrecision" image-rendering="optimizeQuality" font-family="sans-serif" stroke="rgb(122,207,245)" stroke-opacity="1"
    ><rect x="0" width="8" height="12" y="0" clip-path="url(#clipPath1)" stroke="none"
    /></g
    ><g stroke-linecap="butt" font-size="11px" transform="translate(789,334)" fill-opacity="1" fill="black" text-rendering="geometricPrecision" image-rendering="optimizeQuality" font-family="sans-serif" stroke-linejoin="round" stroke="black" stroke-opacity="1" stroke-miterlimit="0"
    ><rect fill="none" x="0" width="8" height="12" y="0" clip-path="url(#clipPath1)"
    /></g
    ><g stroke-linecap="butt" font-size="11px" transform="translate(840,301)" fill-opacity="1" fill="black" text-rendering="geometricPrecision" image-rendering="optimizeQuality" font-family="sans-serif" stroke-linejoin="round" stroke="black" stroke-opacity="1" stroke-miterlimit="0"
    ><rect fill="none" x="0" width="199" height="50" y="0" clip-path="url(#clipPath23)"
      /><path fill="none" d="M24 0 L24 9 L18 17 L0 17" clip-path="url(#clipPath23)"
    /></g
    ><g font-size="11px" transform="translate(840,301)" fill-opacity="1" fill="black" text-rendering="geometricPrecision" image-rendering="optimizeQuality" font-family="sans-serif" stroke="black" font-weight="bold" stroke-opacity="1"
    ><text x="5" xml:space="preserve" y="12" clip-path="url(#clipPath16)" stroke="none"
      >ref</text
    ></g
    ><g font-size="11px" transform="translate(840,301)" fill-opacity="1" fill="black" text-rendering="geometricPrecision" image-rendering="optimizeQuality" font-family="sans-serif" stroke="black" stroke-opacity="1"
    ><text x="5" xml:space="preserve" y="29" clip-path="url(#clipPath24)" stroke="none"
      >IUC_getOrganizacaoByEmailUtilizador</text
    ></g
    ><g font-size="11px" transform="translate(19,75)" fill-opacity="1" fill="black" text-rendering="geometricPrecision" image-rendering="optimizeQuality" font-family="sans-serif" stroke="black" stroke-opacity="1"
    ><text x="10" xml:space="preserve" y="12" clip-path="url(#clipPath25)" stroke="none"
      >Gestor da Organização</text
    ></g
    ><g font-size="11px" transform="translate(302,40)" fill-opacity="1" fill="black" text-rendering="geometricPrecision" image-rendering="optimizeQuality" font-family="sans-serif" stroke="black" stroke-opacity="1"
    ><text x="11" xml:space="preserve" y="12" clip-path="url(#clipPath26)" stroke="none"
      >: EspecificarColaboradorUI</text
    ></g
    ><g font-size="11px" transform="translate(498,40)" fill-opacity="1" fill="black" text-rendering="geometricPrecision" image-rendering="optimizeQuality" font-family="sans-serif" stroke="black" stroke-opacity="1"
    ><text x="11" xml:space="preserve" y="12" clip-path="url(#clipPath27)" stroke="none"
      >: EspecificarColaboradorController</text
    ></g
    ><g font-size="11px" transform="translate(1126,421)" fill-opacity="1" fill="black" text-rendering="geometricPrecision" image-rendering="optimizeQuality" font-family="sans-serif" stroke="black" stroke-opacity="1"
    ><text x="20" xml:space="preserve" y="12" clip-path="url(#clipPath28)" stroke="none"
      >colab :</text
      ><text x="6" xml:space="preserve" y="27" clip-path="url(#clipPath28)" stroke="none"
      >Colaborador</text
    ></g
    ><g font-size="11px" transform="translate(1171,40)" fill-opacity="1" fill="black" text-rendering="geometricPrecision" image-rendering="optimizeQuality" font-family="sans-serif" stroke="black" stroke-opacity="1"
    ><text x="11" xml:space="preserve" y="12" clip-path="url(#clipPath29)" stroke="none"
      >: AutorizacaoFacade</text
    ></g
    ><g font-size="11px" transform="translate(840,40)" fill-opacity="1" fill="black" text-rendering="geometricPrecision" image-rendering="optimizeQuality" font-family="sans-serif" stroke="black" stroke-opacity="1"
    ><text x="9" xml:space="preserve" y="12" clip-path="url(#clipPath30)" stroke="none"
      >org : Organizacao</text
    ></g
    ><g font-size="11px" transform="translate(752,40)" fill-opacity="1" fill="black" text-rendering="geometricPrecision" image-rendering="optimizeQuality" font-family="sans-serif" stroke="black" stroke-opacity="1"
    ><text x="11" xml:space="preserve" y="12" clip-path="url(#clipPath31)" stroke="none"
      >: Plataforma</text
    ></g
    ><g font-size="11px" transform="translate(953,40)" fill-opacity="1" fill="black" text-rendering="geometricPrecision" image-rendering="optimizeQuality" font-family="sans-serif" stroke="black" stroke-opacity="1"
    ><text x="12" xml:space="preserve" y="12" clip-path="url(#clipPath32)" stroke="none"
      >registoColaborador :</text
      ><text x="13" xml:space="preserve" y="27" clip-path="url(#clipPath32)" stroke="none"
      >RegistoColaborador</text
    ></g
    ><g stroke-linecap="butt" font-size="11px" transform="translate(18,54)" fill-opacity="1" fill="black" text-rendering="geometricPrecision" image-rendering="optimizeQuality" font-family="sans-serif" stroke-linejoin="round" stroke="black" stroke-opacity="1"
    ><line y2="71" fill="none" x1="72" clip-path="url(#clipPath34)" x2="356" y1="71"
      /><polygon points=" 356 71 344 65 344 77" clip-path="url(#clipPath34)" stroke="none"
      /><polygon fill="none" points=" 356 71 344 65 344 77" clip-path="url(#clipPath34)"
    /></g
    ><g fill-opacity="1" text-rendering="geometricPrecision" stroke="black" stroke-linecap="butt" transform="translate(18,125)" stroke-miterlimit="0" stroke-opacity="1" fill="black" stroke-dasharray="8,3" font-family="sans-serif" stroke-linejoin="round" font-size="11px" image-rendering="optimizeQuality"
    ><line y2="72" fill="none" x1="356" clip-path="url(#clipPath35)" x2="72" y1="72"
      /><line clip-path="url(#clipPath35)" fill="none" x1="72" x2="84" y1="72" y2="78" stroke-dasharray="none" stroke-miterlimit="10"
      /><line clip-path="url(#clipPath35)" fill="none" x1="72" x2="84" y1="72" y2="66" stroke-dasharray="none" stroke-miterlimit="10"
    /></g
    ><g stroke-linecap="butt" font-size="11px" transform="translate(18,165)" fill-opacity="1" fill="black" text-rendering="geometricPrecision" image-rendering="optimizeQuality" font-family="sans-serif" stroke-linejoin="round" stroke="black" stroke-opacity="1"
    ><line y2="72" fill="none" x1="72" clip-path="url(#clipPath36)" x2="356" y1="72"
      /><polygon points=" 356 72 344 66 344 78" clip-path="url(#clipPath36)" stroke="none"
      /><polygon fill="none" points=" 356 72 344 66 344 78" clip-path="url(#clipPath36)"
    /></g
    ><g fill-opacity="1" text-rendering="geometricPrecision" stroke="black" stroke-linecap="butt" transform="translate(27,397)" stroke-miterlimit="0" stroke-opacity="1" fill="black" stroke-dasharray="8,3" font-family="sans-serif" stroke-linejoin="round" font-size="11px" image-rendering="optimizeQuality"
    ><line y2="63" fill="none" x1="349" clip-path="url(#clipPath38)" x2="63" y1="63"
      /><line clip-path="url(#clipPath38)" fill="none" x1="63" x2="75" y1="63" y2="69" stroke-dasharray="none" stroke-miterlimit="10"
      /><line clip-path="url(#clipPath38)" fill="none" x1="63" x2="75" y1="63" y2="57" stroke-dasharray="none" stroke-miterlimit="10"
    /></g
    ><g stroke-linecap="butt" font-size="11px" transform="translate(18,430)" fill-opacity="1" fill="black" text-rendering="geometricPrecision" image-rendering="optimizeQuality" font-family="sans-serif" stroke-linejoin="round" stroke="black" stroke-opacity="1"
    ><line y2="71" fill="none" x1="72" clip-path="url(#clipPath39)" x2="356" y1="71"
      /><polygon points=" 356 71 344 65 344 77" clip-path="url(#clipPath39)" stroke="none"
      /><polygon fill="none" points=" 356 71 344 65 344 77" clip-path="url(#clipPath39)"
    /></g
    ><g fill-opacity="1" text-rendering="geometricPrecision" stroke="black" stroke-linecap="butt" transform="translate(18,677)" stroke-miterlimit="0" stroke-opacity="1" fill="black" stroke-dasharray="8,3" font-family="sans-serif" stroke-linejoin="round" font-size="11px" image-rendering="optimizeQuality"
    ><line y2="71" fill="none" x1="356" clip-path="url(#clipPath40)" x2="72" y1="71"
      /><line clip-path="url(#clipPath40)" fill="none" x1="72" x2="84" y1="71" y2="77" stroke-dasharray="none" stroke-miterlimit="10"
      /><line clip-path="url(#clipPath40)" fill="none" x1="72" x2="84" y1="71" y2="65" stroke-dasharray="none" stroke-miterlimit="10"
    /></g
    ><g stroke-linecap="butt" font-size="11px" transform="translate(321,185)" fill-opacity="1" fill="black" text-rendering="geometricPrecision" image-rendering="optimizeQuality" font-family="sans-serif" stroke-linejoin="round" stroke="black" stroke-opacity="1"
    ><line y2="62" fill="none" x1="62" clip-path="url(#clipPath42)" x2="270" y1="62"
      /><polygon points=" 270 62 258 56 258 68" clip-path="url(#clipPath42)" stroke="none"
      /><polygon fill="none" points=" 270 62 258 56 258 68" clip-path="url(#clipPath42)"
    /></g
    ><g stroke-linecap="butt" font-size="11px" transform="translate(566,394)" fill-opacity="1" fill="black" text-rendering="geometricPrecision" image-rendering="optimizeQuality" font-family="sans-serif" stroke-linejoin="round" stroke="black" stroke-opacity="1"
    ><line y2="33" fill="none" x1="33" clip-path="url(#clipPath44)" x2="445" y1="33"
      /><polygon points=" 445 33 433 27 433 39" clip-path="url(#clipPath44)" stroke="none"
      /><polygon fill="none" points=" 445 33 433 27 433 39" clip-path="url(#clipPath44)"
    /></g
    ><g fill-opacity="1" text-rendering="geometricPrecision" stroke="black" stroke-linecap="butt" transform="translate(986,402)" stroke-opacity="1" fill="black" stroke-dasharray="5" font-family="sans-serif" stroke-linejoin="round" font-size="11px" stroke-dashoffset="1" image-rendering="optimizeQuality"
    ><line y2="33" fill="none" x1="34" clip-path="url(#clipPath46)" x2="140" y1="33"
      /><line clip-path="url(#clipPath46)" stroke-dashoffset="0" fill="none" x1="140" x2="128" y1="33" y2="27" stroke-dasharray="none"
      /><line clip-path="url(#clipPath46)" stroke-dashoffset="0" fill="none" x1="140" x2="128" y1="33" y2="39" stroke-dasharray="none"
    /></g
    ><g stroke-linecap="butt" font-size="11px" transform="translate(321,480)" fill-opacity="1" fill="black" text-rendering="geometricPrecision" image-rendering="optimizeQuality" font-family="sans-serif" stroke-linejoin="round" stroke="black" stroke-opacity="1"
    ><line y2="62" fill="none" x1="62" clip-path="url(#clipPath47)" x2="270" y1="62"
      /><polygon points=" 270 62 258 56 258 68" clip-path="url(#clipPath47)" stroke="none"
      /><polygon fill="none" points=" 270 62 258 56 258 68" clip-path="url(#clipPath47)"
    /></g
    ><g stroke-linecap="butt" font-size="11px" transform="translate(536,511)" fill-opacity="1" fill="black" text-rendering="geometricPrecision" image-rendering="optimizeQuality" font-family="sans-serif" stroke-linejoin="round" stroke="black" stroke-opacity="1"
    ><line y2="62" fill="none" x1="62" clip-path="url(#clipPath49)" x2="476" y1="62"
      /><polygon points=" 476 62 464 56 464 68" clip-path="url(#clipPath49)" stroke="none"
      /><polygon fill="none" points=" 476 62 464 56 464 68" clip-path="url(#clipPath49)"
    /></g
    ><g stroke-linecap="butt" font-size="11px" transform="translate(536,195)" fill-opacity="1" fill="black" text-rendering="geometricPrecision" image-rendering="optimizeQuality" font-family="sans-serif" stroke-linejoin="round" stroke="black" stroke-opacity="1"
    ><line y2="62" fill="none" x1="62" clip-path="url(#clipPath51)" x2="254" y1="62"
      /><polygon points=" 254 62 242 56 242 68" clip-path="url(#clipPath51)" stroke="none"
      /><polygon fill="none" points=" 254 62 242 56 242 68" clip-path="url(#clipPath51)"
    /></g
    ><g stroke-linecap="butt" font-size="11px" transform="translate(566,427)" fill-opacity="1" fill="black" text-rendering="geometricPrecision" image-rendering="optimizeQuality" font-family="sans-serif" stroke-linejoin="round" stroke="black" stroke-opacity="1"
    ><line y2="33" fill="none" x1="33" clip-path="url(#clipPath53)" x2="446" y1="33"
      /><polygon points=" 446 33 434 27 434 39" clip-path="url(#clipPath53)" stroke="none"
      /><polygon fill="none" points=" 446 33 434 27 434 39" clip-path="url(#clipPath53)"
    /></g
    ><g stroke-linecap="butt" font-size="11px" transform="translate(957,660)" fill-opacity="1" fill="black" text-rendering="geometricPrecision" image-rendering="optimizeQuality" font-family="sans-serif" stroke-linejoin="round" stroke="black" stroke-opacity="1"
    ><line y2="62" fill="none" x1="63" clip-path="url(#clipPath55)" x2="93" y1="62"
      /><line y2="82" fill="none" x1="93" clip-path="url(#clipPath55)" x2="93" y1="62"
      /><line y2="82" fill="none" x1="93" clip-path="url(#clipPath55)" x2="63" y1="82"
      /><polygon points=" 63 82 75 88 75 76" clip-path="url(#clipPath55)" stroke="none"
      /><polygon fill="none" points=" 63 82 75 88 75 76" clip-path="url(#clipPath55)"
    /></g
    ><g stroke-linecap="butt" font-size="11px" transform="translate(957,530)" fill-opacity="1" fill="black" text-rendering="geometricPrecision" image-rendering="optimizeQuality" font-family="sans-serif" stroke-linejoin="round" stroke="black" stroke-opacity="1"
    ><line y2="62" fill="none" x1="63" clip-path="url(#clipPath57)" x2="94" y1="62"
      /><line y2="82" fill="none" x1="94" clip-path="url(#clipPath57)" x2="94" y1="62"
      /><line y2="82" fill="none" x1="94" clip-path="url(#clipPath57)" x2="63" y1="82"
      /><polygon points=" 63 82 75 88 75 76" clip-path="url(#clipPath57)" stroke="none"
      /><polygon fill="none" points=" 63 82 75 88 75 76" clip-path="url(#clipPath57)"
    /></g
    ><g stroke-linecap="butt" font-size="11px" transform="translate(566,338)" fill-opacity="1" fill="black" text-rendering="geometricPrecision" image-rendering="optimizeQuality" font-family="sans-serif" stroke-linejoin="round" stroke="black" stroke-opacity="1"
    ><line y2="33" fill="none" x1="33" clip-path="url(#clipPath59)" x2="324" y1="33"
      /><polygon points=" 324 33 312 27 312 39" clip-path="url(#clipPath59)" stroke="none"
      /><polygon fill="none" points=" 324 33 312 27 312 39" clip-path="url(#clipPath59)"
    /></g
    ><g stroke-linecap="butt" font-size="11px" transform="translate(957,570)" fill-opacity="1" fill="black" text-rendering="geometricPrecision" image-rendering="optimizeQuality" font-family="sans-serif" stroke-linejoin="round" stroke="black" stroke-opacity="1"
    ><line y2="62" fill="none" x1="63" clip-path="url(#clipPath60)" x2="93" y1="62"
      /><line y2="82" fill="none" x1="93" clip-path="url(#clipPath60)" x2="93" y1="62"
      /><line y2="82" fill="none" x1="93" clip-path="url(#clipPath60)" x2="63" y1="82"
      /><polygon points=" 63 82 75 88 75 76" clip-path="url(#clipPath60)" stroke="none"
      /><polygon fill="none" points=" 63 82 75 88 75 76" clip-path="url(#clipPath60)"
    /></g
    ><g stroke-linecap="butt" font-size="11px" transform="translate(566,301)" fill-opacity="1" fill="black" text-rendering="geometricPrecision" image-rendering="optimizeQuality" font-family="sans-serif" stroke-linejoin="round" stroke="black" stroke-opacity="1"
    ><line y2="33" fill="none" x1="33" clip-path="url(#clipPath62)" x2="223" y1="33"
      /><polygon points=" 223 33 211 27 211 39" clip-path="url(#clipPath62)" stroke="none"
      /><polygon fill="none" points=" 223 33 211 27 211 39" clip-path="url(#clipPath62)"
    /></g
    ><g font-size="11px" transform="translate(606,282)" fill-opacity="1" fill="white" text-rendering="geometricPrecision" image-rendering="optimizeQuality" font-family="sans-serif" stroke="white" stroke-opacity="1"
    ><rect x="0" width="229" height="49" y="0" clip-path="url(#clipPath63)" stroke="none"
      /><text fill="black" x="100" xml:space="preserve" y="14" clip-path="url(#clipPath63)" stroke="none"
      >2.1.2:</text
      ><text fill="black" x="14" xml:space="preserve" y="29" clip-path="url(#clipPath63)" stroke="none"
      >getOrganizacaoByEmailUtilizador(email :</text
      ><text fill="black" x="52" xml:space="preserve" y="44" clip-path="url(#clipPath63)" stroke="none"
      >string) : Organizacao: org</text
    ></g
    ><g font-size="11px" transform="translate(1058,630)" fill-opacity="1" fill="white" text-rendering="geometricPrecision" image-rendering="optimizeQuality" font-family="sans-serif" stroke="white" stroke-opacity="1"
    ><rect x="0" width="356" height="15" y="0" clip-path="url(#clipPath64)" stroke="none"
      /><text fill="black" x="10" xml:space="preserve" y="12" clip-path="url(#clipPath64)" stroke="none"
      >3.1.1.2: registaColaboradorComoUtilizador(parameter : Colaborador)</text
    ></g
    ><g font-size="11px" transform="translate(603,353)" fill-opacity="1" fill="white" text-rendering="geometricPrecision" image-rendering="optimizeQuality" font-family="sans-serif" stroke="white" stroke-opacity="1"
    ><rect x="0" width="279" height="15" y="0" clip-path="url(#clipPath65)" stroke="none"
      /><text fill="black" x="9" xml:space="preserve" y="12" clip-path="url(#clipPath65)" stroke="none"
      >2.1.3: getRegistoColaborador() : RegistoColaborador</text
    ></g
    ><g font-size="11px" transform="translate(1054,582)" fill-opacity="1" fill="white" text-rendering="geometricPrecision" image-rendering="optimizeQuality" font-family="sans-serif" stroke="white" stroke-opacity="1"
    ><rect x="0" width="182" height="34" y="0" clip-path="url(#clipPath66)" stroke="none"
      /><text fill="black" x="8" xml:space="preserve" y="14" clip-path="url(#clipPath66)" stroke="none"
      >3.1.1.1: validaColaborador(colab :</text
      ><text fill="black" x="34" xml:space="preserve" y="29" clip-path="url(#clipPath66)" stroke="none"
      >Colaborador) : boolean</text
    ></g
    ><g font-size="11px" transform="translate(1058,710)" fill-opacity="1" fill="white" text-rendering="geometricPrecision" image-rendering="optimizeQuality" font-family="sans-serif" stroke="white" stroke-opacity="1"
    ><rect x="0" width="187" height="42" y="0" clip-path="url(#clipPath67)" stroke="none"
      /><text fill="black" x="7" xml:space="preserve" y="18" clip-path="url(#clipPath67)" stroke="none"
      >3.1.1.3: adicionaColaborador(colab</text
      ><text fill="black" x="33" xml:space="preserve" y="33" clip-path="url(#clipPath67)" stroke="none"
      >: Colaborador) : boolean</text
    ></g
    ><g font-size="11px" transform="translate(612,432)" fill-opacity="1" fill="white" text-rendering="geometricPrecision" image-rendering="optimizeQuality" font-family="sans-serif" stroke="white" stroke-opacity="1"
    ><rect x="0" width="293" height="16" y="0" clip-path="url(#clipPath68)" stroke="none"
      /><text fill="black" x="10" xml:space="preserve" y="12" clip-path="url(#clipPath68)" stroke="none"
      >2.1.5: validaColaborador(colab : Colaborador) : boolean</text
    ></g
    ><g font-size="11px" transform="translate(602,208)" fill-opacity="1" fill="white" text-rendering="geometricPrecision" image-rendering="optimizeQuality" font-family="sans-serif" stroke="white" stroke-opacity="1"
    ><rect x="0" width="181" height="44" y="0" clip-path="url(#clipPath69)" stroke="none"
      /><text fill="black" x="29" xml:space="preserve" y="26" clip-path="url(#clipPath69)" stroke="none"
      >2.1.1: getEmailByLogin()</text
    ></g
    ><g font-size="11px" transform="translate(656,543)" fill-opacity="1" fill="white" text-rendering="geometricPrecision" image-rendering="optimizeQuality" font-family="sans-serif" stroke="white" stroke-opacity="1"
    ><rect x="0" width="296" height="20" y="0" clip-path="url(#clipPath70)" stroke="none"
      /><text fill="black" x="20" xml:space="preserve" y="14" clip-path="url(#clipPath70)" stroke="none"
      >3.1.1: registaColaborador(colab) : boolean: bRegista</text
    ></g
    ><g font-size="11px" transform="translate(387,490)" fill-opacity="1" fill="white" text-rendering="geometricPrecision" image-rendering="optimizeQuality" font-family="sans-serif" stroke="white" stroke-opacity="1"
    ><rect x="0" width="200" height="39" y="0" clip-path="url(#clipPath71)" stroke="none"
      /><text fill="black" x="12" xml:space="preserve" y="16" clip-path="url(#clipPath71)" stroke="none"
      >3.1: registaColaborador() : boolean:</text
      ><text fill="black" x="77" xml:space="preserve" y="31" clip-path="url(#clipPath71)" stroke="none"
      >bRegista</text
    ></g
    ><g font-size="11px" transform="translate(1005,396)" fill-opacity="1" fill="white" text-rendering="geometricPrecision" image-rendering="optimizeQuality" font-family="sans-serif" stroke="white" stroke-opacity="1"
    ><rect x="0" width="234" height="15" y="0" clip-path="url(#clipPath72)" stroke="none"
      /><text fill="black" x="10" xml:space="preserve" y="12" clip-path="url(#clipPath72)" stroke="none"
      >2.1.4.1: create(nome,funcao,telefone,email)</text
    ></g
    ><g font-size="11px" transform="translate(606,398)" fill-opacity="1" fill="white" text-rendering="geometricPrecision" image-rendering="optimizeQuality" font-family="sans-serif" stroke="white" stroke-opacity="1"
    ><rect x="0" width="390" height="16" y="0" clip-path="url(#clipPath73)" stroke="none"
      /><text fill="black" x="10" xml:space="preserve" y="12" clip-path="url(#clipPath73)" stroke="none"
      >2.1.4: novoColaborador(nome, funcao, telefone, email) : Colaborador: colab</text
    ></g
    ><g font-size="11px" transform="translate(402,182)" fill-opacity="1" fill="white" text-rendering="geometricPrecision" image-rendering="optimizeQuality" font-family="sans-serif" stroke="white" stroke-opacity="1"
    ><rect x="0" width="173" height="55" y="0" clip-path="url(#clipPath74)" stroke="none"
      /><text fill="black" x="16" xml:space="preserve" y="17" clip-path="url(#clipPath74)" stroke="none"
      >2.1: novoColaborador(nome,</text
      ><text fill="black" x="26" xml:space="preserve" y="32" clip-path="url(#clipPath74)" stroke="none"
      >funcao, telefone, email) :</text
      ><text fill="black" x="47" xml:space="preserve" y="47" clip-path="url(#clipPath74)" stroke="none"
      >boolean: bNovo</text
    ></g
    ><g font-size="11px" transform="translate(142,721)" fill-opacity="1" fill="white" text-rendering="geometricPrecision" image-rendering="optimizeQuality" font-family="sans-serif" stroke="white" stroke-opacity="1"
    ><rect x="0" width="162" height="15" y="0" clip-path="url(#clipPath75)" stroke="none"
      /><text fill="black" x="9" xml:space="preserve" y="12" clip-path="url(#clipPath75)" stroke="none"
      >3.2: Operação bem sucedida</text
    ></g
    ><g font-size="11px" transform="translate(138,471)" fill-opacity="1" fill="white" text-rendering="geometricPrecision" image-rendering="optimizeQuality" font-family="sans-serif" stroke="white" stroke-opacity="1"
    ><rect x="0" width="170" height="15" y="0" clip-path="url(#clipPath76)" stroke="none"
      /><text fill="black" x="10" xml:space="preserve" y="12" clip-path="url(#clipPath76)" stroke="none"
      >3: O Gestor confirma os dados</text
    ></g
    ><g font-size="11px" transform="translate(111,431)" fill-opacity="1" fill="white" text-rendering="geometricPrecision" image-rendering="optimizeQuality" font-family="sans-serif" stroke="white" stroke-opacity="1"
    ><rect x="0" width="234" height="15" y="0" clip-path="url(#clipPath72)" stroke="none"
      /><text fill="black" x="9" xml:space="preserve" y="12" clip-path="url(#clipPath72)" stroke="none"
      >2.2: Apresenta dados e solicita confirmação</text
    ></g
    ><g font-size="11px" transform="translate(136,212)" fill-opacity="1" fill="white" text-rendering="geometricPrecision" image-rendering="optimizeQuality" font-family="sans-serif" stroke="white" stroke-opacity="1"
    ><rect x="0" width="175" height="15" y="0" clip-path="url(#clipPath77)" stroke="none"
      /><text fill="black" x="9" xml:space="preserve" y="12" clip-path="url(#clipPath77)" stroke="none"
      >2: Introduz os dados solicitados</text
    ></g
    ><g font-size="11px" transform="translate(110,140)" fill-opacity="1" fill="white" text-rendering="geometricPrecision" image-rendering="optimizeQuality" font-family="sans-serif" stroke="white" stroke-opacity="1"
    ><rect x="0" width="228" height="45" y="0" clip-path="url(#clipPath78)" stroke="none"
      /><text fill="black" x="17" xml:space="preserve" y="19" clip-path="url(#clipPath78)" stroke="none"
      >1.1: Solicita dados do novo colaborador</text
      ><text fill="black" x="36" xml:space="preserve" y="34" clip-path="url(#clipPath78)" stroke="none"
      >(nome, função, telefone, e-mail)</text
    ></g
    ><g font-size="11px" transform="translate(145,102)" fill-opacity="1" fill="white" text-rendering="geometricPrecision" image-rendering="optimizeQuality" font-family="sans-serif" stroke="white" stroke-opacity="1"
    ><rect x="0" width="163" height="15" y="0" clip-path="url(#clipPath79)" stroke="none"
      /><text fill="black" x="10" xml:space="preserve" y="12" clip-path="url(#clipPath79)" stroke="none"
      >1: Registar novo colaborador</text
    ></g
    ><g font-size="8px" fill-opacity="1" fill="rgb(120,120,120)" text-rendering="geometricPrecision" image-rendering="optimizeQuality" stroke="rgb(120,120,120)" stroke-opacity="1"
    ><text x="0" xml:space="preserve" y="10" stroke="none"
      >Visual Paradigm Standard(Daniel(Instituto Superior de Engenharia do Porto))</text
    ></g
  ></g
></svg
>
