<?xml version="1.0" encoding="UTF-8"?>
<!DOCTYPE svg PUBLIC '-//W3C//DTD SVG 1.0//EN'
          'http://www.w3.org/TR/2001/REC-SVG-20010904/DTD/svg10.dtd'>
<svg fill-opacity="0" xmlns:xlink="http://www.w3.org/1999/xlink" color-rendering="auto" color-interpolation="auto" text-rendering="auto" stroke="rgb(0,0,0)" stroke-linecap="square" width="1086" stroke-miterlimit="10" shape-rendering="auto" stroke-opacity="0" fill="rgb(0,0,0)" stroke-dasharray="none" font-weight="normal" stroke-width="1" height="379" xmlns="http://www.w3.org/2000/svg" font-family="'Dialog'" font-style="normal" stroke-linejoin="miter" font-size="12px" stroke-dashoffset="0" image-rendering="auto"
><!--Generated by the Batik Graphics2D SVG Generator--><defs id="genericDefs"
  /><g
  ><defs id="defs1"
    ><clipPath clipPathUnits="userSpaceOnUse" id="clipPath1"
      ><path d="M-7 -7 L114 -7 L114 51 L-7 51 L-7 -7 Z"
      /></clipPath
      ><clipPath clipPathUnits="userSpaceOnUse" id="clipPath2"
      ><path d="M0 0 L0 25 L103 25 L103 0 Z"
      /></clipPath
      ><clipPath clipPathUnits="userSpaceOnUse" id="clipPath3"
      ><path d="M0 0 L0 15 L103 15 L103 0 Z"
      /></clipPath
      ><clipPath clipPathUnits="userSpaceOnUse" id="clipPath4"
      ><path d="M-7 -7 L97 -7 L97 109 L-7 109 L-7 -7 Z"
      /></clipPath
      ><clipPath clipPathUnits="userSpaceOnUse" id="clipPath5"
      ><path d="M0 0 L0 83 L86 83 L86 0 Z"
      /></clipPath
      ><clipPath clipPathUnits="userSpaceOnUse" id="clipPath6"
      ><path d="M0 0 L0 15 L87 15 L87 0 Z"
      /></clipPath
      ><clipPath clipPathUnits="userSpaceOnUse" id="clipPath7"
      ><path d="M-7 -7 L97 -7 L97 95 L-7 95 L-7 -7 Z"
      /></clipPath
      ><clipPath clipPathUnits="userSpaceOnUse" id="clipPath8"
      ><path d="M0 0 L0 69 L86 69 L86 0 Z"
      /></clipPath
      ><clipPath clipPathUnits="userSpaceOnUse" id="clipPath9"
      ><path d="M-7 -7 L143 -7 L143 141 L-7 141 L-7 -7 Z"
      /></clipPath
      ><clipPath clipPathUnits="userSpaceOnUse" id="clipPath10"
      ><path d="M0 0 L0 115 L132 115 L132 0 Z"
      /></clipPath
      ><clipPath clipPathUnits="userSpaceOnUse" id="clipPath11"
      ><path d="M0 0 L0 15 L133 15 L133 0 Z"
      /></clipPath
      ><clipPath clipPathUnits="userSpaceOnUse" id="clipPath12"
      ><path d="M-7 -7 L176 -7 L176 156 L-7 156 L-7 -7 Z"
      /></clipPath
      ><clipPath clipPathUnits="userSpaceOnUse" id="clipPath13"
      ><path d="M0 0 L0 130 L165 130 L165 0 Z"
      /></clipPath
      ><clipPath clipPathUnits="userSpaceOnUse" id="clipPath14"
      ><path d="M0 0 L0 15 L165 15 L165 0 Z"
      /></clipPath
      ><clipPath clipPathUnits="userSpaceOnUse" id="clipPath15"
      ><path d="M-7 -7 L102 -7 L102 51 L-7 51 L-7 -7 Z"
      /></clipPath
      ><clipPath clipPathUnits="userSpaceOnUse" id="clipPath16"
      ><path d="M0 0 L0 10 L91 10 L91 0 Z"
      /></clipPath
      ><clipPath clipPathUnits="userSpaceOnUse" id="clipPath17"
      ><path d="M0 0 L0 30 L92 30 L92 0 Z"
      /></clipPath
      ><clipPath clipPathUnits="userSpaceOnUse" id="clipPath18"
      ><path d="M-7 -7 L91 -7 L91 51 L-7 51 L-7 -7 Z"
      /></clipPath
      ><clipPath clipPathUnits="userSpaceOnUse" id="clipPath19"
      ><path d="M0 0 L0 25 L80 25 L80 0 Z"
      /></clipPath
      ><clipPath clipPathUnits="userSpaceOnUse" id="clipPath20"
      ><path d="M0 0 L0 15 L80 15 L80 0 Z"
      /></clipPath
      ><clipPath clipPathUnits="userSpaceOnUse" id="clipPath21"
      ><path d="M-7 -7 L38 -7 L38 26 L-7 26 L-7 -7 Z"
      /></clipPath
      ><clipPath clipPathUnits="userSpaceOnUse" id="clipPath22"
      ><path d="M0 0 L0 15 L27 15 L27 0 Z"
      /></clipPath
      ><clipPath clipPathUnits="userSpaceOnUse" id="clipPath23"
      ><path d="M-7 -7 L36 -7 L36 26 L-7 26 L-7 -7 Z"
      /></clipPath
      ><clipPath clipPathUnits="userSpaceOnUse" id="clipPath24"
      ><path d="M0 0 L0 15 L25 15 L25 0 Z"
      /></clipPath
      ><clipPath clipPathUnits="userSpaceOnUse" id="clipPath25"
      ><path d="M-7 -7 L37 -7 L37 27 L-7 27 L-7 -7 Z"
      /></clipPath
      ><clipPath clipPathUnits="userSpaceOnUse" id="clipPath26"
      ><path d="M0 0 L0 16 L26 16 L26 0 Z"
      /></clipPath
      ><clipPath clipPathUnits="userSpaceOnUse" id="clipPath27"
      ><path d="M-7 -7 L38 -7 L38 27 L-7 27 L-7 -7 Z"
      /></clipPath
      ><clipPath clipPathUnits="userSpaceOnUse" id="clipPath28"
      ><path d="M0 0 L0 16 L27 16 L27 0 Z"
      /></clipPath
      ><clipPath clipPathUnits="userSpaceOnUse" id="clipPath29"
      ><path d="M-7 -7 L51 -7 L51 51 L-7 51 L-7 -7 Z"
      /></clipPath
      ><clipPath clipPathUnits="userSpaceOnUse" id="clipPath30"
      ><path d="M0 0 L0 40 L40 40 L40 0 Z"
      /></clipPath
      ><clipPath clipPathUnits="userSpaceOnUse" id="clipPath31"
      ><path d="M-7 -7 L33 -7 L33 32 L-7 32 L-7 -7 Z"
      /></clipPath
      ><clipPath clipPathUnits="userSpaceOnUse" id="clipPath32"
      ><path d="M0 0 L0 21 L22 21 L22 0 Z"
      /></clipPath
      ><clipPath clipPathUnits="userSpaceOnUse" id="clipPath33"
      ><path d="M-7 -7 L48 -7 L48 26 L-7 26 L-7 -7 Z"
      /></clipPath
      ><clipPath clipPathUnits="userSpaceOnUse" id="clipPath34"
      ><path d="M0 0 L0 15 L37 15 L37 0 Z"
      /></clipPath
      ><clipPath clipPathUnits="userSpaceOnUse" id="clipPath35"
      ><path d="M-7 -7 L39 -7 L39 26 L-7 26 L-7 -7 Z"
      /></clipPath
      ><clipPath clipPathUnits="userSpaceOnUse" id="clipPath36"
      ><path d="M0 0 L0 15 L28 15 L28 0 Z"
      /></clipPath
      ><clipPath clipPathUnits="userSpaceOnUse" id="clipPath37"
      ><path d="M0 0 L226 0 L226 106 L0 106 L0 0 Z"
      /></clipPath
      ><clipPath clipPathUnits="userSpaceOnUse" id="clipPath38"
      ><path d="M156 31 L156 48 L61 48 L61 31 ZM0 0 L0 106 L226 106 L226 0 Z"
      /></clipPath
      ><clipPath clipPathUnits="userSpaceOnUse" id="clipPath39"
      ><path d="M0 0 L266 0 L266 146 L0 146 L0 0 Z"
      /></clipPath
      ><clipPath clipPathUnits="userSpaceOnUse" id="clipPath40"
      ><path d="M167 16 L167 32 L94 32 L94 16 ZM155 63 L155 81 L100 81 L100 63 ZM0 0 L0 146 L259 146 L259 137 L266 137 L266 0 Z"
      /></clipPath
      ><clipPath clipPathUnits="userSpaceOnUse" id="clipPath41"
      ><path d="M0 0 L229 0 L229 206 L0 206 L0 0 Z"
      /></clipPath
      ><clipPath clipPathUnits="userSpaceOnUse" id="clipPath42"
      ><path d="M82 24 L82 39 L29 39 L29 24 ZM145 55 L145 74 L75 74 L75 55 ZM0 0 L0 206 L229 206 L229 182 L196 182 L196 165 L229 165 L229 0 Z"
      /></clipPath
      ><clipPath clipPathUnits="userSpaceOnUse" id="clipPath43"
      ><path d="M167 54 L167 70 L94 70 L94 54 ZM155 101 L155 119 L100 119 L100 101 ZM0 0 L0 146 L266 146 L266 0 Z"
      /></clipPath
      ><clipPath clipPathUnits="userSpaceOnUse" id="clipPath44"
      ><path d="M0 0 L431 0 L431 235 L0 235 L0 0 Z"
      /></clipPath
      ><clipPath clipPathUnits="userSpaceOnUse" id="clipPath45"
      ><path d="M283 11 L283 26 L230 26 L230 11 ZM284 58 L284 73 L231 73 L231 58 ZM347 89 L347 108 L277 108 L277 89 ZM201 179 L201 195 L128 195 L128 179 ZM0 0 L0 197 L4 197 L4 214 L0 214 L0 235 L134 235 L134 226 L189 226 L189 235 L431 235 L431 216 L398 216 L398 199 L431 199 L431 0 Z"
      /></clipPath
      ><clipPath clipPathUnits="userSpaceOnUse" id="clipPath46"
      ><path d="M0 0 L254 0 L254 201 L0 201 L0 0 Z"
      /></clipPath
      ><clipPath clipPathUnits="userSpaceOnUse" id="clipPath47"
      ><path d="M171 55 L171 70 L97 70 L97 55 ZM0 0 L0 199 L13 199 L13 201 L254 201 L254 0 Z"
      /></clipPath
      ><clipPath clipPathUnits="userSpaceOnUse" id="clipPath48"
      ><path d="M0 0 L357 0 L357 129 L0 129 L0 0 Z"
      /></clipPath
      ><clipPath clipPathUnits="userSpaceOnUse" id="clipPath49"
      ><path d="M200 51 L200 68 L150 68 L150 51 ZM0 0 L0 129 L357 129 L357 0 Z"
      /></clipPath
      ><clipPath clipPathUnits="userSpaceOnUse" id="clipPath50"
      ><path d="M0 0 L209 0 L209 129 L0 129 L0 0 Z"
      /></clipPath
      ><clipPath clipPathUnits="userSpaceOnUse" id="clipPath51"
      ><path d="M128 56 L128 73 L88 73 L88 56 ZM0 0 L0 129 L209 129 L209 0 Z"
      /></clipPath
      ><clipPath clipPathUnits="userSpaceOnUse" id="clipPath52"
      ><path d="M0 0 L1111 0 L1111 217 L0 217 L0 0 Z"
      /></clipPath
      ><clipPath clipPathUnits="userSpaceOnUse" id="clipPath53"
      ><path d="M416 20 L416 36 L343 36 L343 20 ZM219 38 L219 55 L124 55 L124 38 ZM663 40 L663 57 L613 57 L613 40 ZM985 40 L985 57 L945 57 L945 40 ZM404 67 L404 85 L349 85 L349 67 ZM548 141 L548 159 L508 159 L508 141 ZM0 0 L0 217 L1111 217 L1111 0 Z"
      /></clipPath
      ><clipPath clipPathUnits="userSpaceOnUse" id="clipPath54"
      ><path d="M0 0 L631 0 L631 292 L0 292 L0 0 Z"
      /></clipPath
      ><clipPath clipPathUnits="userSpaceOnUse" id="clipPath55"
      ><path d="M416 51 L416 66 L332 66 L332 51 ZM172 102 L172 117 L119 117 L119 102 ZM495 146 L495 161 L421 161 L421 146 ZM173 149 L173 164 L120 164 L120 149 ZM236 180 L236 199 L166 199 L166 180 ZM90 270 L90 286 L17 286 L17 270 ZM0 0 L0 292 L287 292 L287 290 L337 290 L337 292 L619 292 L619 290 L631 290 L631 0 Z"
      /></clipPath
      ><clipPath clipPathUnits="userSpaceOnUse" id="clipPath56"
      ><path d="M0 0 L375 0 L375 346 L0 346 L0 0 Z"
      /></clipPath
      ><clipPath clipPathUnits="userSpaceOnUse" id="clipPath57"
      ><path d="M161 56 L161 71 L101 71 L101 56 ZM219 282 L219 299 L124 299 L124 282 ZM0 0 L0 346 L375 346 L375 329 L349 329 L349 311 L375 311 L375 280 L343 280 L343 264 L375 264 L375 0 Z"
      /></clipPath
      ><clipPath clipPathUnits="userSpaceOnUse" id="clipPath58"
      ><path d="M0 0 L360 0 L360 160 L0 160 L0 0 Z"
      /></clipPath
      ><clipPath clipPathUnits="userSpaceOnUse" id="clipPath59"
      ><path d="M212 86 L212 101 L159 101 L159 86 ZM213 133 L213 148 L160 148 L160 133 ZM0 0 L0 160 L360 160 L360 0 Z"
      /></clipPath
      ><clipPath clipPathUnits="userSpaceOnUse" id="clipPath60"
      ><path d="M-53 -15 L106 -15 L106 30 L-53 30 L-53 -15 Z"
      /></clipPath
      ><clipPath clipPathUnits="userSpaceOnUse" id="clipPath61"
      ><path d="M-60 -15 L120 -15 L120 30 L-60 30 L-60 -15 Z"
      /></clipPath
      ><clipPath clipPathUnits="userSpaceOnUse" id="clipPath62"
      ><path d="M-84 -15 L168 -15 L168 30 L-84 30 L-84 -15 Z"
      /></clipPath
      ><clipPath clipPathUnits="userSpaceOnUse" id="clipPath63"
      ><path d="M-40 -18 L80 -18 L80 36 L-40 36 L-40 -18 Z"
      /></clipPath
      ><clipPath clipPathUnits="userSpaceOnUse" id="clipPath64"
      ><path d="M-40 -17 L80 -17 L80 34 L-40 34 L-40 -17 Z"
      /></clipPath
      ><clipPath clipPathUnits="userSpaceOnUse" id="clipPath65"
      ><path d="M-50 -17 L100 -17 L100 34 L-50 34 L-50 -17 Z"
      /></clipPath
      ><clipPath clipPathUnits="userSpaceOnUse" id="clipPath66"
      ><path d="M-74 -15 L148 -15 L148 30 L-74 30 L-74 -15 Z"
      /></clipPath
      ><clipPath clipPathUnits="userSpaceOnUse" id="clipPath67"
      ><path d="M-73 -16 L146 -16 L146 32 L-73 32 L-73 -16 Z"
      /></clipPath
      ><clipPath clipPathUnits="userSpaceOnUse" id="clipPath68"
      ><path d="M-70 -19 L140 -19 L140 38 L-70 38 L-70 -19 Z"
      /></clipPath
      ><clipPath clipPathUnits="userSpaceOnUse" id="clipPath69"
      ><path d="M-55 -18 L110 -18 L110 36 L-55 36 L-55 -18 Z"
      /></clipPath
      ><clipPath clipPathUnits="userSpaceOnUse" id="clipPath70"
      ><path d="M-95 -17 L190 -17 L190 34 L-95 34 L-95 -17 Z"
      /></clipPath
    ></defs
    ><g fill="white" text-rendering="geometricPrecision" fill-opacity="1" stroke-opacity="1" stroke="white"
    ><rect x="0" width="1086" height="379" y="0" stroke="none"
    /></g
    ><g font-size="11px" transform="translate(2,253)" fill-opacity="1" fill="rgb(122,207,245)" text-rendering="geometricPrecision" image-rendering="optimizeQuality" font-family="sans-serif" stroke="rgb(122,207,245)" font-weight="bold" stroke-opacity="1"
    ><rect x="0" width="103" height="40" y="0" clip-path="url(#clipPath1)" stroke="none"
    /></g
    ><g fill-opacity="1" text-rendering="geometricPrecision" stroke="black" stroke-linecap="butt" transform="translate(2,253)" stroke-miterlimit="0" stroke-opacity="1" fill="black" font-weight="bold" font-family="sans-serif" stroke-linejoin="round" font-size="11px" image-rendering="optimizeQuality"
    ><rect fill="none" x="0" width="103" height="40" y="0" clip-path="url(#clipPath1)"
      /><line y2="15" fill="none" x1="0" clip-path="url(#clipPath1)" x2="103" y1="15"
    /></g
    ><g font-size="11px" transform="matrix(1,0,0,1,2,268)" fill-opacity="1" fill="black" text-rendering="geometricPrecision" image-rendering="optimizeQuality" font-family="sans-serif" stroke="black" stroke-opacity="1"
    ><text x="2" xml:space="preserve" y="14" clip-path="url(#clipPath2)" stroke="none"
      >-designacao : string</text
    ></g
    ><g font-size="11px" transform="translate(2,253)" fill-opacity="1" fill="black" text-rendering="geometricPrecision" image-rendering="optimizeQuality" font-family="sans-serif" stroke="black" font-weight="bold" stroke-opacity="1"
    ><text x="23" xml:space="preserve" y="12" clip-path="url(#clipPath3)" stroke="none"
      >Plataforma</text
    ></g
    ><g font-size="11px" transform="translate(226,226)" fill-opacity="1" fill="rgb(122,207,245)" text-rendering="geometricPrecision" image-rendering="optimizeQuality" font-family="sans-serif" stroke="rgb(122,207,245)" font-weight="bold" stroke-opacity="1"
    ><rect x="0" width="86" height="98" y="0" clip-path="url(#clipPath4)" stroke="none"
    /></g
    ><g fill-opacity="1" text-rendering="geometricPrecision" stroke="black" stroke-linecap="butt" transform="translate(226,226)" stroke-miterlimit="0" stroke-opacity="1" fill="black" font-weight="bold" font-family="sans-serif" stroke-linejoin="round" font-size="11px" image-rendering="optimizeQuality"
    ><rect fill="none" x="0" width="86" height="98" y="0" clip-path="url(#clipPath4)"
      /><line y2="15" fill="none" x1="0" clip-path="url(#clipPath4)" x2="86" y1="15"
    /></g
    ><g font-size="11px" transform="matrix(1,0,0,1,226,241)" fill-opacity="1" fill="black" text-rendering="geometricPrecision" image-rendering="optimizeQuality" font-family="sans-serif" stroke="black" stroke-opacity="1"
    ><text x="2" xml:space="preserve" y="14" clip-path="url(#clipPath5)" stroke="none"
      >-nome : string</text
    ></g
    ><g font-size="11px" transform="matrix(1,0,0,1,226,241)" fill-opacity="1" fill="black" text-rendering="geometricPrecision" image-rendering="optimizeQuality" font-family="sans-serif" stroke="black" stroke-opacity="1"
    ><text x="2" xml:space="preserve" y="29" clip-path="url(#clipPath5)" stroke="none"
      >-NIF : string</text
    ></g
    ><g font-size="11px" transform="matrix(1,0,0,1,226,241)" fill-opacity="1" fill="black" text-rendering="geometricPrecision" image-rendering="optimizeQuality" font-family="sans-serif" stroke="black" stroke-opacity="1"
    ><text x="2" xml:space="preserve" y="44" clip-path="url(#clipPath5)" stroke="none"
      >-website : string</text
    ></g
    ><g font-size="11px" transform="matrix(1,0,0,1,226,241)" fill-opacity="1" fill="black" text-rendering="geometricPrecision" image-rendering="optimizeQuality" font-family="sans-serif" stroke="black" stroke-opacity="1"
    ><text x="2" xml:space="preserve" y="59" clip-path="url(#clipPath5)" stroke="none"
      >-telefone : string</text
    ></g
    ><g font-size="11px" transform="matrix(1,0,0,1,226,241)" fill-opacity="1" fill="black" text-rendering="geometricPrecision" image-rendering="optimizeQuality" font-family="sans-serif" stroke="black" stroke-opacity="1"
    ><text x="2" xml:space="preserve" y="74" clip-path="url(#clipPath5)" stroke="none"
      >-email : string</text
    ></g
    ><g font-size="11px" transform="translate(226,226)" fill-opacity="1" fill="black" text-rendering="geometricPrecision" image-rendering="optimizeQuality" font-family="sans-serif" stroke="black" font-weight="bold" stroke-opacity="1"
    ><text x="9" xml:space="preserve" y="12" clip-path="url(#clipPath6)" stroke="none"
      >Organizacao</text
    ></g
    ><g font-size="11px" transform="translate(431,232)" fill-opacity="1" fill="rgb(122,207,245)" text-rendering="geometricPrecision" image-rendering="optimizeQuality" font-family="sans-serif" stroke="rgb(122,207,245)" font-weight="bold" stroke-opacity="1"
    ><rect x="0" width="86" height="84" y="0" clip-path="url(#clipPath7)" stroke="none"
    /></g
    ><g fill-opacity="1" text-rendering="geometricPrecision" stroke="black" stroke-linecap="butt" transform="translate(431,232)" stroke-miterlimit="0" stroke-opacity="1" fill="black" font-weight="bold" font-family="sans-serif" stroke-linejoin="round" font-size="11px" image-rendering="optimizeQuality"
    ><rect fill="none" x="0" width="86" height="84" y="0" clip-path="url(#clipPath7)"
      /><line y2="15" fill="none" x1="0" clip-path="url(#clipPath7)" x2="86" y1="15"
    /></g
    ><g font-size="11px" transform="matrix(1,0,0,1,431,247)" fill-opacity="1" fill="black" text-rendering="geometricPrecision" image-rendering="optimizeQuality" font-family="sans-serif" stroke="black" stroke-opacity="1"
    ><text x="2" xml:space="preserve" y="14" clip-path="url(#clipPath8)" stroke="none"
      >-nome : string</text
    ></g
    ><g font-size="11px" transform="matrix(1,0,0,1,431,247)" fill-opacity="1" fill="black" text-rendering="geometricPrecision" image-rendering="optimizeQuality" font-family="sans-serif" stroke="black" stroke-opacity="1"
    ><text x="2" xml:space="preserve" y="29" clip-path="url(#clipPath8)" stroke="none"
      >-funcao : string</text
    ></g
    ><g font-size="11px" transform="matrix(1,0,0,1,431,247)" fill-opacity="1" fill="black" text-rendering="geometricPrecision" image-rendering="optimizeQuality" font-family="sans-serif" stroke="black" stroke-opacity="1"
    ><text x="2" xml:space="preserve" y="44" clip-path="url(#clipPath8)" stroke="none"
      >-telefone : string</text
    ></g
    ><g font-size="11px" transform="matrix(1,0,0,1,431,247)" fill-opacity="1" fill="black" text-rendering="geometricPrecision" image-rendering="optimizeQuality" font-family="sans-serif" stroke="black" stroke-opacity="1"
    ><text x="2" xml:space="preserve" y="59" clip-path="url(#clipPath8)" stroke="none"
      >-email : string</text
    ></g
    ><g font-size="11px" transform="translate(431,232)" fill-opacity="1" fill="black" text-rendering="geometricPrecision" image-rendering="optimizeQuality" font-family="sans-serif" stroke="black" font-weight="bold" stroke-opacity="1"
    ><text x="10" xml:space="preserve" y="12" clip-path="url(#clipPath6)" stroke="none"
      >Colaborador</text
    ></g
    ><g font-size="11px" transform="translate(571,76)" fill-opacity="1" fill="rgb(122,207,245)" text-rendering="geometricPrecision" image-rendering="optimizeQuality" font-family="sans-serif" stroke="rgb(122,207,245)" font-weight="bold" stroke-opacity="1"
    ><rect x="0" width="132" height="130" y="0" clip-path="url(#clipPath9)" stroke="none"
    /></g
    ><g fill-opacity="1" text-rendering="geometricPrecision" stroke="black" stroke-linecap="butt" transform="translate(571,76)" stroke-miterlimit="0" stroke-opacity="1" fill="black" font-weight="bold" font-family="sans-serif" stroke-linejoin="round" font-size="11px" image-rendering="optimizeQuality"
    ><rect fill="none" x="0" width="132" height="130" y="0" clip-path="url(#clipPath9)"
      /><line y2="15" fill="none" x1="0" clip-path="url(#clipPath9)" x2="132" y1="15"
    /></g
    ><g font-size="11px" transform="matrix(1,0,0,1,571,91)" fill-opacity="1" fill="black" text-rendering="geometricPrecision" image-rendering="optimizeQuality" font-family="sans-serif" stroke="black" stroke-opacity="1"
    ><text x="2" xml:space="preserve" y="14" clip-path="url(#clipPath10)" stroke="none"
      >-codigo : string</text
    ></g
    ><g font-size="11px" transform="matrix(1,0,0,1,571,91)" fill-opacity="1" fill="black" text-rendering="geometricPrecision" image-rendering="optimizeQuality" font-family="sans-serif" stroke="black" stroke-opacity="1"
    ><text x="2" xml:space="preserve" y="29" clip-path="url(#clipPath10)" stroke="none"
      >-design : string</text
    ></g
    ><g font-size="11px" transform="matrix(1,0,0,1,571,91)" fill-opacity="1" fill="black" text-rendering="geometricPrecision" image-rendering="optimizeQuality" font-family="sans-serif" stroke="black" stroke-opacity="1"
    ><text x="2" xml:space="preserve" y="44" clip-path="url(#clipPath10)" stroke="none"
      >-descInf : string</text
    ></g
    ><g font-size="11px" transform="matrix(1,0,0,1,571,91)" fill-opacity="1" fill="black" text-rendering="geometricPrecision" image-rendering="optimizeQuality" font-family="sans-serif" stroke="black" stroke-opacity="1"
    ><text x="2" xml:space="preserve" y="59" clip-path="url(#clipPath10)" stroke="none"
      >-descTec : string</text
    ></g
    ><g font-size="11px" transform="matrix(1,0,0,1,571,91)" fill-opacity="1" fill="black" text-rendering="geometricPrecision" image-rendering="optimizeQuality" font-family="sans-serif" stroke="black" stroke-opacity="1"
    ><text x="2" xml:space="preserve" y="74" clip-path="url(#clipPath10)" stroke="none"
      >-duracao : float</text
    ></g
    ><g font-size="11px" transform="matrix(1,0,0,1,571,91)" fill-opacity="1" fill="black" text-rendering="geometricPrecision" image-rendering="optimizeQuality" font-family="sans-serif" stroke="black" stroke-opacity="1"
    ><text x="2" xml:space="preserve" y="89" clip-path="url(#clipPath10)" stroke="none"
      >-custo : float</text
    ></g
    ><g font-size="11px" transform="matrix(1,0,0,1,571,91)" fill-opacity="1" fill="black" text-rendering="geometricPrecision" image-rendering="optimizeQuality" font-family="sans-serif" stroke="black" stroke-opacity="1"
    ><text x="2" xml:space="preserve" y="104" clip-path="url(#clipPath10)" stroke="none"
      >-colaboradorEmail : string</text
    ></g
    ><g font-size="11px" transform="translate(571,76)" fill-opacity="1" fill="black" text-rendering="geometricPrecision" image-rendering="optimizeQuality" font-family="sans-serif" stroke="black" font-weight="bold" stroke-opacity="1"
    ><text x="49" xml:space="preserve" y="12" clip-path="url(#clipPath11)" stroke="none"
      >Tarefa</text
    ></g
    ><g font-size="11px" transform="translate(746,193)" fill-opacity="1" fill="rgb(122,207,245)" text-rendering="geometricPrecision" image-rendering="optimizeQuality" font-family="sans-serif" stroke="rgb(122,207,245)" font-weight="bold" stroke-opacity="1"
    ><rect x="0" width="165" height="145" y="0" clip-path="url(#clipPath12)" stroke="none"
    /></g
    ><g fill-opacity="1" text-rendering="geometricPrecision" stroke="black" stroke-linecap="butt" transform="translate(746,193)" stroke-miterlimit="0" stroke-opacity="1" fill="black" font-weight="bold" font-family="sans-serif" stroke-linejoin="round" font-size="11px" image-rendering="optimizeQuality"
    ><rect fill="none" x="0" width="165" height="145" y="0" clip-path="url(#clipPath12)"
      /><line y2="15" fill="none" x1="0" clip-path="url(#clipPath12)" x2="165" y1="15"
    /></g
    ><g font-size="11px" transform="matrix(1,0,0,1,746,208)" fill-opacity="1" fill="black" text-rendering="geometricPrecision" image-rendering="optimizeQuality" font-family="sans-serif" stroke="black" stroke-opacity="1"
    ><text x="2" xml:space="preserve" y="14" clip-path="url(#clipPath13)" stroke="none"
      >-dataInicioPublicacao : xs:date</text
    ></g
    ><g font-size="11px" transform="matrix(1,0,0,1,746,208)" fill-opacity="1" fill="black" text-rendering="geometricPrecision" image-rendering="optimizeQuality" font-family="sans-serif" stroke="black" stroke-opacity="1"
    ><text x="2" xml:space="preserve" y="29" clip-path="url(#clipPath13)" stroke="none"
      >-dataFimPublicacao : xs:date</text
    ></g
    ><g font-size="11px" transform="matrix(1,0,0,1,746,208)" fill-opacity="1" fill="black" text-rendering="geometricPrecision" image-rendering="optimizeQuality" font-family="sans-serif" stroke="black" stroke-opacity="1"
    ><text x="2" xml:space="preserve" y="44" clip-path="url(#clipPath13)" stroke="none"
      >-dataInicioCandidatura : xs:date</text
    ></g
    ><g font-size="11px" transform="matrix(1,0,0,1,746,208)" fill-opacity="1" fill="black" text-rendering="geometricPrecision" image-rendering="optimizeQuality" font-family="sans-serif" stroke="black" stroke-opacity="1"
    ><text x="2" xml:space="preserve" y="59" clip-path="url(#clipPath13)" stroke="none"
      >-dataFimCandidatura : xs:date</text
    ></g
    ><g font-size="11px" transform="matrix(1,0,0,1,746,208)" fill-opacity="1" fill="black" text-rendering="geometricPrecision" image-rendering="optimizeQuality" font-family="sans-serif" stroke="black" stroke-opacity="1"
    ><text x="2" xml:space="preserve" y="74" clip-path="url(#clipPath13)" stroke="none"
      >-dataInicioSeriacao : xs:date</text
    ></g
    ><g font-size="11px" transform="matrix(1,0,0,1,746,208)" fill-opacity="1" fill="black" text-rendering="geometricPrecision" image-rendering="optimizeQuality" font-family="sans-serif" stroke="black" stroke-opacity="1"
    ><text x="2" xml:space="preserve" y="89" clip-path="url(#clipPath13)" stroke="none"
      >-dataFimSeriacao : xs:date</text
    ></g
    ><g font-size="11px" transform="matrix(1,0,0,1,746,208)" fill-opacity="1" fill="black" text-rendering="geometricPrecision" image-rendering="optimizeQuality" font-family="sans-serif" stroke="black" stroke-opacity="1"
    ><text x="2" xml:space="preserve" y="104" clip-path="url(#clipPath13)" stroke="none"
      >-codigoAnuncio : string</text
    ></g
    ><g font-size="11px" transform="translate(746,193)" fill-opacity="1" fill="black" text-rendering="geometricPrecision" image-rendering="optimizeQuality" font-family="sans-serif" stroke="black" font-weight="bold" stroke-opacity="1"
    ><text x="60" xml:space="preserve" y="12" clip-path="url(#clipPath14)" stroke="none"
      >Anuncio</text
    ></g
    ><g font-size="11px" transform="translate(991,238)" fill-opacity="1" fill="rgb(122,207,245)" text-rendering="geometricPrecision" image-rendering="optimizeQuality" font-family="sans-serif" stroke="rgb(122,207,245)" font-weight="bold" stroke-opacity="1"
    ><rect x="0" width="91" height="40" y="0" clip-path="url(#clipPath15)" stroke="none"
    /></g
    ><g fill-opacity="1" text-rendering="geometricPrecision" stroke="black" stroke-linecap="butt" transform="translate(991,238)" stroke-miterlimit="0" stroke-opacity="1" fill="black" font-weight="bold" font-family="sans-serif" stroke-linejoin="round" font-size="11px" image-rendering="optimizeQuality"
    ><rect fill="none" x="0" width="91" height="40" y="0" clip-path="url(#clipPath15)"
      /><line y2="30" fill="none" x1="0" clip-path="url(#clipPath15)" x2="91" y1="30"
    /></g
    ><g font-size="11px" transform="matrix(1,0,0,1,991,268)" fill-opacity="1" fill="black" text-rendering="geometricPrecision" image-rendering="optimizeQuality" font-family="sans-serif" font-style="italic" stroke="black" stroke-opacity="1"
    ><text x="2" xml:space="preserve" y="14" clip-path="url(#clipPath16)" stroke="none"
      >+regra() : string</text
    ></g
    ><g font-size="11px" transform="translate(991,238)" fill-opacity="1" fill="black" text-rendering="geometricPrecision" image-rendering="optimizeQuality" font-family="sans-serif" stroke="black" stroke-opacity="1"
    ><text x="11" xml:space="preserve" y="12" clip-path="url(#clipPath17)" stroke="none"
      >&lt;&lt;Interface&gt;&gt;</text
      ><text x="5" xml:space="preserve" y="27" clip-path="url(#clipPath17)" font-weight="bold" stroke="none"
      >TipoRegimento</text
    ></g
    ><g font-size="11px" transform="translate(299,5)" fill-opacity="1" fill="rgb(122,207,245)" text-rendering="geometricPrecision" image-rendering="optimizeQuality" font-family="sans-serif" stroke="rgb(122,207,245)" font-weight="bold" stroke-opacity="1"
    ><rect x="0" width="80" height="40" y="0" clip-path="url(#clipPath18)" stroke="none"
    /></g
    ><g fill-opacity="1" text-rendering="geometricPrecision" stroke="black" stroke-linecap="butt" transform="translate(299,5)" stroke-miterlimit="0" stroke-opacity="1" fill="black" font-weight="bold" font-family="sans-serif" stroke-linejoin="round" font-size="11px" image-rendering="optimizeQuality"
    ><rect fill="none" x="0" width="80" height="40" y="0" clip-path="url(#clipPath18)"
      /><line y2="15" fill="none" x1="0" clip-path="url(#clipPath18)" x2="80" y1="15"
    /></g
    ><g font-size="11px" transform="translate(299,5)" fill-opacity="1" fill="black" text-rendering="geometricPrecision" image-rendering="optimizeQuality" font-family="sans-serif" stroke="black" font-weight="bold" stroke-opacity="1"
    ><text x="12" xml:space="preserve" y="12" clip-path="url(#clipPath20)" stroke="none"
      >Freelancer</text
    ></g
    ><g font-size="11px" transform="translate(104,276)" fill-opacity="1" fill="black" text-rendering="geometricPrecision" image-rendering="optimizeQuality" font-family="sans-serif" stroke="black" stroke-opacity="1"
    ><text x="10" xml:space="preserve" y="12" clip-path="url(#clipPath22)" stroke="none"
      >1</text
    ></g
    ><g font-size="11px" transform="translate(208,278)" fill-opacity="1" fill="black" text-rendering="geometricPrecision" image-rendering="optimizeQuality" font-family="sans-serif" stroke="black" stroke-opacity="1"
    ><text x="10" xml:space="preserve" y="12" clip-path="url(#clipPath24)" stroke="none"
      >*</text
    ></g
    ><g font-size="11px" transform="translate(512,251)" fill-opacity="1" fill="black" text-rendering="geometricPrecision" image-rendering="optimizeQuality" font-family="sans-serif" stroke="black" stroke-opacity="1"
    ><text x="10" xml:space="preserve" y="12" clip-path="url(#clipPath22)" stroke="none"
      >1</text
    ></g
    ><g font-size="11px" transform="translate(714,268)" fill-opacity="1" fill="black" text-rendering="geometricPrecision" image-rendering="optimizeQuality" font-family="sans-serif" stroke="black" stroke-opacity="1"
    ><text x="10" xml:space="preserve" y="12" clip-path="url(#clipPath24)" stroke="none"
      >*</text
    ></g
    ><g font-size="11px" transform="translate(1011,283)" fill-opacity="1" fill="black" text-rendering="geometricPrecision" image-rendering="optimizeQuality" font-family="sans-serif" stroke="black" stroke-opacity="1"
    ><text x="10" xml:space="preserve" y="12" clip-path="url(#clipPath26)" stroke="none"
      >*</text
    ></g
    ><g font-size="11px" transform="translate(22,297)" fill-opacity="1" fill="black" text-rendering="geometricPrecision" image-rendering="optimizeQuality" font-family="sans-serif" stroke="black" stroke-opacity="1"
    ><text x="10" xml:space="preserve" y="12" clip-path="url(#clipPath28)" stroke="none"
      >1</text
    ></g
    ><g font-size="11px" transform="translate(240,195)" fill-opacity="1" fill="black" text-rendering="geometricPrecision" image-rendering="optimizeQuality" font-family="sans-serif" stroke="black" stroke-opacity="1"
    ><text x="16" xml:space="preserve" y="24" clip-path="url(#clipPath30)" stroke="none"
      >1</text
    ></g
    ><g font-size="11px" transform="translate(541,94)" fill-opacity="1" fill="black" text-rendering="geometricPrecision" image-rendering="optimizeQuality" font-family="sans-serif" stroke="black" stroke-opacity="1"
    ><text x="17" xml:space="preserve" y="24" clip-path="url(#clipPath30)" stroke="none"
      >*</text
    ></g
    ><g font-size="11px" transform="translate(18,215)" fill-opacity="1" fill="black" text-rendering="geometricPrecision" image-rendering="optimizeQuality" font-family="sans-serif" stroke="black" stroke-opacity="1"
    ><text x="16" xml:space="preserve" y="24" clip-path="url(#clipPath30)" stroke="none"
      >1</text
    ></g
    ><g font-size="11px" transform="translate(262,2)" fill-opacity="1" fill="black" text-rendering="geometricPrecision" image-rendering="optimizeQuality" font-family="sans-serif" stroke="black" stroke-opacity="1"
    ><text x="17" xml:space="preserve" y="24" clip-path="url(#clipPath30)" stroke="none"
      >*</text
    ></g
    ><g font-size="11px" transform="translate(377,18)" fill-opacity="1" fill="black" text-rendering="geometricPrecision" image-rendering="optimizeQuality" font-family="sans-serif" stroke="black" stroke-opacity="1"
    ><text x="16" xml:space="preserve" y="24" clip-path="url(#clipPath30)" stroke="none"
      >1</text
    ></g
    ><g font-size="11px" transform="translate(874,165)" fill-opacity="1" fill="black" text-rendering="geometricPrecision" image-rendering="optimizeQuality" font-family="sans-serif" stroke="black" stroke-opacity="1"
    ><text x="17" xml:space="preserve" y="24" clip-path="url(#clipPath30)" stroke="none"
      >*</text
    ></g
    ><g font-size="11px" transform="translate(310,269)" fill-opacity="1" fill="black" text-rendering="geometricPrecision" image-rendering="optimizeQuality" font-family="sans-serif" stroke="black" stroke-opacity="1"
    ><text x="7" xml:space="preserve" y="15" clip-path="url(#clipPath32)" stroke="none"
      >1</text
    ></g
    ><g font-size="11px" transform="translate(393,272)" fill-opacity="1" fill="black" text-rendering="geometricPrecision" image-rendering="optimizeQuality" font-family="sans-serif" stroke="black" stroke-opacity="1"
    ><text x="10" xml:space="preserve" y="12" clip-path="url(#clipPath34)" stroke="none"
      >1..*</text
    ></g
    ><g font-size="11px" transform="translate(341,45)" fill-opacity="1" fill="black" text-rendering="geometricPrecision" image-rendering="optimizeQuality" font-family="sans-serif" stroke="black" stroke-opacity="1"
    ><text x="10" xml:space="preserve" y="12" clip-path="url(#clipPath36)" stroke="none"
      >1</text
    ></g
    ><g font-size="11px" transform="translate(549,58)" fill-opacity="1" fill="black" text-rendering="geometricPrecision" image-rendering="optimizeQuality" font-family="sans-serif" stroke="black" stroke-opacity="1"
    ><text x="10" xml:space="preserve" y="12" clip-path="url(#clipPath24)" stroke="none"
      >*</text
    ></g
    ><g font-size="11px" transform="translate(903,230)" fill-opacity="1" fill="black" text-rendering="geometricPrecision" image-rendering="optimizeQuality" font-family="sans-serif" stroke="black" stroke-opacity="1"
    ><text x="16" xml:space="preserve" y="24" clip-path="url(#clipPath30)" stroke="none"
      >1</text
    ></g
    ><g font-size="11px" transform="translate(958,230)" fill-opacity="1" fill="black" text-rendering="geometricPrecision" image-rendering="optimizeQuality" font-family="sans-serif" stroke="black" stroke-opacity="1"
    ><text x="16" xml:space="preserve" y="24" clip-path="url(#clipPath30)" stroke="none"
      >1</text
    ></g
    ><g font-size="11px" transform="translate(708,123)" fill-opacity="1" fill="black" text-rendering="geometricPrecision" image-rendering="optimizeQuality" font-family="sans-serif" stroke="black" stroke-opacity="1"
    ><text x="10" xml:space="preserve" y="12" clip-path="url(#clipPath22)" stroke="none"
      >1</text
    ></g
    ><g font-size="11px" transform="translate(832,171)" fill-opacity="1" fill="black" text-rendering="geometricPrecision" image-rendering="optimizeQuality" font-family="sans-serif" stroke="black" stroke-opacity="1"
    ><text x="10" xml:space="preserve" y="12" clip-path="url(#clipPath22)" stroke="none"
      >1</text
    ></g
    ><g font-size="11px" transform="translate(317,232)" fill-opacity="1" fill="black" text-rendering="geometricPrecision" image-rendering="optimizeQuality" font-family="sans-serif" stroke="black" stroke-opacity="1"
    ><text x="10" xml:space="preserve" y="12" clip-path="url(#clipPath22)" stroke="none"
      >1</text
    ></g
    ><g font-size="11px" transform="translate(401,236)" fill-opacity="1" fill="black" text-rendering="geometricPrecision" image-rendering="optimizeQuality" font-family="sans-serif" stroke="black" stroke-opacity="1"
    ><text x="10" xml:space="preserve" y="12" clip-path="url(#clipPath22)" stroke="none"
      >1</text
    ></g
    ><g font-size="11px" transform="translate(445,208)" fill-opacity="1" fill="black" text-rendering="geometricPrecision" image-rendering="optimizeQuality" font-family="sans-serif" stroke="black" stroke-opacity="1"
    ><text x="10" xml:space="preserve" y="12" clip-path="url(#clipPath36)" stroke="none"
      >1</text
    ></g
    ><g font-size="11px" transform="translate(546,156)" fill-opacity="1" fill="black" text-rendering="geometricPrecision" image-rendering="optimizeQuality" font-family="sans-serif" stroke="black" stroke-opacity="1"
    ><text x="10" xml:space="preserve" y="12" clip-path="url(#clipPath26)" stroke="none"
      >*</text
    ></g
    ><g stroke-linecap="butt" font-size="11px" transform="translate(54,223)" fill-opacity="1" fill="black" text-rendering="geometricPrecision" image-rendering="optimizeQuality" font-family="sans-serif" stroke-linejoin="round" stroke="black" stroke-opacity="1"
    ><line y2="51" fill="none" x1="51" clip-path="url(#clipPath38)" x2="172" y1="50"
    /></g
    ><g stroke-linecap="butt" font-size="11px" transform="translate(240,220)" fill-opacity="1" fill="black" text-rendering="geometricPrecision" image-rendering="optimizeQuality" font-family="sans-serif" stroke-linejoin="round" stroke="black" stroke-opacity="1"
    ><line y2="72" fill="none" x1="71" clip-path="url(#clipPath40)" x2="191" y1="72"
    /></g
    ><g stroke-linecap="butt" font-size="11px" transform="translate(408,91)" fill-opacity="1" fill="black" text-rendering="geometricPrecision" image-rendering="optimizeQuality" font-family="sans-serif" stroke-linejoin="round" stroke="black" stroke-opacity="1"
    ><line y2="62" fill="none" x1="63" clip-path="url(#clipPath42)" x2="63" y1="140"
      /><line y2="62" fill="none" x1="63" clip-path="url(#clipPath42)" x2="163" y1="62"
    /></g
    ><g stroke-linecap="butt" font-size="11px" transform="translate(240,182)" fill-opacity="1" fill="black" text-rendering="geometricPrecision" image-rendering="optimizeQuality" font-family="sans-serif" stroke-linejoin="round" stroke="black" stroke-opacity="1"
    ><line y2="71" fill="none" x1="71" clip-path="url(#clipPath43)" x2="191" y1="71"
    /></g
    ><g stroke-linecap="butt" font-size="11px" transform="translate(206,57)" fill-opacity="1" fill="black" text-rendering="geometricPrecision" image-rendering="optimizeQuality" font-family="sans-serif" stroke-linejoin="round" stroke="black" stroke-opacity="1"
    ><line y2="63" fill="none" x1="62" clip-path="url(#clipPath45)" x2="62" y1="169"
      /><line y2="63" fill="none" x1="62" clip-path="url(#clipPath45)" x2="365" y1="63"
    /></g
    ><g stroke-linecap="butt" font-size="11px" transform="translate(641,57)" fill-opacity="1" fill="black" text-rendering="geometricPrecision" image-rendering="optimizeQuality" font-family="sans-serif" stroke-linejoin="round" stroke="black" stroke-opacity="1"
    ><line y2="63" fill="none" x1="62" clip-path="url(#clipPath47)" x2="187" y1="63"
      /><line y2="135" fill="none" x1="187" clip-path="url(#clipPath47)" x2="187" y1="63"
    /></g
    ><g stroke-linecap="butt" font-size="11px" transform="translate(454,205)" fill-opacity="1" fill="black" text-rendering="geometricPrecision" image-rendering="optimizeQuality" font-family="sans-serif" stroke-linejoin="round" stroke="black" stroke-opacity="1"
    ><line y2="62" fill="none" x1="63" clip-path="url(#clipPath49)" x2="292" y1="62"
    /></g
    ><g stroke-linecap="butt" font-size="11px" transform="translate(848,200)" fill-opacity="1" fill="black" text-rendering="geometricPrecision" image-rendering="optimizeQuality" font-family="sans-serif" stroke-linejoin="round" stroke="black" stroke-opacity="1"
    ><line y2="62" fill="none" x1="63" clip-path="url(#clipPath51)" x2="143" y1="62"
    /></g
    ><g stroke-linecap="butt" font-size="11px" transform="translate(-9,216)" fill-opacity="1" fill="black" text-rendering="geometricPrecision" image-rendering="optimizeQuality" font-family="sans-serif" stroke-linejoin="round" stroke="black" stroke-opacity="1"
    ><line y2="151" fill="none" x1="62" clip-path="url(#clipPath53)" x2="62" y1="77"
      /><line y2="151" fill="none" x1="62" clip-path="url(#clipPath53)" x2="1045" y1="151"
      /><line y2="62" fill="none" x1="1045" clip-path="url(#clipPath53)" x2="1045" y1="151"
    /></g
    ><g stroke-linecap="butt" font-size="11px" transform="translate(317,-34)" fill-opacity="1" fill="black" text-rendering="geometricPrecision" image-rendering="optimizeQuality" font-family="sans-serif" stroke-linejoin="round" stroke="black" stroke-opacity="1"
    ><line y2="62" fill="none" x1="62" clip-path="url(#clipPath55)" x2="565" y1="62"
      /><line y2="226" fill="none" x1="565" clip-path="url(#clipPath55)" x2="565" y1="62"
    /></g
    ><g stroke-linecap="butt" font-size="11px" transform="translate(-9,-28)" fill-opacity="1" fill="black" text-rendering="geometricPrecision" image-rendering="optimizeQuality" font-family="sans-serif" stroke-linejoin="round" stroke="black" stroke-opacity="1"
    ><line y2="63" fill="none" x1="62" clip-path="url(#clipPath57)" x2="62" y1="280"
      /><line y2="63" fill="none" x1="62" clip-path="url(#clipPath57)" x2="308" y1="63"
    /></g
    ><g stroke-linecap="butt" font-size="11px" transform="translate(277,-18)" fill-opacity="1" fill="black" text-rendering="geometricPrecision" image-rendering="optimizeQuality" font-family="sans-serif" stroke-linejoin="round" stroke="black" stroke-opacity="1"
    ><line y2="94" fill="none" x1="62" clip-path="url(#clipPath59)" x2="62" y1="63"
      /><line y2="94" fill="none" x1="62" clip-path="url(#clipPath59)" x2="294" y1="94"
    /></g
    ><g font-size="11px" transform="translate(436,68)" fill-opacity="1" fill="black" text-rendering="geometricPrecision" image-rendering="optimizeQuality" font-family="sans-serif" stroke="black" stroke-opacity="1"
    ><text x="9" xml:space="preserve" y="12" clip-path="url(#clipPath60)" stroke="none"
      >realiza</text
    ></g
    ><g font-size="11px" transform="translate(92,28)" fill-opacity="1" fill="black" text-rendering="geometricPrecision" image-rendering="optimizeQuality" font-family="sans-serif" stroke="black" stroke-opacity="1"
    ><text x="9" xml:space="preserve" y="12" clip-path="url(#clipPath61)" stroke="none"
      >tem/usa</text
    ></g
    ><g font-size="11px" transform="translate(649,17)" fill-opacity="1" fill="black" text-rendering="geometricPrecision" image-rendering="optimizeQuality" font-family="sans-serif" stroke="black" stroke-opacity="1"
    ><text x="10" xml:space="preserve" y="12" clip-path="url(#clipPath62)" stroke="none"
      >candidata-se</text
    ></g
    ><g font-size="11px" transform="translate(499,357)" fill-opacity="1" fill="black" text-rendering="geometricPrecision" image-rendering="optimizeQuality" font-family="sans-serif" stroke="black" stroke-opacity="1"
    ><text x="10" xml:space="preserve" y="13" clip-path="url(#clipPath63)" stroke="none"
      >tem</text
    ></g
    ><g font-size="11px" transform="translate(936,256)" fill-opacity="1" fill="black" text-rendering="geometricPrecision" image-rendering="optimizeQuality" font-family="sans-serif" stroke="black" stroke-opacity="1"
    ><text x="10" xml:space="preserve" y="13" clip-path="url(#clipPath64)" stroke="none"
      >tem</text
    ></g
    ><g font-size="11px" transform="translate(604,256)" fill-opacity="1" fill="black" text-rendering="geometricPrecision" image-rendering="optimizeQuality" font-family="sans-serif" stroke="black" stroke-opacity="1"
    ><text x="10" xml:space="preserve" y="13" clip-path="url(#clipPath65)" stroke="none"
      >define</text
    ></g
    ><g font-size="11px" transform="translate(738,112)" fill-opacity="1" fill="black" text-rendering="geometricPrecision" image-rendering="optimizeQuality" font-family="sans-serif" stroke="black" stroke-opacity="1"
    ><text x="10" xml:space="preserve" y="12" clip-path="url(#clipPath66)" stroke="none"
      >resulta em</text
    ></g
    ><g font-size="11px" transform="translate(437,115)" fill-opacity="1" fill="black" text-rendering="geometricPrecision" image-rendering="optimizeQuality" font-family="sans-serif" stroke="black" stroke-opacity="1"
    ><text x="10" xml:space="preserve" y="12" clip-path="url(#clipPath60)" stroke="none"
      >possui</text
    ></g
    ><g font-size="11px" transform="translate(334,236)" fill-opacity="1" fill="black" text-rendering="geometricPrecision" image-rendering="optimizeQuality" font-family="sans-serif" stroke="black" stroke-opacity="1"
    ><text x="10" xml:space="preserve" y="12" clip-path="url(#clipPath67)" stroke="none"
      >tem gestor</text
    ></g
    ><g font-size="11px" transform="translate(483,146)" fill-opacity="1" fill="black" text-rendering="geometricPrecision" image-rendering="optimizeQuality" font-family="sans-serif" stroke="black" stroke-opacity="1"
    ><text x="10" xml:space="preserve" y="14" clip-path="url(#clipPath68)" stroke="none"
      >especifica</text
    ></g
    ><g font-size="11px" transform="translate(340,283)" fill-opacity="1" fill="black" text-rendering="geometricPrecision" image-rendering="optimizeQuality" font-family="sans-serif" stroke="black" stroke-opacity="1"
    ><text x="11" xml:space="preserve" y="13" clip-path="url(#clipPath69)" stroke="none"
      >possui</text
    ></g
    ><g font-size="11px" transform="translate(115,254)" fill-opacity="1" fill="black" text-rendering="geometricPrecision" image-rendering="optimizeQuality" font-family="sans-serif" stroke="black" stroke-opacity="1"
    ><text x="10" xml:space="preserve" y="13" clip-path="url(#clipPath70)" stroke="none"
      >tem registadas</text
    ></g
    ><g font-size="8px" fill-opacity="1" fill="rgb(120,120,120)" text-rendering="geometricPrecision" image-rendering="optimizeQuality" stroke="rgb(120,120,120)" stroke-opacity="1"
    ><text x="0" xml:space="preserve" y="10" stroke="none"
      >Visual Paradigm Standard(Joel Ribeiro(Instituto Superior de Engenharia do Porto))</text
    ></g
  ></g
></svg
>
