<?xml version="1.0" encoding="UTF-8"?>
<!DOCTYPE svg PUBLIC '-//W3C//DTD SVG 1.0//EN'
          'http://www.w3.org/TR/2001/REC-SVG-20010904/DTD/svg10.dtd'>
<svg fill-opacity="0" xmlns:xlink="http://www.w3.org/1999/xlink" color-rendering="auto" color-interpolation="auto" text-rendering="auto" stroke="rgb(0,0,0)" stroke-linecap="square" width="1925" stroke-miterlimit="10" shape-rendering="auto" stroke-opacity="0" fill="rgb(0,0,0)" stroke-dasharray="none" font-weight="normal" stroke-width="1" height="1212" xmlns="http://www.w3.org/2000/svg" font-family="'Dialog'" font-style="normal" stroke-linejoin="miter" font-size="12px" stroke-dashoffset="0" image-rendering="auto"
><!--Generated by the Batik Graphics2D SVG Generator--><defs id="genericDefs"
  /><g
  ><defs id="defs1"
    ><clipPath clipPathUnits="userSpaceOnUse" id="clipPath1"
      ><path d="M-7 -7 L211 -7 L211 1218 L-7 1218 L-7 -7 Z"
      /></clipPath
      ><clipPath clipPathUnits="userSpaceOnUse" id="clipPath2"
      ><path d="M-7 -7 L163 -7 L163 1218 L-7 1218 L-7 -7 Z"
      /></clipPath
      ><clipPath clipPathUnits="userSpaceOnUse" id="clipPath3"
      ><path d="M-7 -7 L71 -7 L71 1218 L-7 1218 L-7 -7 Z"
      /></clipPath
      ><clipPath clipPathUnits="userSpaceOnUse" id="clipPath4"
      ><path d="M-7 -7 L19 -7 L19 466 L-7 466 L-7 -7 Z"
      /></clipPath
      ><clipPath clipPathUnits="userSpaceOnUse" id="clipPath5"
      ><path d="M-7 -7 L19 -7 L19 221 L-7 221 L-7 -7 Z"
      /></clipPath
      ><clipPath clipPathUnits="userSpaceOnUse" id="clipPath6"
      ><path d="M-7 -7 L19 -7 L19 133 L-7 133 L-7 -7 Z"
      /></clipPath
      ><clipPath clipPathUnits="userSpaceOnUse" id="clipPath7"
      ><path d="M-7 -7 L96 -7 L96 1218 L-7 1218 L-7 -7 Z"
      /></clipPath
      ><clipPath clipPathUnits="userSpaceOnUse" id="clipPath8"
      ><path d="M-7 -7 L137 -7 L137 1218 L-7 1218 L-7 -7 Z"
      /></clipPath
      ><clipPath clipPathUnits="userSpaceOnUse" id="clipPath9"
      ><path d="M-7 -7 L116 -7 L116 1218 L-7 1218 L-7 -7 Z"
      /></clipPath
      ><clipPath clipPathUnits="userSpaceOnUse" id="clipPath10"
      ><path d="M-7 -7 L113 -7 L113 1218 L-7 1218 L-7 -7 Z"
      /></clipPath
      ><clipPath clipPathUnits="userSpaceOnUse" id="clipPath11"
      ><path d="M-7 -7 L19 -7 L19 392 L-7 392 L-7 -7 Z"
      /></clipPath
      ><clipPath clipPathUnits="userSpaceOnUse" id="clipPath12"
      ><path d="M-7 -7 L328 -7 L328 78 L-7 78 L-7 -7 Z"
      /></clipPath
      ><clipPath clipPathUnits="userSpaceOnUse" id="clipPath13"
      ><path d="M0 0 L0 18 L25 18 L25 0 Z"
      /></clipPath
      ><clipPath clipPathUnits="userSpaceOnUse" id="clipPath14"
      ><path d="M0 0 L0 67 L317 67 L317 0 Z"
      /></clipPath
      ><clipPath clipPathUnits="userSpaceOnUse" id="clipPath15"
      ><path d="M-7 -7 L19 -7 L19 24 L-7 24 L-7 -7 Z"
      /></clipPath
      ><clipPath clipPathUnits="userSpaceOnUse" id="clipPath16"
      ><path d="M-7 -7 L716 -7 L716 75 L-7 75 L-7 -7 Z"
      /></clipPath
      ><clipPath clipPathUnits="userSpaceOnUse" id="clipPath17"
      ><path d="M0 0 L0 64 L705 64 L705 0 Z"
      /></clipPath
      ><clipPath clipPathUnits="userSpaceOnUse" id="clipPath18"
      ><path d="M-7 -7 L81 -7 L81 1218 L-7 1218 L-7 -7 Z"
      /></clipPath
      ><clipPath clipPathUnits="userSpaceOnUse" id="clipPath19"
      ><path d="M-7 -7 L124 -7 L124 1218 L-7 1218 L-7 -7 Z"
      /></clipPath
      ><clipPath clipPathUnits="userSpaceOnUse" id="clipPath20"
      ><path d="M-7 -7 L121 -7 L121 1218 L-7 1218 L-7 -7 Z"
      /></clipPath
      ><clipPath clipPathUnits="userSpaceOnUse" id="clipPath21"
      ><path d="M-7 -7 L154 -7 L154 1218 L-7 1218 L-7 -7 Z"
      /></clipPath
      ><clipPath clipPathUnits="userSpaceOnUse" id="clipPath22"
      ><path d="M-7 -7 L100 -7 L100 74 L-7 74 L-7 -7 Z"
      /></clipPath
      ><clipPath clipPathUnits="userSpaceOnUse" id="clipPath23"
      ><path d="M0 0 L0 63 L74 63 L74 0 Z"
      /></clipPath
      ><clipPath clipPathUnits="userSpaceOnUse" id="clipPath24"
      ><path d="M-7 -7 L19 -7 L19 71 L-7 71 L-7 -7 Z"
      /></clipPath
      ><clipPath clipPathUnits="userSpaceOnUse" id="clipPath25"
      ><path d="M-7 -7 L19 -7 L19 26 L-7 26 L-7 -7 Z"
      /></clipPath
      ><clipPath clipPathUnits="userSpaceOnUse" id="clipPath26"
      ><path d="M-7 -7 L19 -7 L19 28 L-7 28 L-7 -7 Z"
      /></clipPath
      ><clipPath clipPathUnits="userSpaceOnUse" id="clipPath27"
      ><path d="M-7 -7 L19 -7 L19 113 L-7 113 L-7 -7 Z"
      /></clipPath
      ><clipPath clipPathUnits="userSpaceOnUse" id="clipPath28"
      ><path d="M-7 -7 L19 -7 L19 67 L-7 67 L-7 -7 Z"
      /></clipPath
      ><clipPath clipPathUnits="userSpaceOnUse" id="clipPath29"
      ><path d="M-7 -7 L19 -7 L19 54 L-7 54 L-7 -7 Z"
      /></clipPath
      ><clipPath clipPathUnits="userSpaceOnUse" id="clipPath30"
      ><path d="M-7 -7 L19 -7 L19 116 L-7 116 L-7 -7 Z"
      /></clipPath
      ><clipPath clipPathUnits="userSpaceOnUse" id="clipPath31"
      ><path d="M-7 -7 L20 -7 L20 66 L-7 66 L-7 -7 Z"
      /></clipPath
      ><clipPath clipPathUnits="userSpaceOnUse" id="clipPath32"
      ><path d="M-7 -7 L20 -7 L20 166 L-7 166 L-7 -7 Z"
      /></clipPath
      ><clipPath clipPathUnits="userSpaceOnUse" id="clipPath33"
      ><path d="M-7 -7 L20 -7 L20 48 L-7 48 L-7 -7 Z"
      /></clipPath
      ><clipPath clipPathUnits="userSpaceOnUse" id="clipPath34"
      ><path d="M-7 -7 L20 -7 L20 99 L-7 99 L-7 -7 Z"
      /></clipPath
      ><clipPath clipPathUnits="userSpaceOnUse" id="clipPath35"
      ><path d="M-143 -15 L286 -15 L286 30 L-143 30 L-143 -15 Z"
      /></clipPath
      ><clipPath clipPathUnits="userSpaceOnUse" id="clipPath36"
      ><path d="M-110 -15 L220 -15 L220 30 L-110 30 L-110 -15 Z"
      /></clipPath
      ><clipPath clipPathUnits="userSpaceOnUse" id="clipPath37"
      ><path d="M-113 -15 L226 -15 L226 30 L-113 30 L-113 -15 Z"
      /></clipPath
      ><clipPath clipPathUnits="userSpaceOnUse" id="clipPath38"
      ><path d="M-70 -30 L140 -30 L140 60 L-70 60 L-70 -30 Z"
      /></clipPath
      ><clipPath clipPathUnits="userSpaceOnUse" id="clipPath39"
      ><path d="M-200 -15 L400 -15 L400 30 L-200 30 L-200 -15 Z"
      /></clipPath
      ><clipPath clipPathUnits="userSpaceOnUse" id="clipPath40"
      ><path d="M-152 -15 L304 -15 L304 30 L-152 30 L-152 -15 Z"
      /></clipPath
      ><clipPath clipPathUnits="userSpaceOnUse" id="clipPath41"
      ><path d="M-73 -15 L146 -15 L146 30 L-73 30 L-73 -15 Z"
      /></clipPath
      ><clipPath clipPathUnits="userSpaceOnUse" id="clipPath42"
      ><path d="M-85 -15 L170 -15 L170 30 L-85 30 L-85 -15 Z"
      /></clipPath
      ><clipPath clipPathUnits="userSpaceOnUse" id="clipPath43"
      ><path d="M-126 -30 L252 -30 L252 60 L-126 60 L-126 -30 Z"
      /></clipPath
      ><clipPath clipPathUnits="userSpaceOnUse" id="clipPath44"
      ><path d="M-105 -30 L210 -30 L210 60 L-105 60 L-105 -30 Z"
      /></clipPath
      ><clipPath clipPathUnits="userSpaceOnUse" id="clipPath45"
      ><path d="M-102 -30 L204 -30 L204 60 L-102 60 L-102 -30 Z"
      /></clipPath
      ><clipPath clipPathUnits="userSpaceOnUse" id="clipPath46"
      ><path d="M0 0 L549 0 L549 171 L0 171 L0 0 Z"
      /></clipPath
      ><clipPath clipPathUnits="userSpaceOnUse" id="clipPath47"
      ><path d="M117 32 L117 47 L44 47 L44 32 ZM340 64 L340 79 L201 79 L201 64 ZM0 0 L0 171 L549 171 L549 106 L469 106 L469 78 L549 78 L549 0 L542 0 L542 12 L390 12 L390 0 Z"
      /></clipPath
      ><clipPath clipPathUnits="userSpaceOnUse" id="clipPath48"
      ><path d="M413 40 L413 76 L136 76 L136 40 ZM371 96 L371 113 L166 113 L166 96 ZM0 0 L0 171 L549 171 L549 156 L456 156 L456 141 L549 141 L549 0 Z"
      /></clipPath
      ><clipPath clipPathUnits="userSpaceOnUse" id="clipPath49"
      ><path d="M413 5 L413 41 L136 41 L136 5 ZM371 61 L371 78 L166 78 L166 61 ZM0 0 L0 171 L549 171 L549 121 L456 121 L456 106 L549 106 L549 0 Z"
      /></clipPath
      ><clipPath clipPathUnits="userSpaceOnUse" id="clipPath50"
      ><path d="M416 53 L416 68 L140 68 L140 53 ZM370 122 L370 137 L166 137 L166 122 ZM0 0 L0 171 L549 171 L549 165 L456 165 L456 150 L549 150 L549 0 Z"
      /></clipPath
      ><clipPath clipPathUnits="userSpaceOnUse" id="clipPath51"
      ><path d="M370 64 L370 79 L166 79 L166 64 ZM0 0 L0 171 L549 171 L549 107 L456 107 L456 92 L549 92 L549 0 L416 0 L416 10 L140 10 L140 0 Z"
      /></clipPath
      ><clipPath clipPathUnits="userSpaceOnUse" id="clipPath52"
      ><path d="M383 51 L383 81 L151 81 L151 51 ZM306 133 L306 148 L230 148 L230 133 ZM0 0 L0 171 L526 171 L526 156 L549 156 L549 0 Z"
      /></clipPath
      ><clipPath clipPathUnits="userSpaceOnUse" id="clipPath53"
      ><path d="M306 63 L306 78 L230 78 L230 63 ZM0 0 L0 171 L549 171 L549 101 L526 101 L526 86 L549 86 L549 0 L383 0 L383 11 L151 11 L151 0 Z"
      /></clipPath
      ><clipPath clipPathUnits="userSpaceOnUse" id="clipPath54"
      ><path d="M353 63 L353 78 L191 78 L191 63 ZM0 0 L0 171 L549 171 L549 0 Z"
      /></clipPath
      ><clipPath clipPathUnits="userSpaceOnUse" id="clipPath55"
      ><path d="M0 0 L372 0 L372 104 L0 104 L0 0 Z"
      /></clipPath
      ><clipPath clipPathUnits="userSpaceOnUse" id="clipPath56"
      ><path d="M326 13 L326 41 L50 41 L50 13 ZM0 0 L0 104 L372 104 L372 0 Z"
      /></clipPath
      ><clipPath clipPathUnits="userSpaceOnUse" id="clipPath57"
      ><path d="M0 0 L369 0 L369 104 L0 104 L0 0 Z"
      /></clipPath
      ><clipPath clipPathUnits="userSpaceOnUse" id="clipPath58"
      ><path d="M293 13 L293 46 L63 46 L63 13 ZM0 0 L0 104 L91 104 L91 92 L369 92 L369 0 Z"
      /></clipPath
      ><clipPath clipPathUnits="userSpaceOnUse" id="clipPath59"
      ><path d="M0 0 L505 0 L505 104 L0 104 L0 0 Z"
      /></clipPath
      ><clipPath clipPathUnits="userSpaceOnUse" id="clipPath60"
      ><path d="M406 29 L406 45 L91 45 L91 29 ZM0 0 L0 104 L73 104 L73 73 L275 73 L275 104 L505 104 L505 0 Z"
      /></clipPath
      ><clipPath clipPathUnits="userSpaceOnUse" id="clipPath61"
      ><path d="M275 7 L275 42 L73 42 L73 7 ZM0 0 L0 104 L369 104 L369 0 Z"
      /></clipPath
      ><clipPath clipPathUnits="userSpaceOnUse" id="clipPath62"
      ><path d="M0 0 L371 0 L371 104 L0 104 L0 0 Z"
      /></clipPath
      ><clipPath clipPathUnits="userSpaceOnUse" id="clipPath63"
      ><path d="M326 30 L326 45 L36 45 L36 30 ZM0 0 L0 104 L371 104 L371 0 Z"
      /></clipPath
      ><clipPath clipPathUnits="userSpaceOnUse" id="clipPath64"
      ><path d="M0 0 L639 0 L639 104 L0 104 L0 0 Z"
      /></clipPath
      ><clipPath clipPathUnits="userSpaceOnUse" id="clipPath65"
      ><path d="M424 30 L424 45 L209 45 L209 30 ZM523 62 L523 79 L230 79 L230 62 ZM0 0 L0 15 L51 15 L51 30 L0 30 L0 104 L639 104 L639 0 Z"
      /></clipPath
      ><clipPath clipPathUnits="userSpaceOnUse" id="clipPath66"
      ><path d="M0 0 L760 0 L760 104 L0 104 L0 0 Z"
      /></clipPath
      ><clipPath clipPathUnits="userSpaceOnUse" id="clipPath67"
      ><path d="M523 29 L523 46 L230 46 L230 29 ZM0 0 L0 104 L760 104 L760 89 L663 89 L663 74 L760 74 L760 0 L424 0 L424 12 L209 12 L209 0 Z"
      /></clipPath
      ><clipPath clipPathUnits="userSpaceOnUse" id="clipPath68"
      ><path d="M0 0 L376 0 L376 171 L0 171 L0 0 Z"
      /></clipPath
      ><clipPath clipPathUnits="userSpaceOnUse" id="clipPath69"
      ><path d="M335 63 L335 78 L32 78 L32 63 ZM0 0 L0 171 L376 171 L376 0 Z"
      /></clipPath
      ><clipPath clipPathUnits="userSpaceOnUse" id="clipPath70"
      ><path d="M0 0 L370 0 L370 104 L0 104 L0 0 Z"
      /></clipPath
      ><clipPath clipPathUnits="userSpaceOnUse" id="clipPath71"
      ><path d="M325 30 L325 45 L36 45 L36 30 ZM0 0 L0 104 L370 104 L370 0 Z"
      /></clipPath
      ><clipPath clipPathUnits="userSpaceOnUse" id="clipPath72"
      ><path d="M0 0 L761 0 L761 104 L0 104 L0 0 Z"
      /></clipPath
      ><clipPath clipPathUnits="userSpaceOnUse" id="clipPath73"
      ><path d="M527 30 L527 45 L229 45 L229 30 ZM0 0 L0 104 L761 104 L761 38 L726 38 L726 23 L761 23 L761 0 Z"
      /></clipPath
      ><clipPath clipPathUnits="userSpaceOnUse" id="clipPath74"
      ><path d="M0 0 L377 0 L377 171 L0 171 L0 0 Z"
      /></clipPath
      ><clipPath clipPathUnits="userSpaceOnUse" id="clipPath75"
      ><path d="M0 0 L0 171 L377 171 L377 166 L325 166 L325 151 L377 151 L377 106 L268 106 L268 91 L377 91 L377 61 L95 61 L95 46 L377 46 L377 0 Z"
      /></clipPath
      ><clipPath clipPathUnits="userSpaceOnUse" id="clipPath76"
      ><path d="M0 0 L434 0 L434 171 L0 171 L0 0 Z"
      /></clipPath
      ><clipPath clipPathUnits="userSpaceOnUse" id="clipPath77"
      ><path d="M370 63 L370 78 L53 78 L53 63 ZM328 123 L328 138 L110 138 L110 123 ZM0 0 L0 18 L186 18 L186 33 L0 33 L0 171 L434 171 L434 0 Z"
      /></clipPath
      ><clipPath clipPathUnits="userSpaceOnUse" id="clipPath78"
      ><path d="M0 0 L197 0 L197 191 L0 191 L0 0 Z"
      /></clipPath
      ><clipPath clipPathUnits="userSpaceOnUse" id="clipPath79"
      ><path d="M0 0 L0 177 L76 177 L76 191 L197 191 L197 98 L110 98 L110 83 L197 83 L197 38 L53 38 L53 23 L197 23 L197 0 Z"
      /></clipPath
      ><clipPath clipPathUnits="userSpaceOnUse" id="clipPath80"
      ><path d="M256 30 L256 45 L107 45 L107 30 ZM0 0 L0 104 L372 104 L372 0 Z"
      /></clipPath
      ><clipPath clipPathUnits="userSpaceOnUse" id="clipPath81"
      ><path d="M483 30 L483 45 L273 45 L273 30 ZM0 0 L0 104 L760 104 L760 61 L703 61 L703 46 L760 46 L760 0 Z"
      /></clipPath
      ><clipPath clipPathUnits="userSpaceOnUse" id="clipPath82"
      ><path d="M290 64 L290 79 L72 79 L72 64 ZM0 0 L0 171 L376 171 L376 169 L324 169 L324 154 L376 154 L376 122 L324 122 L324 107 L376 107 L376 0 Z"
      /></clipPath
      ><clipPath clipPathUnits="userSpaceOnUse" id="clipPath83"
      ><path d="M0 0 L0 40 L76 40 L76 55 L0 55 L0 191 L197 191 L197 145 L110 145 L110 130 L197 130 L197 98 L110 98 L110 83 L197 83 L197 0 Z"
      /></clipPath
      ><clipPath clipPathUnits="userSpaceOnUse" id="clipPath84"
      ><path d="M76 0 L76 9 L0 9 L0 191 L197 191 L197 99 L110 99 L110 84 L197 84 L197 52 L110 52 L110 37 L197 37 L197 0 Z"
      /></clipPath
      ><clipPath clipPathUnits="userSpaceOnUse" id="clipPath85"
      ><path d="M-261 -15 L522 -15 L522 30 L-261 30 L-261 -15 Z"
      /></clipPath
      ><clipPath clipPathUnits="userSpaceOnUse" id="clipPath86"
      ><path d="M-218 -15 L436 -15 L436 30 L-218 30 L-218 -15 Z"
      /></clipPath
      ><clipPath clipPathUnits="userSpaceOnUse" id="clipPath87"
      ><path d="M-210 -15 L420 -15 L420 30 L-210 30 L-210 -15 Z"
      /></clipPath
      ><clipPath clipPathUnits="userSpaceOnUse" id="clipPath88"
      ><path d="M-149 -15 L298 -15 L298 30 L-149 30 L-149 -15 Z"
      /></clipPath
      ><clipPath clipPathUnits="userSpaceOnUse" id="clipPath89"
      ><path d="M-317 -15 L634 -15 L634 30 L-317 30 L-317 -15 Z"
      /></clipPath
      ><clipPath clipPathUnits="userSpaceOnUse" id="clipPath90"
      ><path d="M-306 -15 L612 -15 L612 30 L-306 30 L-306 -15 Z"
      /></clipPath
      ><clipPath clipPathUnits="userSpaceOnUse" id="clipPath91"
      ><path d="M-298 -15 L596 -15 L596 30 L-298 30 L-298 -15 Z"
      /></clipPath
      ><clipPath clipPathUnits="userSpaceOnUse" id="clipPath92"
      ><path d="M-289 -15 L578 -15 L578 30 L-289 30 L-289 -15 Z"
      /></clipPath
      ><clipPath clipPathUnits="userSpaceOnUse" id="clipPath93"
      ><path d="M-303 -15 L606 -15 L606 30 L-303 30 L-303 -15 Z"
      /></clipPath
      ><clipPath clipPathUnits="userSpaceOnUse" id="clipPath94"
      ><path d="M-293 -17 L586 -17 L586 34 L-293 34 L-293 -17 Z"
      /></clipPath
      ><clipPath clipPathUnits="userSpaceOnUse" id="clipPath95"
      ><path d="M-215 -15 L430 -15 L430 30 L-215 30 L-215 -15 Z"
      /></clipPath
      ><clipPath clipPathUnits="userSpaceOnUse" id="clipPath96"
      ><path d="M-290 -15 L580 -15 L580 30 L-290 30 L-290 -15 Z"
      /></clipPath
      ><clipPath clipPathUnits="userSpaceOnUse" id="clipPath97"
      ><path d="M-202 -35 L404 -35 L404 70 L-202 70 L-202 -35 Z"
      /></clipPath
      ><clipPath clipPathUnits="userSpaceOnUse" id="clipPath98"
      ><path d="M-315 -16 L630 -16 L630 32 L-315 32 L-315 -16 Z"
      /></clipPath
      ><clipPath clipPathUnits="userSpaceOnUse" id="clipPath99"
      ><path d="M-230 -33 L460 -33 L460 66 L-230 66 L-230 -33 Z"
      /></clipPath
      ><clipPath clipPathUnits="userSpaceOnUse" id="clipPath100"
      ><path d="M-276 -28 L552 -28 L552 56 L-276 56 L-276 -28 Z"
      /></clipPath
      ><clipPath clipPathUnits="userSpaceOnUse" id="clipPath101"
      ><path d="M-162 -15 L324 -15 L324 30 L-162 30 L-162 -15 Z"
      /></clipPath
      ><clipPath clipPathUnits="userSpaceOnUse" id="clipPath102"
      ><path d="M-76 -15 L152 -15 L152 30 L-76 30 L-76 -15 Z"
      /></clipPath
      ><clipPath clipPathUnits="userSpaceOnUse" id="clipPath103"
      ><path d="M-232 -30 L464 -30 L464 60 L-232 60 L-232 -30 Z"
      /></clipPath
      ><clipPath clipPathUnits="userSpaceOnUse" id="clipPath104"
      ><path d="M-204 -15 L408 -15 L408 30 L-204 30 L-204 -15 Z"
      /></clipPath
      ><clipPath clipPathUnits="userSpaceOnUse" id="clipPath105"
      ><path d="M-276 -15 L552 -15 L552 30 L-276 30 L-276 -15 Z"
      /></clipPath
      ><clipPath clipPathUnits="userSpaceOnUse" id="clipPath106"
      ><path d="M-205 -17 L410 -17 L410 34 L-205 34 L-205 -17 Z"
      /></clipPath
      ><clipPath clipPathUnits="userSpaceOnUse" id="clipPath107"
      ><path d="M-277 -36 L554 -36 L554 72 L-277 72 L-277 -36 Z"
      /></clipPath
      ><clipPath clipPathUnits="userSpaceOnUse" id="clipPath108"
      ><path d="M-139 -15 L278 -15 L278 30 L-139 30 L-139 -15 Z"
      /></clipPath
    ></defs
    ><g fill="white" text-rendering="geometricPrecision" fill-opacity="1" stroke-opacity="1" stroke="white"
    ><rect x="0" width="1925" height="1212" y="0" stroke="none"
    /></g
    ><g font-size="11px" transform="translate(599,2)" fill-opacity="1" fill="rgb(122,207,245)" text-rendering="geometricPrecision" image-rendering="optimizeQuality" font-family="sans-serif" stroke="rgb(122,207,245)" stroke-opacity="1"
    ><rect x="0" width="199" height="35" y="0" clip-path="url(#clipPath1)" stroke="none"
    /></g
    ><g stroke-linecap="butt" font-size="11px" transform="translate(599,2)" fill-opacity="1" fill="black" text-rendering="geometricPrecision" image-rendering="optimizeQuality" font-family="sans-serif" stroke-linejoin="round" stroke="black" stroke-opacity="1" stroke-miterlimit="0"
    ><rect fill="none" x="0" width="199" height="35" y="0" clip-path="url(#clipPath1)"
      /><line clip-path="url(#clipPath1)" fill="none" x1="99" x2="99" y1="35" y2="432" stroke-linejoin="bevel" stroke-dasharray="8,3"
      /><line clip-path="url(#clipPath1)" fill="none" x1="99" x2="99" y1="496" y2="1207" stroke-linejoin="bevel" stroke-dasharray="8,3"
    /></g
    ><g font-size="11px" transform="translate(348,2)" fill-opacity="1" fill="rgb(122,207,245)" text-rendering="geometricPrecision" image-rendering="optimizeQuality" font-family="sans-serif" stroke="rgb(122,207,245)" stroke-opacity="1"
    ><rect x="0" width="151" height="35" y="0" clip-path="url(#clipPath2)" stroke="none"
    /></g
    ><g stroke-linecap="butt" font-size="11px" transform="translate(348,2)" fill-opacity="1" fill="black" text-rendering="geometricPrecision" image-rendering="optimizeQuality" font-family="sans-serif" stroke-linejoin="round" stroke="black" stroke-opacity="1" stroke-miterlimit="0"
    ><rect fill="none" x="0" width="151" height="35" y="0" clip-path="url(#clipPath2)"
      /><line clip-path="url(#clipPath2)" fill="none" x1="75" x2="75" y1="35" y2="1207" stroke-linejoin="bevel" stroke-dasharray="8,3"
    /></g
    ><g font-size="11px" transform="translate(8,2)" fill-opacity="1" fill="rgb(122,207,245)" text-rendering="geometricPrecision" image-rendering="optimizeQuality" font-family="sans-serif" stroke="rgb(122,207,245)" stroke-opacity="1"
    ><circle r="5" clip-path="url(#clipPath3)" cx="30" cy="5" stroke="none"
      /><rect x="26" width="8" height="1156" y="50" clip-path="url(#clipPath3)" stroke="none"
    /></g
    ><g stroke-linecap="butt" font-size="11px" transform="translate(8,2)" fill-opacity="1" fill="black" text-rendering="geometricPrecision" image-rendering="optimizeQuality" font-family="sans-serif" stroke-linejoin="round" stroke="black" stroke-opacity="1" stroke-miterlimit="0"
    ><circle fill="none" r="5" clip-path="url(#clipPath3)" cx="30" cy="5"
      /><rect fill="none" x="26" width="8" height="1156" y="50" clip-path="url(#clipPath3)"
      /><line y2="25" fill="none" x1="30" clip-path="url(#clipPath3)" x2="30" y1="10"
      /><line y2="36" fill="none" x1="30" clip-path="url(#clipPath3)" x2="21" y1="25"
      /><line y2="36" fill="none" x1="30" clip-path="url(#clipPath3)" x2="39" y1="25"
      /><line y2="16" fill="none" x1="21" clip-path="url(#clipPath3)" x2="39" y1="16"
    /></g
    ><g font-size="11px" transform="translate(419,87)" fill-opacity="1" fill="rgb(122,207,245)" text-rendering="geometricPrecision" image-rendering="optimizeQuality" font-family="sans-serif" stroke="rgb(122,207,245)" stroke-opacity="1"
    ><rect x="0" width="8" height="455" y="0" clip-path="url(#clipPath4)" stroke="none"
    /></g
    ><g stroke-linecap="butt" font-size="11px" transform="translate(419,87)" fill-opacity="1" fill="black" text-rendering="geometricPrecision" image-rendering="optimizeQuality" font-family="sans-serif" stroke-linejoin="round" stroke="black" stroke-opacity="1" stroke-miterlimit="0"
    ><rect fill="none" x="0" width="8" height="455" y="0" clip-path="url(#clipPath4)"
    /></g
    ><g font-size="11px" transform="translate(420,565)" fill-opacity="1" fill="rgb(122,207,245)" text-rendering="geometricPrecision" image-rendering="optimizeQuality" font-family="sans-serif" stroke="rgb(122,207,245)" stroke-opacity="1"
    ><rect x="0" width="8" height="210" y="0" clip-path="url(#clipPath5)" stroke="none"
    /></g
    ><g stroke-linecap="butt" font-size="11px" transform="translate(420,565)" fill-opacity="1" fill="black" text-rendering="geometricPrecision" image-rendering="optimizeQuality" font-family="sans-serif" stroke-linejoin="round" stroke="black" stroke-opacity="1" stroke-miterlimit="0"
    ><rect fill="none" x="0" width="8" height="210" y="0" clip-path="url(#clipPath5)"
    /></g
    ><g font-size="11px" transform="translate(419,1014)" fill-opacity="1" fill="rgb(122,207,245)" text-rendering="geometricPrecision" image-rendering="optimizeQuality" font-family="sans-serif" stroke="rgb(122,207,245)" stroke-opacity="1"
    ><rect x="0" width="8" height="122" y="0" clip-path="url(#clipPath6)" stroke="none"
    /></g
    ><g stroke-linecap="butt" font-size="11px" transform="translate(419,1014)" fill-opacity="1" fill="black" text-rendering="geometricPrecision" image-rendering="optimizeQuality" font-family="sans-serif" stroke-linejoin="round" stroke="black" stroke-opacity="1" stroke-miterlimit="0"
    ><rect fill="none" x="0" width="8" height="122" y="0" clip-path="url(#clipPath6)"
    /></g
    ><g font-size="11px" transform="translate(930,2)" fill-opacity="1" fill="rgb(122,207,245)" text-rendering="geometricPrecision" image-rendering="optimizeQuality" font-family="sans-serif" stroke="rgb(122,207,245)" stroke-opacity="1"
    ><rect x="0" width="84" height="35" y="0" clip-path="url(#clipPath7)" stroke="none"
    /></g
    ><g stroke-linecap="butt" font-size="11px" transform="translate(930,2)" fill-opacity="1" fill="black" text-rendering="geometricPrecision" image-rendering="optimizeQuality" font-family="sans-serif" stroke-linejoin="round" stroke="black" stroke-opacity="1" stroke-miterlimit="0"
    ><rect fill="none" x="0" width="84" height="35" y="0" clip-path="url(#clipPath7)"
      /><line clip-path="url(#clipPath7)" fill="none" x1="42" x2="42" y1="35" y2="432" stroke-linejoin="bevel" stroke-dasharray="8,3"
      /><line clip-path="url(#clipPath7)" fill="none" x1="42" x2="42" y1="496" y2="1207" stroke-linejoin="bevel" stroke-dasharray="8,3"
    /></g
    ><g font-size="11px" transform="translate(1045,2)" fill-opacity="1" fill="rgb(122,207,245)" text-rendering="geometricPrecision" image-rendering="optimizeQuality" font-family="sans-serif" stroke="rgb(122,207,245)" stroke-opacity="1"
    ><rect x="0" width="125" height="35" y="0" clip-path="url(#clipPath8)" stroke="none"
    /></g
    ><g stroke-linecap="butt" font-size="11px" transform="translate(1045,2)" fill-opacity="1" fill="black" text-rendering="geometricPrecision" image-rendering="optimizeQuality" font-family="sans-serif" stroke-linejoin="round" stroke="black" stroke-opacity="1" stroke-miterlimit="0"
    ><rect fill="none" x="0" width="125" height="35" y="0" clip-path="url(#clipPath8)"
      /><line clip-path="url(#clipPath8)" fill="none" x1="62" x2="62" y1="35" y2="432" stroke-linejoin="bevel" stroke-dasharray="8,3"
      /><line clip-path="url(#clipPath8)" fill="none" x1="62" x2="62" y1="496" y2="1207" stroke-linejoin="bevel" stroke-dasharray="8,3"
    /></g
    ><g font-size="11px" transform="translate(1190,2)" fill-opacity="1" fill="rgb(122,207,245)" text-rendering="geometricPrecision" image-rendering="optimizeQuality" font-family="sans-serif" stroke="rgb(122,207,245)" stroke-opacity="1"
    ><rect x="0" width="104" height="35" y="0" clip-path="url(#clipPath9)" stroke="none"
    /></g
    ><g stroke-linecap="butt" font-size="11px" transform="translate(1190,2)" fill-opacity="1" fill="black" text-rendering="geometricPrecision" image-rendering="optimizeQuality" font-family="sans-serif" stroke-linejoin="round" stroke="black" stroke-opacity="1" stroke-miterlimit="0"
    ><rect fill="none" x="0" width="104" height="35" y="0" clip-path="url(#clipPath9)"
      /><line clip-path="url(#clipPath9)" fill="none" x1="52" x2="52" y1="35" y2="432" stroke-linejoin="bevel" stroke-dasharray="8,3"
      /><line clip-path="url(#clipPath9)" fill="none" x1="52" x2="52" y1="496" y2="1207" stroke-linejoin="bevel" stroke-dasharray="8,3"
    /></g
    ><g font-size="11px" transform="translate(1312,2)" fill-opacity="1" fill="rgb(122,207,245)" text-rendering="geometricPrecision" image-rendering="optimizeQuality" font-family="sans-serif" stroke="rgb(122,207,245)" stroke-opacity="1"
    ><rect x="0" width="101" height="35" y="0" clip-path="url(#clipPath10)" stroke="none"
    /></g
    ><g stroke-linecap="butt" font-size="11px" transform="translate(1312,2)" fill-opacity="1" fill="black" text-rendering="geometricPrecision" image-rendering="optimizeQuality" font-family="sans-serif" stroke-linejoin="round" stroke="black" stroke-opacity="1" stroke-miterlimit="0"
    ><rect fill="none" x="0" width="101" height="35" y="0" clip-path="url(#clipPath10)"
      /><line clip-path="url(#clipPath10)" fill="none" x1="50" x2="50" y1="35" y2="1207" stroke-linejoin="bevel" stroke-dasharray="8,3"
    /></g
    ><g font-size="11px" transform="translate(695,119)" fill-opacity="1" fill="rgb(122,207,245)" text-rendering="geometricPrecision" image-rendering="optimizeQuality" font-family="sans-serif" stroke="rgb(122,207,245)" stroke-opacity="1"
    ><rect x="0" width="8" height="381" y="0" clip-path="url(#clipPath11)" stroke="none"
    /></g
    ><g stroke-linecap="butt" font-size="11px" transform="translate(695,119)" fill-opacity="1" fill="black" text-rendering="geometricPrecision" image-rendering="optimizeQuality" font-family="sans-serif" stroke-linejoin="round" stroke="black" stroke-opacity="1" stroke-miterlimit="0"
    ><rect fill="none" x="0" width="8" height="381" y="0" clip-path="url(#clipPath11)"
    /></g
    ><g stroke-linecap="butt" font-size="11px" transform="translate(675,153)" fill-opacity="1" fill="black" text-rendering="geometricPrecision" image-rendering="optimizeQuality" font-family="sans-serif" stroke-linejoin="round" stroke="black" stroke-opacity="1" stroke-miterlimit="0"
    ><rect fill="none" x="0" width="317" height="67" y="0" clip-path="url(#clipPath12)"
      /><path fill="none" d="M24 0 L24 9 L18 17 L0 17" clip-path="url(#clipPath12)"
    /></g
    ><g font-size="11px" transform="translate(675,153)" fill-opacity="1" fill="black" text-rendering="geometricPrecision" image-rendering="optimizeQuality" font-family="sans-serif" stroke="black" font-weight="bold" stroke-opacity="1"
    ><text x="5" xml:space="preserve" y="12" clip-path="url(#clipPath13)" stroke="none"
      >ref</text
    ></g
    ><g font-size="11px" transform="translate(675,153)" fill-opacity="1" fill="black" text-rendering="geometricPrecision" image-rendering="optimizeQuality" font-family="sans-serif" stroke="black" stroke-opacity="1"
    ><text x="104" xml:space="preserve" y="38" clip-path="url(#clipPath14)" stroke="none"
      >IUC_getEmailByLogin</text
    ></g
    ><g font-size="11px" transform="translate(968,283)" fill-opacity="1" fill="rgb(122,207,245)" text-rendering="geometricPrecision" image-rendering="optimizeQuality" font-family="sans-serif" stroke="rgb(122,207,245)" stroke-opacity="1"
    ><rect x="0" width="8" height="13" y="0" clip-path="url(#clipPath15)" stroke="none"
    /></g
    ><g stroke-linecap="butt" font-size="11px" transform="translate(968,283)" fill-opacity="1" fill="black" text-rendering="geometricPrecision" image-rendering="optimizeQuality" font-family="sans-serif" stroke-linejoin="round" stroke="black" stroke-opacity="1" stroke-miterlimit="0"
    ><rect fill="none" x="0" width="8" height="13" y="0" clip-path="url(#clipPath15)"
    /></g
    ><g font-size="11px" transform="translate(1104,347)" fill-opacity="1" fill="rgb(122,207,245)" text-rendering="geometricPrecision" image-rendering="optimizeQuality" font-family="sans-serif" stroke="rgb(122,207,245)" stroke-opacity="1"
    ><rect x="0" width="8" height="13" y="0" clip-path="url(#clipPath15)" stroke="none"
    /></g
    ><g stroke-linecap="butt" font-size="11px" transform="translate(1104,347)" fill-opacity="1" fill="black" text-rendering="geometricPrecision" image-rendering="optimizeQuality" font-family="sans-serif" stroke-linejoin="round" stroke="black" stroke-opacity="1" stroke-miterlimit="0"
    ><rect fill="none" x="0" width="8" height="13" y="0" clip-path="url(#clipPath15)"
    /></g
    ><g font-size="11px" transform="translate(968,412)" fill-opacity="1" fill="rgb(122,207,245)" text-rendering="geometricPrecision" image-rendering="optimizeQuality" font-family="sans-serif" stroke="rgb(122,207,245)" stroke-opacity="1"
    ><rect x="0" width="8" height="13" y="0" clip-path="url(#clipPath15)" stroke="none"
    /></g
    ><g stroke-linecap="butt" font-size="11px" transform="translate(968,412)" fill-opacity="1" fill="black" text-rendering="geometricPrecision" image-rendering="optimizeQuality" font-family="sans-serif" stroke-linejoin="round" stroke="black" stroke-opacity="1" stroke-miterlimit="0"
    ><rect fill="none" x="0" width="8" height="13" y="0" clip-path="url(#clipPath15)"
    /></g
    ><g stroke-linecap="butt" font-size="11px" transform="translate(653,434)" fill-opacity="1" fill="black" text-rendering="geometricPrecision" image-rendering="optimizeQuality" font-family="sans-serif" stroke-linejoin="round" stroke="black" stroke-opacity="1" stroke-miterlimit="0"
    ><rect fill="none" x="0" width="705" height="64" y="0" clip-path="url(#clipPath16)"
      /><path fill="none" d="M24 0 L24 9 L18 17 L0 17" clip-path="url(#clipPath16)"
    /></g
    ><g font-size="11px" transform="translate(653,434)" fill-opacity="1" fill="black" text-rendering="geometricPrecision" image-rendering="optimizeQuality" font-family="sans-serif" stroke="black" font-weight="bold" stroke-opacity="1"
    ><text x="5" xml:space="preserve" y="12" clip-path="url(#clipPath13)" stroke="none"
      >ref</text
    ></g
    ><g font-size="11px" transform="translate(653,434)" fill-opacity="1" fill="black" text-rendering="geometricPrecision" image-rendering="optimizeQuality" font-family="sans-serif" stroke="black" stroke-opacity="1"
    ><text x="257" xml:space="preserve" y="36" clip-path="url(#clipPath17)" stroke="none"
      >IUC_getListCandidaturasByFreelancer</text
    ></g
    ><g font-size="11px" transform="translate(1432,2)" fill-opacity="1" fill="rgb(122,207,245)" text-rendering="geometricPrecision" image-rendering="optimizeQuality" font-family="sans-serif" stroke="rgb(122,207,245)" stroke-opacity="1"
    ><rect x="0" width="69" height="35" y="0" clip-path="url(#clipPath18)" stroke="none"
    /></g
    ><g stroke-linecap="butt" font-size="11px" transform="translate(1432,2)" fill-opacity="1" fill="black" text-rendering="geometricPrecision" image-rendering="optimizeQuality" font-family="sans-serif" stroke-linejoin="round" stroke="black" stroke-opacity="1" stroke-miterlimit="0"
    ><rect fill="none" x="0" width="69" height="35" y="0" clip-path="url(#clipPath18)"
      /><line clip-path="url(#clipPath18)" fill="none" x1="34" x2="34" y1="35" y2="1207" stroke-linejoin="bevel" stroke-dasharray="8,3"
    /></g
    ><g font-size="11px" transform="translate(1520,2)" fill-opacity="1" fill="rgb(122,207,245)" text-rendering="geometricPrecision" image-rendering="optimizeQuality" font-family="sans-serif" stroke="rgb(122,207,245)" stroke-opacity="1"
    ><rect x="0" width="112" height="35" y="0" clip-path="url(#clipPath19)" stroke="none"
    /></g
    ><g stroke-linecap="butt" font-size="11px" transform="translate(1520,2)" fill-opacity="1" fill="black" text-rendering="geometricPrecision" image-rendering="optimizeQuality" font-family="sans-serif" stroke-linejoin="round" stroke="black" stroke-opacity="1" stroke-miterlimit="0"
    ><rect fill="none" x="0" width="112" height="35" y="0" clip-path="url(#clipPath19)"
      /><line clip-path="url(#clipPath19)" fill="none" x1="56" x2="56" y1="35" y2="1207" stroke-linejoin="bevel" stroke-dasharray="8,3"
    /></g
    ><g font-size="11px" transform="translate(1650,2)" fill-opacity="1" fill="rgb(122,207,245)" text-rendering="geometricPrecision" image-rendering="optimizeQuality" font-family="sans-serif" stroke="rgb(122,207,245)" stroke-opacity="1"
    ><rect x="0" width="109" height="35" y="0" clip-path="url(#clipPath20)" stroke="none"
    /></g
    ><g stroke-linecap="butt" font-size="11px" transform="translate(1650,2)" fill-opacity="1" fill="black" text-rendering="geometricPrecision" image-rendering="optimizeQuality" font-family="sans-serif" stroke-linejoin="round" stroke="black" stroke-opacity="1" stroke-miterlimit="0"
    ><rect fill="none" x="0" width="109" height="35" y="0" clip-path="url(#clipPath20)"
      /><line clip-path="url(#clipPath20)" fill="none" x1="54" x2="54" y1="35" y2="1207" stroke-linejoin="bevel" stroke-dasharray="8,3"
    /></g
    ><g font-size="11px" transform="translate(1778,2)" fill-opacity="1" fill="rgb(122,207,245)" text-rendering="geometricPrecision" image-rendering="optimizeQuality" font-family="sans-serif" stroke="rgb(122,207,245)" stroke-opacity="1"
    ><rect x="0" width="142" height="35" y="0" clip-path="url(#clipPath21)" stroke="none"
    /></g
    ><g stroke-linecap="butt" font-size="11px" transform="translate(1778,2)" fill-opacity="1" fill="black" text-rendering="geometricPrecision" image-rendering="optimizeQuality" font-family="sans-serif" stroke-linejoin="round" stroke="black" stroke-opacity="1" stroke-miterlimit="0"
    ><rect fill="none" x="0" width="142" height="35" y="0" clip-path="url(#clipPath21)"
      /><line clip-path="url(#clipPath21)" fill="none" x1="71" x2="71" y1="35" y2="1207" stroke-linejoin="bevel" stroke-dasharray="8,3"
    /></g
    ><g transform="translate(1542,70)" fill-opacity="1" fill="rgb(122,207,245)" text-rendering="geometricPrecision" image-rendering="optimizeQuality" font-family="sans-serif" stroke="rgb(122,207,245)" stroke-opacity="1"
    ><polygon points=" 0 0 73 0 88 15 73 15 73 0 88 15 88 62 0 62" stroke="none" clip-path="url(#clipPath22)"
    /></g
    ><g stroke-linecap="butt" transform="translate(1542,70)" fill-opacity="1" fill="black" text-rendering="geometricPrecision" image-rendering="optimizeQuality" font-family="sans-serif" stroke-linejoin="round" stroke="black" stroke-opacity="1" stroke-miterlimit="0"
    ><polygon fill="none" points=" 0 0 73 0 88 15 73 15 73 0 88 15 88 62 0 62" clip-path="url(#clipPath22)"
    /></g
    ><g font-size="11px" transform="translate(1542,70)" fill-opacity="1" fill="black" text-rendering="geometricPrecision" image-rendering="optimizeQuality" font-family="'Tahoma'" stroke="black" stroke-opacity="1"
    ><path d="M3.5781 11.2695 Q3.5781 9.1289 4.7188 7.9258 Q5.875 6.707 7.6875 6.707 Q8.8906 6.707 9.8438 7.2852 Q10.7969 7.8477 11.2969 8.8633 Q11.7969 9.8789 11.7969 11.1758 Q11.7969 12.4727 11.2656 13.5039 Q10.7344 14.5352 9.7656 15.0664 Q8.8125 15.5977 7.6875 15.5977 Q6.4688 15.5977 5.5156 15.0195 Q4.5625 14.4258 4.0625 13.4258 Q3.5781 12.4102 3.5781 11.2695 ZM4.75 11.2852 Q4.75 12.8477 5.5781 13.7383 Q6.4219 14.6289 7.6875 14.6289 Q8.9688 14.6289 9.7969 13.7383 Q10.625 12.832 10.625 11.1602 Q10.625 10.1133 10.2656 9.332 Q9.9219 8.5508 9.2344 8.1289 Q8.5469 7.6914 7.7031 7.6914 Q6.5 7.6914 5.625 8.5195 Q4.75 9.3477 4.75 11.2852 ZM13.7656 15.457 L12.7812 15.457 L12.7812 6.8633 L13.8438 6.8633 L13.8438 9.9258 Q14.5156 9.0977 15.5469 9.0977 Q16.125 9.0977 16.625 9.332 Q17.1406 9.5508 17.4688 9.9727 Q17.8125 10.3945 18 10.9883 Q18.1875 11.582 18.1875 12.2539 Q18.1875 13.8477 17.3906 14.7227 Q16.5938 15.5977 15.5 15.5977 Q14.3906 15.5977 13.7656 14.6758 L13.7656 15.457 ZM13.75 12.3008 Q13.75 13.4102 14.0625 13.9102 Q14.5625 14.7227 15.4062 14.7227 Q16.0938 14.7227 16.5938 14.1289 Q17.1094 13.5352 17.1094 12.332 Q17.1094 11.1133 16.625 10.5352 Q16.1406 9.957 15.4531 9.957 Q14.7656 9.957 14.25 10.5664 Q13.75 11.1602 13.75 12.3008 ZM19.7812 8.0977 L19.7812 6.8633 L20.8438 6.8633 L20.8438 8.0977 L19.7812 8.0977 ZM18.4531 17.8789 L18.6406 16.9727 Q18.9688 17.0508 19.1406 17.0508 Q19.4688 17.0508 19.625 16.832 Q19.7812 16.6289 19.7812 15.7695 L19.7812 9.2383 L20.8438 9.2383 L20.8438 15.8008 Q20.8438 16.9414 20.5469 17.3945 Q20.1562 17.9883 19.2812 17.9883 Q18.8438 17.9883 18.4531 17.8789 ZM27.0469 13.457 L28.1406 13.582 Q27.8906 14.5352 27.1875 15.0664 Q26.4844 15.5977 25.4062 15.5977 Q24.0469 15.5977 23.2344 14.7539 Q22.4375 13.9102 22.4375 12.3945 Q22.4375 10.832 23.25 9.9727 Q24.0625 9.0977 25.3438 9.0977 Q26.5938 9.0977 27.375 9.9414 Q28.1719 10.7852 28.1719 12.332 Q28.1719 12.4258 28.1719 12.6133 L23.5312 12.6133 Q23.5938 13.6445 24.1094 14.1914 Q24.625 14.7227 25.4062 14.7227 Q25.9844 14.7227 26.3906 14.4258 Q26.8125 14.1133 27.0469 13.457 ZM23.5938 11.7539 L27.0625 11.7539 Q27 10.957 26.6719 10.5664 Q26.1562 9.957 25.3594 9.957 Q24.625 9.957 24.125 10.4414 Q23.6406 10.9258 23.5938 11.7539 ZM32.0938 14.5195 L32.25 15.4414 Q31.7969 15.5352 31.4531 15.5352 Q30.875 15.5352 30.5625 15.3633 Q30.25 15.1758 30.1094 14.8789 Q29.9844 14.582 29.9844 13.6289 L29.9844 10.0508 L29.2188 10.0508 L29.2188 9.2383 L29.9844 9.2383 L29.9844 7.6914 L31.0312 7.0664 L31.0312 9.2383 L32.0938 9.2383 L32.0938 10.0508 L31.0312 10.0508 L31.0312 13.6914 Q31.0312 14.1445 31.0781 14.2695 Q31.1406 14.3945 31.2656 14.4727 Q31.3906 14.5508 31.625 14.5508 Q31.8125 14.5508 32.0938 14.5195 ZM32.4062 12.3477 Q32.4062 10.6133 33.3594 9.7852 Q34.1562 9.0977 35.3125 9.0977 Q36.5938 9.0977 37.4062 9.9414 Q38.2344 10.7695 38.2344 12.2539 Q38.2344 13.457 37.875 14.1445 Q37.5156 14.832 36.8125 15.2227 Q36.125 15.5977 35.3125 15.5977 Q34.0156 15.5977 33.2031 14.7695 Q32.4062 13.9258 32.4062 12.3477 ZM33.4844 12.3477 Q33.4844 13.5352 34 14.1289 Q34.5312 14.7227 35.3125 14.7227 Q36.1094 14.7227 36.625 14.1289 Q37.1406 13.5352 37.1406 12.3164 Q37.1406 11.1602 36.6094 10.5664 Q36.0938 9.9727 35.3125 9.9727 Q34.5312 9.9727 34 10.5664 Q33.4844 11.1445 33.4844 12.3477 Z" stroke="none" clip-path="url(#clipPath23)"
      /><text x="3" font-size="12px" y="32" clip-path="url(#clipPath23)" text-rendering="optimizeLegibility" font-family="sans-serif" stroke="none" xml:space="preserve"
      >pertencente</text
      ><path d="M10.8594 46.6914 Q10.2656 47.1914 9.7188 47.3945 Q9.1875 47.5977 8.5625 47.5977 Q7.5312 47.5977 6.9844 47.0977 Q6.4375 46.5977 6.4375 45.8164 Q6.4375 45.3633 6.6406 44.9883 Q6.8438 44.5977 7.1875 44.3789 Q7.5312 44.1445 7.9531 44.0352 Q8.25 43.9414 8.8906 43.8633 Q10.1562 43.7227 10.7656 43.5039 Q10.7656 43.2852 10.7656 43.2383 Q10.7656 42.582 10.4688 42.3164 Q10.0625 41.9727 9.2656 41.9727 Q8.5312 41.9727 8.1719 42.2383 Q7.8125 42.4883 7.6406 43.1445 L6.6094 43.0039 Q6.75 42.3477 7.0781 41.9414 Q7.4062 41.5352 8.0156 41.3164 Q8.625 41.0977 9.4219 41.0977 Q10.2188 41.0977 10.7188 41.2852 Q11.2188 41.4727 11.4531 41.7539 Q11.6875 42.0352 11.7812 42.4727 Q11.8281 42.7383 11.8281 43.4414 L11.8281 44.8477 Q11.8281 46.3164 11.8906 46.707 Q11.9688 47.0977 12.1719 47.457 L11.0625 47.457 Q10.9062 47.1289 10.8594 46.6914 ZM10.7656 44.332 Q10.1875 44.5664 9.0469 44.7383 Q8.3906 44.832 8.125 44.957 Q7.8594 45.0664 7.7031 45.2852 Q7.5625 45.5039 7.5625 45.7852 Q7.5625 46.207 7.875 46.4883 Q8.2031 46.7695 8.8125 46.7695 Q9.4219 46.7695 9.8906 46.5039 Q10.375 46.2383 10.5938 45.7695 Q10.7656 45.4102 10.7656 44.7227 L10.7656 44.332 ZM10.1875 40.457 L9.3438 40.457 L7.9844 38.8164 L9.4062 38.8164 L10.1875 40.457 ZM16.7656 47.457 L16.7656 38.8633 L17.8281 38.8633 L17.8281 47.457 L16.7656 47.457 ZM19.375 45.5977 L20.4062 45.4414 Q20.5 46.0664 20.8906 46.3945 Q21.2969 46.7227 22.0312 46.7227 Q22.75 46.7227 23.0938 46.4414 Q23.4531 46.1445 23.4531 45.7383 Q23.4531 45.3789 23.1406 45.1758 Q22.9219 45.0352 22.0625 44.8164 Q20.9062 44.5195 20.4531 44.3164 Q20.0156 44.0977 19.7812 43.7227 Q19.5469 43.3477 19.5469 42.8789 Q19.5469 42.4727 19.7344 42.1133 Q19.9219 41.7539 20.25 41.5195 Q20.5 41.3477 20.9219 41.2227 Q21.3438 41.0977 21.8438 41.0977 Q22.5625 41.0977 23.1094 41.3164 Q23.6719 41.5195 23.9375 41.8789 Q24.2031 42.2383 24.2969 42.832 L23.2656 42.9727 Q23.2031 42.5039 22.8594 42.2383 Q22.5312 41.957 21.9062 41.957 Q21.1875 41.957 20.875 42.207 Q20.5625 42.4414 20.5625 42.7695 Q20.5625 42.9727 20.6875 43.1289 Q20.8281 43.3008 21.0938 43.4102 Q21.25 43.4727 22.0312 43.6758 Q23.1562 43.9883 23.5938 44.1758 Q24.0312 44.3633 24.2812 44.7227 Q24.5312 45.082 24.5312 45.6289 Q24.5312 46.1602 24.2188 46.6289 Q23.9219 47.082 23.3438 47.3477 Q22.7656 47.5977 22.0312 47.5977 Q20.8125 47.5977 20.1719 47.0977 Q19.5469 46.582 19.375 45.5977 ZM28.0938 46.5195 L28.25 47.4414 Q27.7969 47.5352 27.4531 47.5352 Q26.875 47.5352 26.5625 47.3633 Q26.25 47.1758 26.1094 46.8789 Q25.9844 46.582 25.9844 45.6289 L25.9844 42.0508 L25.2188 42.0508 L25.2188 41.2383 L25.9844 41.2383 L25.9844 39.6914 L27.0312 39.0664 L27.0312 41.2383 L28.0938 41.2383 L28.0938 42.0508 L27.0312 42.0508 L27.0312 45.6914 Q27.0312 46.1445 27.0781 46.2695 Q27.1406 46.3945 27.2656 46.4727 Q27.3906 46.5508 27.625 46.5508 Q27.8125 46.5508 28.0938 46.5195 ZM27.9844 47.457 L31.2812 38.8633 L32.5 38.8633 L36.0156 47.457 L34.7344 47.457 L33.7188 44.8477 L30.1406 44.8477 L29.1875 47.457 L27.9844 47.457 ZM30.4688 43.9258 L33.375 43.9258 L32.4844 41.5508 Q32.0625 40.4727 31.875 39.7695 Q31.7031 40.5977 31.4062 41.4102 L30.4688 43.9258 ZM36.7969 47.457 L36.7969 41.2383 L37.7344 41.2383 L37.7344 42.1133 Q38.4219 41.0977 39.7188 41.0977 Q40.2812 41.0977 40.75 41.3008 Q41.2344 41.5039 41.4688 41.832 Q41.7031 42.1602 41.7969 42.5977 Q41.8438 42.8945 41.8438 43.6289 L41.8438 47.457 L40.7969 47.457 L40.7969 43.6758 Q40.7969 43.0195 40.6719 42.707 Q40.5469 42.3945 40.2344 42.207 Q39.9219 42.0039 39.5 42.0039 Q38.8281 42.0039 38.3281 42.4414 Q37.8438 42.8633 37.8438 44.0508 L37.8438 47.457 L36.7969 47.457 ZM47.875 47.457 L47.875 46.5352 Q47.1406 47.5977 45.8906 47.5977 Q45.3438 47.5977 44.8594 47.3945 Q44.3906 47.1758 44.1562 46.8633 Q43.9219 46.5352 43.8281 46.0664 Q43.7656 45.7695 43.7656 45.082 L43.7656 41.2383 L44.8281 41.2383 L44.8281 44.6914 Q44.8281 45.5039 44.8906 45.8008 Q44.9844 46.207 45.2969 46.457 Q45.625 46.6914 46.1094 46.6914 Q46.5781 46.6914 46.9844 46.457 Q47.4062 46.207 47.5781 45.7852 Q47.7656 45.3633 47.7656 44.5664 L47.7656 41.2383 L48.8125 41.2383 L48.8125 47.457 L47.875 47.457 Z" stroke="none" clip-path="url(#clipPath23)"
    /></g
    ><g font-size="11px" transform="translate(695,610)" fill-opacity="1" fill="rgb(122,207,245)" text-rendering="geometricPrecision" image-rendering="optimizeQuality" font-family="sans-serif" stroke="rgb(122,207,245)" stroke-opacity="1"
    ><rect x="0" width="8" height="60" y="0" clip-path="url(#clipPath24)" stroke="none"
    /></g
    ><g stroke-linecap="butt" font-size="11px" transform="translate(695,610)" fill-opacity="1" fill="black" text-rendering="geometricPrecision" image-rendering="optimizeQuality" font-family="sans-serif" stroke-linejoin="round" stroke="black" stroke-opacity="1" stroke-miterlimit="0"
    ><rect fill="none" x="0" width="8" height="60" y="0" clip-path="url(#clipPath24)"
    /></g
    ><g font-size="11px" transform="translate(1238,625)" fill-opacity="1" fill="rgb(122,207,245)" text-rendering="geometricPrecision" image-rendering="optimizeQuality" font-family="sans-serif" stroke="rgb(122,207,245)" stroke-opacity="1"
    ><rect x="0" width="8" height="15" y="0" clip-path="url(#clipPath25)" stroke="none"
    /></g
    ><g stroke-linecap="butt" font-size="11px" transform="translate(1238,625)" fill-opacity="1" fill="black" text-rendering="geometricPrecision" image-rendering="optimizeQuality" font-family="sans-serif" stroke-linejoin="round" stroke="black" stroke-opacity="1" stroke-miterlimit="0"
    ><rect fill="none" x="0" width="8" height="15" y="0" clip-path="url(#clipPath25)"
    /></g
    ><g font-size="11px" transform="translate(1573,702)" fill-opacity="1" fill="rgb(122,207,245)" text-rendering="geometricPrecision" image-rendering="optimizeQuality" font-family="sans-serif" stroke="rgb(122,207,245)" stroke-opacity="1"
    ><rect x="0" width="8" height="17" y="0" clip-path="url(#clipPath26)" stroke="none"
    /></g
    ><g stroke-linecap="butt" font-size="11px" transform="translate(1573,702)" fill-opacity="1" fill="black" text-rendering="geometricPrecision" image-rendering="optimizeQuality" font-family="sans-serif" stroke-linejoin="round" stroke="black" stroke-opacity="1" stroke-miterlimit="0"
    ><rect fill="none" x="0" width="8" height="17" y="0" clip-path="url(#clipPath26)"
    /></g
    ><g font-size="11px" transform="translate(1573,900)" fill-opacity="1" fill="rgb(122,207,245)" text-rendering="geometricPrecision" image-rendering="optimizeQuality" font-family="sans-serif" stroke="rgb(122,207,245)" stroke-opacity="1"
    ><rect x="0" width="8" height="102" y="0" clip-path="url(#clipPath27)" stroke="none"
    /></g
    ><g stroke-linecap="butt" font-size="11px" transform="translate(1573,900)" fill-opacity="1" fill="black" text-rendering="geometricPrecision" image-rendering="optimizeQuality" font-family="sans-serif" stroke-linejoin="round" stroke="black" stroke-opacity="1" stroke-miterlimit="0"
    ><rect fill="none" x="0" width="8" height="102" y="0" clip-path="url(#clipPath27)"
    /></g
    ><g font-size="11px" transform="translate(1844,930)" fill-opacity="1" fill="rgb(122,207,245)" text-rendering="geometricPrecision" image-rendering="optimizeQuality" font-family="sans-serif" stroke="rgb(122,207,245)" stroke-opacity="1"
    ><rect x="0" width="8" height="15" y="0" clip-path="url(#clipPath25)" stroke="none"
    /></g
    ><g stroke-linecap="butt" font-size="11px" transform="translate(1844,930)" fill-opacity="1" fill="black" text-rendering="geometricPrecision" image-rendering="optimizeQuality" font-family="sans-serif" stroke-linejoin="round" stroke="black" stroke-opacity="1" stroke-miterlimit="0"
    ><rect fill="none" x="0" width="8" height="15" y="0" clip-path="url(#clipPath25)"
    /></g
    ><g font-size="11px" transform="translate(695,1039)" fill-opacity="1" fill="rgb(122,207,245)" text-rendering="geometricPrecision" image-rendering="optimizeQuality" font-family="sans-serif" stroke="rgb(122,207,245)" stroke-opacity="1"
    ><rect x="0" width="8" height="56" y="0" clip-path="url(#clipPath28)" stroke="none"
    /></g
    ><g stroke-linecap="butt" font-size="11px" transform="translate(695,1039)" fill-opacity="1" fill="black" text-rendering="geometricPrecision" image-rendering="optimizeQuality" font-family="sans-serif" stroke-linejoin="round" stroke="black" stroke-opacity="1" stroke-miterlimit="0"
    ><rect fill="none" x="0" width="8" height="56" y="0" clip-path="url(#clipPath28)"
    /></g
    ><g font-size="11px" transform="translate(1359,1067)" fill-opacity="1" fill="rgb(122,207,245)" text-rendering="geometricPrecision" image-rendering="optimizeQuality" font-family="sans-serif" stroke="rgb(122,207,245)" stroke-opacity="1"
    ><rect x="0" width="8" height="43" y="0" clip-path="url(#clipPath29)" stroke="none"
    /></g
    ><g stroke-linecap="butt" font-size="11px" transform="translate(1359,1067)" fill-opacity="1" fill="black" text-rendering="geometricPrecision" image-rendering="optimizeQuality" font-family="sans-serif" stroke-linejoin="round" stroke="black" stroke-opacity="1" stroke-miterlimit="0"
    ><rect fill="none" x="0" width="8" height="43" y="0" clip-path="url(#clipPath29)"
    /></g
    ><g font-size="11px" transform="translate(1573,1084)" fill-opacity="1" fill="rgb(122,207,245)" text-rendering="geometricPrecision" image-rendering="optimizeQuality" font-family="sans-serif" stroke="rgb(122,207,245)" stroke-opacity="1"
    ><rect x="0" width="8" height="105" y="0" clip-path="url(#clipPath30)" stroke="none"
    /></g
    ><g stroke-linecap="butt" font-size="11px" transform="translate(1573,1084)" fill-opacity="1" fill="black" text-rendering="geometricPrecision" image-rendering="optimizeQuality" font-family="sans-serif" stroke-linejoin="round" stroke="black" stroke-opacity="1" stroke-miterlimit="0"
    ><rect fill="none" x="0" width="8" height="105" y="0" clip-path="url(#clipPath30)"
    /></g
    ><g font-size="11px" transform="translate(1359,659)" fill-opacity="1" fill="rgb(122,207,245)" text-rendering="geometricPrecision" image-rendering="optimizeQuality" font-family="sans-serif" stroke="rgb(122,207,245)" stroke-opacity="1"
    ><rect x="0" width="9" height="55" y="0" clip-path="url(#clipPath31)" stroke="none"
    /></g
    ><g stroke-linecap="butt" font-size="11px" transform="translate(1359,659)" fill-opacity="1" fill="black" text-rendering="geometricPrecision" image-rendering="optimizeQuality" font-family="sans-serif" stroke-linejoin="round" stroke="black" stroke-opacity="1" stroke-miterlimit="0"
    ><rect fill="none" x="0" width="9" height="55" y="0" clip-path="url(#clipPath31)"
    /></g
    ><g font-size="11px" transform="translate(419,804)" fill-opacity="1" fill="rgb(122,207,245)" text-rendering="geometricPrecision" image-rendering="optimizeQuality" font-family="sans-serif" stroke="rgb(122,207,245)" stroke-opacity="1"
    ><rect x="0" width="9" height="155" y="0" clip-path="url(#clipPath32)" stroke="none"
    /></g
    ><g stroke-linecap="butt" font-size="11px" transform="translate(419,804)" fill-opacity="1" fill="black" text-rendering="geometricPrecision" image-rendering="optimizeQuality" font-family="sans-serif" stroke-linejoin="round" stroke="black" stroke-opacity="1" stroke-miterlimit="0"
    ><rect fill="none" x="0" width="9" height="155" y="0" clip-path="url(#clipPath32)"
    /></g
    ><g font-size="11px" transform="translate(1359,892)" fill-opacity="1" fill="rgb(122,207,245)" text-rendering="geometricPrecision" image-rendering="optimizeQuality" font-family="sans-serif" stroke="rgb(122,207,245)" stroke-opacity="1"
    ><rect x="0" width="9" height="37" y="0" clip-path="url(#clipPath33)" stroke="none"
    /></g
    ><g stroke-linecap="butt" font-size="11px" transform="translate(1359,892)" fill-opacity="1" fill="black" text-rendering="geometricPrecision" image-rendering="optimizeQuality" font-family="sans-serif" stroke-linejoin="round" stroke="black" stroke-opacity="1" stroke-miterlimit="0"
    ><rect fill="none" x="0" width="9" height="37" y="0" clip-path="url(#clipPath33)"
    /></g
    ><g font-size="11px" transform="translate(694,832)" fill-opacity="1" fill="rgb(122,207,245)" text-rendering="geometricPrecision" image-rendering="optimizeQuality" font-family="sans-serif" stroke="rgb(122,207,245)" stroke-opacity="1"
    ><rect x="0" width="9" height="88" y="0" clip-path="url(#clipPath34)" stroke="none"
    /></g
    ><g stroke-linecap="butt" font-size="11px" transform="translate(694,832)" fill-opacity="1" fill="black" text-rendering="geometricPrecision" image-rendering="optimizeQuality" font-family="sans-serif" stroke-linejoin="round" stroke="black" stroke-opacity="1" stroke-miterlimit="0"
    ><rect fill="none" x="0" width="9" height="88" y="0" clip-path="url(#clipPath34)"
    /></g
    ><g font-size="11px" transform="translate(1778,2)" fill-opacity="1" fill="black" text-rendering="geometricPrecision" image-rendering="optimizeQuality" font-family="sans-serif" stroke="black" stroke-opacity="1"
    ><text x="10" xml:space="preserve" y="12" clip-path="url(#clipPath35)" stroke="none"
      >copiaCand : Candidatura</text
    ></g
    ><g font-size="11px" transform="translate(1650,2)" fill-opacity="1" fill="black" text-rendering="geometricPrecision" image-rendering="optimizeQuality" font-family="sans-serif" stroke="black" stroke-opacity="1"
    ><text x="8" xml:space="preserve" y="12" clip-path="url(#clipPath36)" stroke="none"
      >cand : Candidatura</text
    ></g
    ><g font-size="11px" transform="translate(1520,2)" fill-opacity="1" fill="black" text-rendering="geometricPrecision" image-rendering="optimizeQuality" font-family="sans-serif" stroke="black" stroke-opacity="1"
    ><text x="11" xml:space="preserve" y="12" clip-path="url(#clipPath37)" stroke="none"
      >: ListaCandidatura</text
    ></g
    ><g font-size="11px" transform="translate(1432,2)" fill-opacity="1" fill="black" text-rendering="geometricPrecision" image-rendering="optimizeQuality" font-family="sans-serif" stroke="black" stroke-opacity="1"
    ><text x="20" xml:space="preserve" y="12" clip-path="url(#clipPath38)" stroke="none"
      >freel :</text
      ><text x="8" xml:space="preserve" y="27" clip-path="url(#clipPath38)" stroke="none"
      >Freelancer</text
    ></g
    ><g font-size="11px" transform="translate(599,2)" fill-opacity="1" fill="black" text-rendering="geometricPrecision" image-rendering="optimizeQuality" font-family="sans-serif" stroke="black" stroke-opacity="1"
    ><text x="21" xml:space="preserve" y="12" clip-path="url(#clipPath39)" stroke="none"
      >: AtualizarCandidaturaController</text
    ></g
    ><g font-size="11px" transform="translate(348,2)" fill-opacity="1" fill="black" text-rendering="geometricPrecision" image-rendering="optimizeQuality" font-family="sans-serif" stroke="black" stroke-opacity="1"
    ><text x="15" xml:space="preserve" y="12" clip-path="url(#clipPath40)" stroke="none"
      >: AtualizarCandidaturaUI</text
    ></g
    ><g font-size="11px" transform="translate(2,37)" fill-opacity="1" fill="black" text-rendering="geometricPrecision" image-rendering="optimizeQuality" font-family="sans-serif" stroke="black" stroke-opacity="1"
    ><text x="10" xml:space="preserve" y="12" clip-path="url(#clipPath41)" stroke="none"
      >Freelancer</text
    ></g
    ><g font-size="11px" transform="translate(930,2)" fill-opacity="1" fill="black" text-rendering="geometricPrecision" image-rendering="optimizeQuality" font-family="sans-serif" stroke="black" stroke-opacity="1"
    ><text x="12" xml:space="preserve" y="12" clip-path="url(#clipPath42)" stroke="none"
      >: Plataforma</text
    ></g
    ><g font-size="11px" transform="translate(1045,2)" fill-opacity="1" fill="black" text-rendering="geometricPrecision" image-rendering="optimizeQuality" font-family="sans-serif" stroke="black" stroke-opacity="1"
    ><text x="14" xml:space="preserve" y="12" clip-path="url(#clipPath43)" stroke="none"
      >registoFreelancers :</text
      ><text x="15" xml:space="preserve" y="27" clip-path="url(#clipPath43)" stroke="none"
      >RegistoFreelancers</text
    ></g
    ><g font-size="11px" transform="translate(1190,2)" fill-opacity="1" fill="black" text-rendering="geometricPrecision" image-rendering="optimizeQuality" font-family="sans-serif" stroke="black" stroke-opacity="1"
    ><text x="10" xml:space="preserve" y="12" clip-path="url(#clipPath44)" stroke="none"
      >registoAnuncios :</text
      ><text x="11" xml:space="preserve" y="27" clip-path="url(#clipPath44)" stroke="none"
      >RegistoAnuncios</text
    ></g
    ><g font-size="11px" transform="translate(1312,2)" fill-opacity="1" fill="black" text-rendering="geometricPrecision" image-rendering="optimizeQuality" font-family="sans-serif" stroke="black" stroke-opacity="1"
    ><text x="32" xml:space="preserve" y="12" clip-path="url(#clipPath45)" stroke="none"
      >lstAnu :</text
      ><text x="16" xml:space="preserve" y="27" clip-path="url(#clipPath45)" stroke="none"
      >List&lt;Anuncio&gt;</text
    ></g
    ><g stroke-linecap="butt" font-size="11px" transform="translate(-42,5)" fill-opacity="1" fill="black" text-rendering="geometricPrecision" image-rendering="optimizeQuality" font-family="sans-serif" stroke-linejoin="round" stroke="black" stroke-opacity="1"
    ><line y2="83" fill="none" x1="83" clip-path="url(#clipPath47)" x2="462" y1="83"
      /><polygon points=" 462 83 450 77 450 89" clip-path="url(#clipPath47)" stroke="none"
      /><polygon fill="none" points=" 462 83 450 77 450 89" clip-path="url(#clipPath47)"
    /></g
    ><g fill-opacity="1" text-rendering="geometricPrecision" stroke="black" stroke-linecap="butt" transform="translate(-42,449)" stroke-miterlimit="0" stroke-opacity="1" fill="black" stroke-dasharray="8,3" font-family="sans-serif" stroke-linejoin="round" font-size="11px" image-rendering="optimizeQuality"
    ><line y2="83" fill="none" x1="462" clip-path="url(#clipPath48)" x2="83" y1="83"
      /><line clip-path="url(#clipPath48)" fill="none" x1="83" x2="95" y1="83" y2="89" stroke-dasharray="none" stroke-miterlimit="10"
      /><line clip-path="url(#clipPath48)" fill="none" x1="83" x2="95" y1="83" y2="77" stroke-dasharray="none" stroke-miterlimit="10"
    /></g
    ><g stroke-linecap="butt" font-size="11px" transform="translate(-42,484)" fill-opacity="1" fill="black" text-rendering="geometricPrecision" image-rendering="optimizeQuality" font-family="sans-serif" stroke-linejoin="round" stroke="black" stroke-opacity="1"
    ><line y2="83" fill="none" x1="83" clip-path="url(#clipPath49)" x2="462" y1="83"
      /><polygon points=" 462 83 450 77 450 89" clip-path="url(#clipPath49)" stroke="none"
      /><polygon fill="none" points=" 462 83 450 77 450 89" clip-path="url(#clipPath49)"
    /></g
    ><g fill-opacity="1" text-rendering="geometricPrecision" stroke="black" stroke-linecap="butt" transform="translate(-42,662)" stroke-miterlimit="0" stroke-opacity="1" fill="black" stroke-dasharray="8,3" font-family="sans-serif" stroke-linejoin="round" font-size="11px" image-rendering="optimizeQuality"
    ><line y2="83" fill="none" x1="462" clip-path="url(#clipPath50)" x2="83" y1="83"
      /><line clip-path="url(#clipPath50)" fill="none" x1="83" x2="95" y1="83" y2="89" stroke-dasharray="none" stroke-miterlimit="10"
      /><line clip-path="url(#clipPath50)" fill="none" x1="83" x2="95" y1="83" y2="77" stroke-dasharray="none" stroke-miterlimit="10"
    /></g
    ><g stroke-linecap="butt" font-size="11px" transform="translate(-42,720)" fill-opacity="1" fill="black" text-rendering="geometricPrecision" image-rendering="optimizeQuality" font-family="sans-serif" stroke-linejoin="round" stroke="black" stroke-opacity="1"
    ><line y2="83" fill="none" x1="83" clip-path="url(#clipPath51)" x2="462" y1="83"
      /><polygon points=" 462 83 450 77 450 89" clip-path="url(#clipPath51)" stroke="none"
      /><polygon fill="none" points=" 462 83 450 77 450 89" clip-path="url(#clipPath51)"
    /></g
    ><g fill-opacity="1" text-rendering="geometricPrecision" stroke="black" stroke-linecap="butt" transform="translate(-42,864)" stroke-miterlimit="0" stroke-opacity="1" fill="black" stroke-dasharray="8,3" font-family="sans-serif" stroke-linejoin="round" font-size="11px" image-rendering="optimizeQuality"
    ><line y2="83" fill="none" x1="462" clip-path="url(#clipPath52)" x2="83" y1="83"
      /><line clip-path="url(#clipPath52)" fill="none" x1="83" x2="95" y1="83" y2="89" stroke-dasharray="none" stroke-miterlimit="10"
      /><line clip-path="url(#clipPath52)" fill="none" x1="83" x2="95" y1="83" y2="77" stroke-dasharray="none" stroke-miterlimit="10"
    /></g
    ><g stroke-linecap="butt" font-size="11px" transform="translate(-42,934)" fill-opacity="1" fill="black" text-rendering="geometricPrecision" image-rendering="optimizeQuality" font-family="sans-serif" stroke-linejoin="round" stroke="black" stroke-opacity="1"
    ><line y2="83" fill="none" x1="83" clip-path="url(#clipPath53)" x2="462" y1="83"
      /><polygon points=" 462 83 450 77 450 89" clip-path="url(#clipPath53)" stroke="none"
      /><polygon fill="none" points=" 462 83 450 77 450 89" clip-path="url(#clipPath53)"
    /></g
    ><g fill-opacity="1" text-rendering="geometricPrecision" stroke="black" stroke-linecap="butt" transform="translate(-42,1042)" stroke-miterlimit="0" stroke-opacity="1" fill="black" stroke-dasharray="8,3" font-family="sans-serif" stroke-linejoin="round" font-size="11px" image-rendering="optimizeQuality"
    ><line y2="83" fill="none" x1="462" clip-path="url(#clipPath54)" x2="83" y1="83"
      /><line clip-path="url(#clipPath54)" fill="none" x1="83" x2="95" y1="83" y2="89" stroke-dasharray="none" stroke-miterlimit="10"
      /><line clip-path="url(#clipPath54)" fill="none" x1="83" x2="95" y1="83" y2="77" stroke-dasharray="none" stroke-miterlimit="10"
    /></g
    ><g stroke-linecap="butt" font-size="11px" transform="translate(377,70)" fill-opacity="1" fill="black" text-rendering="geometricPrecision" image-rendering="optimizeQuality" font-family="sans-serif" stroke-linejoin="round" stroke="black" stroke-opacity="1"
    ><line y2="50" fill="none" x1="50" clip-path="url(#clipPath56)" x2="318" y1="50"
      /><polygon points=" 318 50 306 44 306 56" clip-path="url(#clipPath56)" stroke="none"
      /><polygon fill="none" points=" 318 50 306 44 306 56" clip-path="url(#clipPath56)"
    /></g
    ><g stroke-linecap="butt" font-size="11px" transform="translate(653,234)" fill-opacity="1" fill="black" text-rendering="geometricPrecision" image-rendering="optimizeQuality" font-family="sans-serif" stroke-linejoin="round" stroke="black" stroke-opacity="1"
    ><line y2="50" fill="none" x1="50" clip-path="url(#clipPath58)" x2="315" y1="50"
      /><polygon points=" 315 50 303 44 303 56" clip-path="url(#clipPath58)" stroke="none"
      /><polygon fill="none" points=" 315 50 303 44 303 56" clip-path="url(#clipPath58)"
    /></g
    ><g stroke-linecap="butt" font-size="11px" transform="translate(653,297)" fill-opacity="1" fill="black" text-rendering="geometricPrecision" image-rendering="optimizeQuality" font-family="sans-serif" stroke-linejoin="round" stroke="black" stroke-opacity="1"
    ><line y2="50" fill="none" x1="50" clip-path="url(#clipPath60)" x2="451" y1="50"
      /><polygon points=" 451 50 439 44 439 56" clip-path="url(#clipPath60)" stroke="none"
      /><polygon fill="none" points=" 451 50 439 44 439 56" clip-path="url(#clipPath60)"
    /></g
    ><g stroke-linecap="butt" font-size="11px" transform="translate(653,363)" fill-opacity="1" fill="black" text-rendering="geometricPrecision" image-rendering="optimizeQuality" font-family="sans-serif" stroke-linejoin="round" stroke="black" stroke-opacity="1"
    ><line y2="50" fill="none" x1="50" clip-path="url(#clipPath61)" x2="315" y1="50"
      /><polygon points=" 315 50 303 44 303 56" clip-path="url(#clipPath61)" stroke="none"
      /><polygon fill="none" points=" 315 50 303 44 303 56" clip-path="url(#clipPath61)"
    /></g
    ><g stroke-linecap="butt" font-size="11px" transform="translate(378,560)" fill-opacity="1" fill="black" text-rendering="geometricPrecision" image-rendering="optimizeQuality" font-family="sans-serif" stroke-linejoin="round" stroke="black" stroke-opacity="1"
    ><line y2="50" fill="none" x1="50" clip-path="url(#clipPath63)" x2="317" y1="50"
      /><polygon points=" 317 50 305 44 305 56" clip-path="url(#clipPath63)" stroke="none"
      /><polygon fill="none" points=" 317 50 305 44 305 56" clip-path="url(#clipPath63)"
    /></g
    ><g stroke-linecap="butt" font-size="11px" transform="translate(653,575)" fill-opacity="1" fill="black" text-rendering="geometricPrecision" image-rendering="optimizeQuality" font-family="sans-serif" stroke-linejoin="round" stroke="black" stroke-opacity="1"
    ><line y2="50" fill="none" x1="50" clip-path="url(#clipPath65)" x2="585" y1="50"
      /><polygon points=" 585 50 573 44 573 56" clip-path="url(#clipPath65)" stroke="none"
      /><polygon fill="none" points=" 585 50 573 44 573 56" clip-path="url(#clipPath65)"
    /></g
    ><g stroke-linecap="butt" font-size="11px" transform="translate(653,608)" fill-opacity="1" fill="black" text-rendering="geometricPrecision" image-rendering="optimizeQuality" font-family="sans-serif" stroke-linejoin="round" stroke="black" stroke-opacity="1"
    ><line y2="50" fill="none" x1="50" clip-path="url(#clipPath67)" x2="706" y1="50"
      /><polygon points=" 706 50 694 44 694 56" clip-path="url(#clipPath67)" stroke="none"
      /><polygon fill="none" points=" 706 50 694 44 694 56" clip-path="url(#clipPath67)"
    /></g
    ><g stroke-linecap="butt" font-size="11px" transform="translate(1284,619)" fill-opacity="1" fill="black" text-rendering="geometricPrecision" image-rendering="optimizeQuality" font-family="sans-serif" stroke-linejoin="round" stroke="black" stroke-opacity="1"
    ><line y2="83" fill="none" x1="83" clip-path="url(#clipPath69)" x2="288" y1="83"
      /><polygon points=" 288 83 276 77 276 89" clip-path="url(#clipPath69)" stroke="none"
      /><polygon fill="none" points=" 288 83 276 77 276 89" clip-path="url(#clipPath69)"
    /></g
    ><g stroke-linecap="butt" font-size="11px" transform="translate(378,782)" fill-opacity="1" fill="black" text-rendering="geometricPrecision" image-rendering="optimizeQuality" font-family="sans-serif" stroke-linejoin="round" stroke="black" stroke-opacity="1"
    ><line y2="50" fill="none" x1="50" clip-path="url(#clipPath71)" x2="316" y1="50"
      /><polygon points=" 316 50 304 44 304 56" clip-path="url(#clipPath71)" stroke="none"
      /><polygon fill="none" points=" 316 50 304 44 304 56" clip-path="url(#clipPath71)"
    /></g
    ><g stroke-linecap="butt" font-size="11px" transform="translate(652,842)" fill-opacity="1" fill="black" text-rendering="geometricPrecision" image-rendering="optimizeQuality" font-family="sans-serif" stroke-linejoin="round" stroke="black" stroke-opacity="1"
    ><line y2="50" fill="none" x1="50" clip-path="url(#clipPath73)" x2="707" y1="50"
      /><polygon points=" 707 50 695 44 695 56" clip-path="url(#clipPath73)" stroke="none"
      /><polygon fill="none" points=" 707 50 695 44 695 56" clip-path="url(#clipPath73)"
    /></g
    ><g stroke-linecap="butt" font-size="11px" transform="translate(1283,819)" fill-opacity="1" fill="black" text-rendering="geometricPrecision" image-rendering="optimizeQuality" font-family="sans-serif" stroke-linejoin="round" stroke="black" stroke-opacity="1"
    ><line y2="83" fill="none" x1="83" clip-path="url(#clipPath75)" x2="290" y1="83"
      /><polygon points=" 290 83 278 77 278 89" clip-path="url(#clipPath75)" stroke="none"
      /><polygon fill="none" points=" 290 83 278 77 278 89" clip-path="url(#clipPath75)"
    /></g
    ><g stroke-linecap="butt" font-size="11px" transform="translate(1498,847)" fill-opacity="1" fill="black" text-rendering="geometricPrecision" image-rendering="optimizeQuality" font-family="sans-serif" stroke-linejoin="round" stroke="black" stroke-opacity="1"
    ><line y2="83" fill="none" x1="83" clip-path="url(#clipPath77)" x2="347" y1="83"
      /><polygon points=" 347 83 335 77 335 89" clip-path="url(#clipPath77)" stroke="none"
      /><polygon fill="none" points=" 347 83 335 77 335 89" clip-path="url(#clipPath77)"
    /></g
    ><g stroke-linecap="butt" font-size="11px" transform="translate(1498,887)" fill-opacity="1" fill="black" text-rendering="geometricPrecision" image-rendering="optimizeQuality" font-family="sans-serif" stroke-linejoin="round" stroke="black" stroke-opacity="1"
    ><line y2="83" fill="none" x1="83" clip-path="url(#clipPath79)" x2="110" y1="83"
      /><line y2="103" fill="none" x1="110" clip-path="url(#clipPath79)" x2="110" y1="83"
      /><line y2="103" fill="none" x1="110" clip-path="url(#clipPath79)" x2="83" y1="103"
      /><polygon points=" 83 103 95 109 95 97" clip-path="url(#clipPath79)" stroke="none"
      /><polygon fill="none" points=" 83 103 95 109 95 97" clip-path="url(#clipPath79)"
    /></g
    ><g stroke-linecap="butt" font-size="11px" transform="translate(377,990)" fill-opacity="1" fill="black" text-rendering="geometricPrecision" image-rendering="optimizeQuality" font-family="sans-serif" stroke-linejoin="round" stroke="black" stroke-opacity="1"
    ><line y2="50" fill="none" x1="50" clip-path="url(#clipPath80)" x2="318" y1="50"
      /><polygon points=" 318 50 306 44 306 56" clip-path="url(#clipPath80)" stroke="none"
      /><polygon fill="none" points=" 318 50 306 44 306 56" clip-path="url(#clipPath80)"
    /></g
    ><g stroke-linecap="butt" font-size="11px" transform="translate(653,1018)" fill-opacity="1" fill="black" text-rendering="geometricPrecision" image-rendering="optimizeQuality" font-family="sans-serif" stroke-linejoin="round" stroke="black" stroke-opacity="1"
    ><line y2="50" fill="none" x1="50" clip-path="url(#clipPath81)" x2="706" y1="50"
      /><polygon points=" 706 50 694 44 694 56" clip-path="url(#clipPath81)" stroke="none"
      /><polygon fill="none" points=" 706 50 694 44 694 56" clip-path="url(#clipPath81)"
    /></g
    ><g stroke-linecap="butt" font-size="11px" transform="translate(1284,1000)" fill-opacity="1" fill="black" text-rendering="geometricPrecision" image-rendering="optimizeQuality" font-family="sans-serif" stroke-linejoin="round" stroke="black" stroke-opacity="1"
    ><line y2="83" fill="none" x1="83" clip-path="url(#clipPath82)" x2="288" y1="83"
      /><polygon points=" 288 83 276 77 276 89" clip-path="url(#clipPath82)" stroke="none"
      /><polygon fill="none" points=" 288 83 276 77 276 89" clip-path="url(#clipPath82)"
    /></g
    ><g stroke-linecap="butt" font-size="11px" transform="translate(1498,1024)" fill-opacity="1" fill="black" text-rendering="geometricPrecision" image-rendering="optimizeQuality" font-family="sans-serif" stroke-linejoin="round" stroke="black" stroke-opacity="1"
    ><line y2="83" fill="none" x1="83" clip-path="url(#clipPath83)" x2="110" y1="83"
      /><line y2="103" fill="none" x1="110" clip-path="url(#clipPath83)" x2="110" y1="83"
      /><line y2="103" fill="none" x1="110" clip-path="url(#clipPath83)" x2="83" y1="103"
      /><polygon points=" 83 103 95 109 95 97" clip-path="url(#clipPath83)" stroke="none"
      /><polygon fill="none" points=" 83 103 95 109 95 97" clip-path="url(#clipPath83)"
    /></g
    ><g stroke-linecap="butt" font-size="11px" transform="translate(1498,1070)" fill-opacity="1" fill="black" text-rendering="geometricPrecision" image-rendering="optimizeQuality" font-family="sans-serif" stroke-linejoin="round" stroke="black" stroke-opacity="1"
    ><line y2="83" fill="none" x1="83" clip-path="url(#clipPath84)" x2="110" y1="83"
      /><line y2="103" fill="none" x1="110" clip-path="url(#clipPath84)" x2="110" y1="83"
      /><line y2="103" fill="none" x1="110" clip-path="url(#clipPath84)" x2="83" y1="103"
      /><polygon points=" 83 103 95 109 95 97" clip-path="url(#clipPath84)" stroke="none"
      /><polygon fill="none" points=" 83 103 95 109 95 97" clip-path="url(#clipPath84)"
    /></g
    ><g font-size="11px" transform="translate(1608,1154)" fill-opacity="1" fill="white" text-rendering="geometricPrecision" image-rendering="optimizeQuality" font-family="sans-serif" stroke="white" stroke-opacity="1"
    ><rect x="0" width="261" height="15" y="0" clip-path="url(#clipPath85)" stroke="none"
      /><text fill="black" x="9" xml:space="preserve" y="12" clip-path="url(#clipPath85)" stroke="none"
      >4.1.1.1.2: atualizarCandidatura(copiaCand, cand)</text
    ></g
    ><g font-size="11px" transform="translate(1608,1107)" fill-opacity="1" fill="white" text-rendering="geometricPrecision" image-rendering="optimizeQuality" font-family="sans-serif" stroke="white" stroke-opacity="1"
    ><rect x="0" width="218" height="15" y="0" clip-path="url(#clipPath86)" stroke="none"
      /><text fill="black" x="10" xml:space="preserve" y="12" clip-path="url(#clipPath86)" stroke="none"
      >4.1.1.1.1: validaCandidatura(copiaCand)</text
    ></g
    ><g font-size="11px" transform="translate(1356,1064)" fill-opacity="1" fill="white" text-rendering="geometricPrecision" image-rendering="optimizeQuality" font-family="sans-serif" stroke="white" stroke-opacity="1"
    ><rect x="0" width="218" height="15" y="0" clip-path="url(#clipPath86)" stroke="none"
      /><text fill="black" x="9" xml:space="preserve" y="12" clip-path="url(#clipPath86)" stroke="none"
      >4.1.1.1: confirmaAtualizacao(copiaCand)</text
    ></g
    ><g font-size="11px" transform="translate(926,1048)" fill-opacity="1" fill="white" text-rendering="geometricPrecision" image-rendering="optimizeQuality" font-family="sans-serif" stroke="white" stroke-opacity="1"
    ><rect x="0" width="210" height="15" y="0" clip-path="url(#clipPath87)" stroke="none"
      /><text fill="black" x="10" xml:space="preserve" y="12" clip-path="url(#clipPath87)" stroke="none"
      >4.1.1: confirmaAtualizacao(copiaCand)</text
    ></g
    ><g font-size="11px" transform="translate(484,1020)" fill-opacity="1" fill="white" text-rendering="geometricPrecision" image-rendering="optimizeQuality" font-family="sans-serif" stroke="white" stroke-opacity="1"
    ><rect x="0" width="149" height="15" y="0" clip-path="url(#clipPath88)" stroke="none"
      /><text fill="black" x="10" xml:space="preserve" y="12" clip-path="url(#clipPath88)" stroke="none"
      >4.1: confirmaAtualizacao()</text
    ></g
    ><g font-size="11px" transform="translate(1608,970)" fill-opacity="1" fill="white" text-rendering="geometricPrecision" image-rendering="optimizeQuality" font-family="sans-serif" stroke="white" stroke-opacity="1"
    ><rect x="0" width="218" height="15" y="0" clip-path="url(#clipPath86)" stroke="none"
      /><text fill="black" x="10" xml:space="preserve" y="12" clip-path="url(#clipPath86)" stroke="none"
      >3.1.1.1.2: validaCandidatura(copiaCand)</text
    ></g
    ><g font-size="11px" transform="translate(1551,910)" fill-opacity="1" fill="white" text-rendering="geometricPrecision" image-rendering="optimizeQuality" font-family="sans-serif" stroke="white" stroke-opacity="1"
    ><rect x="0" width="317" height="15" y="0" clip-path="url(#clipPath89)" stroke="none"
      /><text fill="black" x="10" xml:space="preserve" y="12" clip-path="url(#clipPath89)" stroke="none"
      >3.1.1.1.1: atualizaCandidaturaCopy(valor, dias, apres, motiv)</text
    ></g
    ><g font-size="11px" transform="translate(1378,865)" fill-opacity="1" fill="white" text-rendering="geometricPrecision" image-rendering="optimizeQuality" font-family="sans-serif" stroke="white" stroke-opacity="1"
    ><rect x="0" width="306" height="15" y="0" clip-path="url(#clipPath90)" stroke="none"
      /><text fill="black" x="9" xml:space="preserve" y="12" clip-path="url(#clipPath90)" stroke="none"
      >3.1.1.1: atualizaCandidaturaCopy(valor, dias, apres, motiv)</text
    ></g
    ><g font-size="11px" transform="translate(881,872)" fill-opacity="1" fill="white" text-rendering="geometricPrecision" image-rendering="optimizeQuality" font-family="sans-serif" stroke="white" stroke-opacity="1"
    ><rect x="0" width="298" height="15" y="0" clip-path="url(#clipPath91)" stroke="none"
      /><text fill="black" x="10" xml:space="preserve" y="12" clip-path="url(#clipPath91)" stroke="none"
      >3.1.1: atualizaCandidaturaCopy(valor, dias, apres, motiv)</text
    ></g
    ><g font-size="11px" transform="translate(414,812)" fill-opacity="1" fill="white" text-rendering="geometricPrecision" image-rendering="optimizeQuality" font-family="sans-serif" stroke="white" stroke-opacity="1"
    ><rect x="0" width="289" height="15" y="0" clip-path="url(#clipPath92)" stroke="none"
      /><text fill="black" x="9" xml:space="preserve" y="12" clip-path="url(#clipPath92)" stroke="none"
      >3.1: atualizaCandidaturaCopy(valor, dias, apres, motiv)</text
    ></g
    ><g font-size="11px" transform="translate(1316,682)" fill-opacity="1" fill="white" text-rendering="geometricPrecision" image-rendering="optimizeQuality" font-family="sans-serif" stroke="white" stroke-opacity="1"
    ><rect x="0" width="303" height="15" y="0" clip-path="url(#clipPath93)" stroke="none"
      /><text fill="black" x="10" xml:space="preserve" y="12" clip-path="url(#clipPath93)" stroke="none"
      >2.1.2.1: copiaCand= getCandidaturaByAnuncio(anu, freel)</text
    ></g
    ><g font-size="11px" transform="translate(883,637)" fill-opacity="1" fill="white" text-rendering="geometricPrecision" image-rendering="optimizeQuality" font-family="sans-serif" stroke="white" stroke-opacity="1"
    ><rect x="0" width="293" height="17" y="0" clip-path="url(#clipPath94)" stroke="none"
      /><text fill="black" x="9" xml:space="preserve" y="13" clip-path="url(#clipPath94)" stroke="none"
      >2.1.2: copiaCand= getCandidaturaByAnuncio(anu, freel)</text
    ></g
    ><g font-size="11px" transform="translate(862,605)" fill-opacity="1" fill="white" text-rendering="geometricPrecision" image-rendering="optimizeQuality" font-family="sans-serif" stroke="white" stroke-opacity="1"
    ><rect x="0" width="215" height="15" y="0" clip-path="url(#clipPath95)" stroke="none"
      /><text fill="black" x="8" xml:space="preserve" y="12" clip-path="url(#clipPath95)" stroke="none"
      >2.1.1: anu = getAnuncioByID(anuncioID)</text
    ></g
    ><g font-size="11px" transform="translate(414,590)" fill-opacity="1" fill="white" text-rendering="geometricPrecision" image-rendering="optimizeQuality" font-family="sans-serif" stroke="white" stroke-opacity="1"
    ><rect x="0" width="290" height="15" y="0" clip-path="url(#clipPath96)" stroke="none"
      /><text fill="black" x="10" xml:space="preserve" y="12" clip-path="url(#clipPath96)" stroke="none"
      >2.1: copiaCand= getCandidaturaByAnuncio(anuncioID)</text
    ></g
    ><g font-size="11px" transform="translate(726,370)" fill-opacity="1" fill="white" text-rendering="geometricPrecision" image-rendering="optimizeQuality" font-family="sans-serif" stroke="white" stroke-opacity="1"
    ><rect x="0" width="202" height="35" y="0" clip-path="url(#clipPath97)" stroke="none"
      /><text fill="black" x="31" xml:space="preserve" y="14" clip-path="url(#clipPath97)" stroke="none"
      >1.1.3: getRegistoAnuncios():</text
      ><text fill="black" x="16" xml:space="preserve" y="29" clip-path="url(#clipPath97)" stroke="none"
      >registoAnuncios : RegistoAnuncios</text
    ></g
    ><g font-size="11px" transform="translate(744,326)" fill-opacity="1" fill="white" text-rendering="geometricPrecision" image-rendering="optimizeQuality" font-family="sans-serif" stroke="white" stroke-opacity="1"
    ><rect x="0" width="315" height="16" y="0" clip-path="url(#clipPath98)" stroke="none"
      /><text fill="black" x="9" xml:space="preserve" y="12" clip-path="url(#clipPath98)" stroke="none"
      >1.1.2: getFreelancerByEmail(email)  : Freelancer : freelancer</text
    ></g
    ><g font-size="11px" transform="translate(716,247)" fill-opacity="1" fill="white" text-rendering="geometricPrecision" image-rendering="optimizeQuality" font-family="sans-serif" stroke="white" stroke-opacity="1"
    ><rect x="0" width="230" height="33" y="0" clip-path="url(#clipPath99)" stroke="none"
      /><text fill="black" x="38" xml:space="preserve" y="13" clip-path="url(#clipPath99)" stroke="none"
      >1.1.1: getRegistoFreelancers():</text
      ><text fill="black" x="15" xml:space="preserve" y="28" clip-path="url(#clipPath99)" stroke="none"
      >registoFreelancers :  RegistoFreelancers</text
    ></g
    ><g font-size="11px" transform="translate(427,83)" fill-opacity="1" fill="white" text-rendering="geometricPrecision" image-rendering="optimizeQuality" font-family="sans-serif" stroke="white" stroke-opacity="1"
    ><rect x="0" width="276" height="28" y="0" clip-path="url(#clipPath100)" stroke="none"
      /><text fill="black" x="27" xml:space="preserve" y="18" clip-path="url(#clipPath100)" stroke="none"
      >1.1: getLisAnuncios() : List&lt;Anuncio&gt; : lstAnu</text
    ></g
    ><g font-size="11px" transform="translate(149,1105)" fill-opacity="1" fill="white" text-rendering="geometricPrecision" image-rendering="optimizeQuality" font-family="sans-serif" stroke="white" stroke-opacity="1"
    ><rect x="0" width="162" height="15" y="0" clip-path="url(#clipPath101)" stroke="none"
      /><text fill="black" x="9" xml:space="preserve" y="12" clip-path="url(#clipPath101)" stroke="none"
      >4.2: Operação bem sucedida</text
    ></g
    ><g font-size="11px" transform="translate(188,997)" fill-opacity="1" fill="white" text-rendering="geometricPrecision" image-rendering="optimizeQuality" font-family="sans-serif" stroke="white" stroke-opacity="1"
    ><rect x="0" width="76" height="15" y="0" clip-path="url(#clipPath102)" stroke="none"
      /><text fill="black" x="9" xml:space="preserve" y="12" clip-path="url(#clipPath102)" stroke="none"
      >4: Confirma</text
    ></g
    ><g font-size="11px" transform="translate(109,915)" fill-opacity="1" fill="white" text-rendering="geometricPrecision" image-rendering="optimizeQuality" font-family="sans-serif" stroke="white" stroke-opacity="1"
    ><rect x="0" width="232" height="30" y="0" clip-path="url(#clipPath103)" stroke="none"
      /><text fill="black" x="8" xml:space="preserve" y="12" clip-path="url(#clipPath103)" stroke="none"
      >3.2: Apresenta os dados atualizados e pede</text
      ><text fill="black" x="76" xml:space="preserve" y="27" clip-path="url(#clipPath103)" stroke="none"
      >que os confirme</text
    ></g
    ><g font-size="11px" transform="translate(124,784)" fill-opacity="1" fill="white" text-rendering="geometricPrecision" image-rendering="optimizeQuality" font-family="sans-serif" stroke="white" stroke-opacity="1"
    ><rect x="0" width="204" height="15" y="0" clip-path="url(#clipPath104)" stroke="none"
      /><text fill="black" x="10" xml:space="preserve" y="12" clip-path="url(#clipPath104)" stroke="none"
      >3: Atualiza os dados facultativamente</text
    ></g
    ><g font-size="11px" transform="translate(98,715)" fill-opacity="1" fill="white" text-rendering="geometricPrecision" image-rendering="optimizeQuality" font-family="sans-serif" stroke="white" stroke-opacity="1"
    ><rect x="0" width="276" height="15" y="0" clip-path="url(#clipPath105)" stroke="none"
      /><text fill="black" x="9" xml:space="preserve" y="12" clip-path="url(#clipPath105)" stroke="none"
      >2.2: Apresenta os dados da candidatura selecionada</text
    ></g
    ><g font-size="11px" transform="translate(124,545)" fill-opacity="1" fill="white" text-rendering="geometricPrecision" image-rendering="optimizeQuality" font-family="sans-serif" stroke="white" stroke-opacity="1"
    ><rect x="0" width="205" height="17" y="0" clip-path="url(#clipPath106)" stroke="none"
      /><text fill="black" x="9" xml:space="preserve" y="13" clip-path="url(#clipPath106)" stroke="none"
      >2: Seleciona a candidatura a atualizar</text
    ></g
    ><g font-size="11px" transform="translate(94,489)" fill-opacity="1" fill="white" text-rendering="geometricPrecision" image-rendering="optimizeQuality" font-family="sans-serif" stroke="white" stroke-opacity="1"
    ><rect x="0" width="277" height="36" y="0" clip-path="url(#clipPath107)" stroke="none"
      /><text fill="black" x="17" xml:space="preserve" y="15" clip-path="url(#clipPath107)" stroke="none"
      >1.2: Apresenta a Lista de candidaturas realizadas</text
      ><text fill="black" x="4" xml:space="preserve" y="30" clip-path="url(#clipPath107)" stroke="none"
      >pelo Freelancer e que se encontram em período válido</text
    ></g
    ><g font-size="11px" transform="translate(159,69)" fill-opacity="1" fill="white" text-rendering="geometricPrecision" image-rendering="optimizeQuality" font-family="sans-serif" stroke="white" stroke-opacity="1"
    ><rect x="0" width="139" height="15" y="0" clip-path="url(#clipPath108)" stroke="none"
      /><text fill="black" x="9" xml:space="preserve" y="12" clip-path="url(#clipPath108)" stroke="none"
      >1: Atualizar Candidatura</text
    ></g
    ><g font-size="8px" fill-opacity="1" fill="rgb(120,120,120)" text-rendering="geometricPrecision" image-rendering="optimizeQuality" stroke="rgb(120,120,120)" stroke-opacity="1"
    ><text x="0" xml:space="preserve" y="10" stroke="none"
      >Visual Paradigm Standard(1182115(Instituto Superior de Engenharia do Porto))</text
    ></g
  ></g
></svg
>
