<?xml version="1.0" encoding="UTF-8"?>
<!DOCTYPE svg PUBLIC '-//W3C//DTD SVG 1.0//EN'
          'http://www.w3.org/TR/2001/REC-SVG-20010904/DTD/svg10.dtd'>
<svg fill-opacity="0" xmlns:xlink="http://www.w3.org/1999/xlink" color-rendering="auto" color-interpolation="auto" text-rendering="auto" stroke="rgb(0,0,0)" stroke-linecap="square" width="1940" stroke-miterlimit="10" shape-rendering="auto" stroke-opacity="0" fill="rgb(0,0,0)" stroke-dasharray="none" font-weight="normal" stroke-width="1" height="1386" xmlns="http://www.w3.org/2000/svg" font-family="'Dialog'" font-style="normal" stroke-linejoin="miter" font-size="12px" stroke-dashoffset="0" image-rendering="auto"
><!--Generated by the Batik Graphics2D SVG Generator--><defs id="genericDefs"
  /><g
  ><defs id="defs1"
    ><clipPath clipPathUnits="userSpaceOnUse" id="clipPath1"
      ><path d="M-7 -7 L116 -7 L116 51 L-7 51 L-7 -7 Z"
      /></clipPath
      ><clipPath clipPathUnits="userSpaceOnUse" id="clipPath2"
      ><path d="M0 0 L0 25 L105 25 L105 0 Z"
      /></clipPath
      ><clipPath clipPathUnits="userSpaceOnUse" id="clipPath3"
      ><path d="M0 0 L0 15 L105 15 L105 0 Z"
      /></clipPath
      ><clipPath clipPathUnits="userSpaceOnUse" id="clipPath4"
      ><path d="M-7 -7 L158 -7 L158 78 L-7 78 L-7 -7 Z"
      /></clipPath
      ><clipPath clipPathUnits="userSpaceOnUse" id="clipPath5"
      ><path d="M0 0 L0 52 L147 52 L147 0 Z"
      /></clipPath
      ><clipPath clipPathUnits="userSpaceOnUse" id="clipPath6"
      ><path d="M0 0 L0 15 L148 15 L148 0 Z"
      /></clipPath
      ><clipPath clipPathUnits="userSpaceOnUse" id="clipPath7"
      ><path d="M-7 -7 L294 -7 L294 99 L-7 99 L-7 -7 Z"
      /></clipPath
      ><clipPath clipPathUnits="userSpaceOnUse" id="clipPath8"
      ><path d="M0 0 L0 73 L283 73 L283 0 Z"
      /></clipPath
      ><clipPath clipPathUnits="userSpaceOnUse" id="clipPath9"
      ><path d="M0 0 L0 15 L284 15 L284 0 Z"
      /></clipPath
      ><clipPath clipPathUnits="userSpaceOnUse" id="clipPath10"
      ><path d="M-7 -7 L149 -7 L149 67 L-7 67 L-7 -7 Z"
      /></clipPath
      ><clipPath clipPathUnits="userSpaceOnUse" id="clipPath11"
      ><path d="M0 0 L0 41 L138 41 L138 0 Z"
      /></clipPath
      ><clipPath clipPathUnits="userSpaceOnUse" id="clipPath12"
      ><path d="M0 0 L0 15 L139 15 L139 0 Z"
      /></clipPath
      ><clipPath clipPathUnits="userSpaceOnUse" id="clipPath13"
      ><path d="M-7 -7 L330 -7 L330 233 L-7 233 L-7 -7 Z"
      /></clipPath
      ><clipPath clipPathUnits="userSpaceOnUse" id="clipPath14"
      ><path d="M0 0 L0 207 L319 207 L319 0 Z"
      /></clipPath
      ><clipPath clipPathUnits="userSpaceOnUse" id="clipPath15"
      ><path d="M0 0 L0 15 L319 15 L319 0 Z"
      /></clipPath
      ><clipPath clipPathUnits="userSpaceOnUse" id="clipPath16"
      ><path d="M-7 -7 L223 -7 L223 99 L-7 99 L-7 -7 Z"
      /></clipPath
      ><clipPath clipPathUnits="userSpaceOnUse" id="clipPath17"
      ><path d="M0 0 L0 73 L212 73 L212 0 Z"
      /></clipPath
      ><clipPath clipPathUnits="userSpaceOnUse" id="clipPath18"
      ><path d="M0 0 L0 15 L213 15 L213 0 Z"
      /></clipPath
      ><clipPath clipPathUnits="userSpaceOnUse" id="clipPath19"
      ><path d="M-7 -7 L332 -7 L332 241 L-7 241 L-7 -7 Z"
      /></clipPath
      ><clipPath clipPathUnits="userSpaceOnUse" id="clipPath20"
      ><path d="M0 0 L0 215 L321 215 L321 0 Z"
      /></clipPath
      ><clipPath clipPathUnits="userSpaceOnUse" id="clipPath21"
      ><path d="M0 0 L0 15 L322 15 L322 0 Z"
      /></clipPath
      ><clipPath clipPathUnits="userSpaceOnUse" id="clipPath22"
      ><path d="M-7 -7 L397 -7 L397 158 L-7 158 L-7 -7 Z"
      /></clipPath
      ><clipPath clipPathUnits="userSpaceOnUse" id="clipPath23"
      ><path d="M0 0 L0 132 L386 132 L386 0 Z"
      /></clipPath
      ><clipPath clipPathUnits="userSpaceOnUse" id="clipPath24"
      ><path d="M0 0 L0 15 L387 15 L387 0 Z"
      /></clipPath
      ><clipPath clipPathUnits="userSpaceOnUse" id="clipPath25"
      ><path d="M-7 -7 L499 -7 L499 247 L-7 247 L-7 -7 Z"
      /></clipPath
      ><clipPath clipPathUnits="userSpaceOnUse" id="clipPath26"
      ><path d="M0 0 L0 221 L488 221 L488 0 Z"
      /></clipPath
      ><clipPath clipPathUnits="userSpaceOnUse" id="clipPath27"
      ><path d="M0 0 L0 15 L490 15 L490 0 Z"
      /></clipPath
      ><clipPath clipPathUnits="userSpaceOnUse" id="clipPath28"
      ><path d="M-7 -7 L149 -7 L149 110 L-7 110 L-7 -7 Z"
      /></clipPath
      ><clipPath clipPathUnits="userSpaceOnUse" id="clipPath29"
      ><path d="M0 0 L0 84 L138 84 L138 0 Z"
      /></clipPath
      ><clipPath clipPathUnits="userSpaceOnUse" id="clipPath30"
      ><path d="M-7 -7 L126 -7 L126 81 L-7 81 L-7 -7 Z"
      /></clipPath
      ><clipPath clipPathUnits="userSpaceOnUse" id="clipPath31"
      ><path d="M0 0 L0 55 L115 55 L115 0 Z"
      /></clipPath
      ><clipPath clipPathUnits="userSpaceOnUse" id="clipPath32"
      ><path d="M0 0 L0 15 L115 15 L115 0 Z"
      /></clipPath
      ><clipPath clipPathUnits="userSpaceOnUse" id="clipPath33"
      ><path d="M-7 -7 L164 -7 L164 171 L-7 171 L-7 -7 Z"
      /></clipPath
      ><clipPath clipPathUnits="userSpaceOnUse" id="clipPath34"
      ><path d="M0 0 L0 145 L153 145 L153 0 Z"
      /></clipPath
      ><clipPath clipPathUnits="userSpaceOnUse" id="clipPath35"
      ><path d="M0 0 L0 15 L153 15 L153 0 Z"
      /></clipPath
      ><clipPath clipPathUnits="userSpaceOnUse" id="clipPath36"
      ><path d="M-7 -7 L152 -7 L152 127 L-7 127 L-7 -7 Z"
      /></clipPath
      ><clipPath clipPathUnits="userSpaceOnUse" id="clipPath37"
      ><path d="M0 0 L0 101 L141 101 L141 0 Z"
      /></clipPath
      ><clipPath clipPathUnits="userSpaceOnUse" id="clipPath38"
      ><path d="M0 0 L0 15 L142 15 L142 0 Z"
      /></clipPath
      ><clipPath clipPathUnits="userSpaceOnUse" id="clipPath39"
      ><path d="M-7 -7 L51 -7 L51 51 L-7 51 L-7 -7 Z"
      /></clipPath
      ><clipPath clipPathUnits="userSpaceOnUse" id="clipPath40"
      ><path d="M0 0 L0 40 L40 40 L40 0 Z"
      /></clipPath
      ><clipPath clipPathUnits="userSpaceOnUse" id="clipPath41"
      ><path d="M-7 -7 L50 -7 L50 26 L-7 26 L-7 -7 Z"
      /></clipPath
      ><clipPath clipPathUnits="userSpaceOnUse" id="clipPath42"
      ><path d="M0 0 L0 15 L39 15 L39 0 Z"
      /></clipPath
      ><clipPath clipPathUnits="userSpaceOnUse" id="clipPath43"
      ><path d="M-7 -7 L38 -7 L38 26 L-7 26 L-7 -7 Z"
      /></clipPath
      ><clipPath clipPathUnits="userSpaceOnUse" id="clipPath44"
      ><path d="M0 0 L0 15 L27 15 L27 0 Z"
      /></clipPath
      ><clipPath clipPathUnits="userSpaceOnUse" id="clipPath45"
      ><path d="M0 0 L301 0 L301 129 L0 129 L0 0 Z"
      /></clipPath
      ><clipPath clipPathUnits="userSpaceOnUse" id="clipPath46"
      ><path d="M0 0 L0 129 L301 129 L301 0 Z"
      /></clipPath
      ><clipPath clipPathUnits="userSpaceOnUse" id="clipPath47"
      ><path d="M0 0 L129 0 L129 171 L0 171 L0 0 Z"
      /></clipPath
      ><clipPath clipPathUnits="userSpaceOnUse" id="clipPath48"
      ><path d="M0 0 L0 171 L129 171 L129 0 Z"
      /></clipPath
      ><clipPath clipPathUnits="userSpaceOnUse" id="clipPath49"
      ><path d="M0 0 L506 0 L506 426 L0 426 L0 0 Z"
      /></clipPath
      ><clipPath clipPathUnits="userSpaceOnUse" id="clipPath50"
      ><path d="M0 0 L0 426 L506 426 L506 202 L467 202 L467 187 L506 187 L506 0 Z"
      /></clipPath
      ><clipPath clipPathUnits="userSpaceOnUse" id="clipPath51"
      ><path d="M0 0 L129 0 L129 186 L0 186 L0 0 Z"
      /></clipPath
      ><clipPath clipPathUnits="userSpaceOnUse" id="clipPath52"
      ><path d="M0 0 L0 186 L129 186 L129 0 Z"
      /></clipPath
      ><clipPath clipPathUnits="userSpaceOnUse" id="clipPath53"
      ><path d="M0 0 L377 0 L377 129 L0 129 L0 0 Z"
      /></clipPath
      ><clipPath clipPathUnits="userSpaceOnUse" id="clipPath54"
      ><path d="M0 0 L0 129 L377 129 L377 0 Z"
      /></clipPath
      ><clipPath clipPathUnits="userSpaceOnUse" id="clipPath55"
      ><path d="M0 0 L170 0 L170 535 L0 535 L0 0 Z"
      /></clipPath
      ><clipPath clipPathUnits="userSpaceOnUse" id="clipPath56"
      ><path d="M0 0 L0 535 L170 535 L170 0 Z"
      /></clipPath
      ><clipPath clipPathUnits="userSpaceOnUse" id="clipPath57"
      ><path d="M0 0 L129 0 L129 629 L0 629 L0 0 Z"
      /></clipPath
      ><clipPath clipPathUnits="userSpaceOnUse" id="clipPath58"
      ><path d="M97 279 L97 294 L25 294 L25 279 ZM0 0 L0 629 L129 629 L129 0 Z"
      /></clipPath
      ><clipPath clipPathUnits="userSpaceOnUse" id="clipPath59"
      ><path d="M0 0 L1422 0 L1422 847 L0 847 L0 0 Z"
      /></clipPath
      ><clipPath clipPathUnits="userSpaceOnUse" id="clipPath60"
      ><path d="M415 190 L415 205 L353 205 L353 190 ZM753 195 L753 210 L683 210 L683 195 ZM242 259 L242 274 L170 274 L170 259 ZM1065 760 L1065 775 L1011 775 L1011 760 ZM0 0 L0 847 L1422 847 L1422 0 Z"
      /></clipPath
      ><clipPath clipPathUnits="userSpaceOnUse" id="clipPath61"
      ><path d="M0 0 L344 0 L344 275 L0 275 L0 0 Z"
      /></clipPath
      ><clipPath clipPathUnits="userSpaceOnUse" id="clipPath62"
      ><path d="M159 210 L159 225 L97 225 L97 210 ZM0 0 L0 275 L344 275 L344 0 Z"
      /></clipPath
      ><clipPath clipPathUnits="userSpaceOnUse" id="clipPath63"
      ><path d="M0 0 L374 0 L374 129 L0 129 L0 0 Z"
      /></clipPath
      ><clipPath clipPathUnits="userSpaceOnUse" id="clipPath64"
      ><path d="M145 73 L145 88 L75 88 L75 73 ZM0 0 L0 129 L374 129 L374 0 Z"
      /></clipPath
      ><clipPath clipPathUnits="userSpaceOnUse" id="clipPath65"
      ><path d="M0 0 L682 0 L682 161 L0 161 L0 0 Z"
      /></clipPath
      ><clipPath clipPathUnits="userSpaceOnUse" id="clipPath66"
      ><path d="M0 0 L0 161 L682 161 L682 0 Z"
      /></clipPath
      ><clipPath clipPathUnits="userSpaceOnUse" id="clipPath67"
      ><path d="M0 0 L622 0 L622 739 L0 739 L0 0 Z"
      /></clipPath
      ><clipPath clipPathUnits="userSpaceOnUse" id="clipPath68"
      ><path d="M506 85 L506 100 L451 100 L451 85 ZM160 300 L160 315 L98 315 L98 300 ZM498 305 L498 320 L428 320 L428 305 ZM0 0 L0 739 L622 739 L622 0 Z"
      /></clipPath
      ><clipPath clipPathUnits="userSpaceOnUse" id="clipPath69"
      ><path d="M0 0 L316 0 L316 129 L0 129 L0 0 Z"
      /></clipPath
      ><clipPath clipPathUnits="userSpaceOnUse" id="clipPath70"
      ><path d="M0 0 L0 129 L316 129 L316 0 Z"
      /></clipPath
      ><clipPath clipPathUnits="userSpaceOnUse" id="clipPath71"
      ><path d="M0 0 L170 0 L170 534 L0 534 L0 0 Z"
      /></clipPath
      ><clipPath clipPathUnits="userSpaceOnUse" id="clipPath72"
      ><path d="M136 265 L136 280 L84 280 L84 265 ZM0 0 L0 534 L170 534 L170 0 Z"
      /></clipPath
      ><clipPath clipPathUnits="userSpaceOnUse" id="clipPath73"
      ><path d="M0 0 L1009 0 L1009 317 L0 317 L0 0 Z"
      /></clipPath
      ><clipPath clipPathUnits="userSpaceOnUse" id="clipPath74"
      ><path d="M233 50 L233 65 L170 65 L170 50 ZM926 268 L926 283 L871 283 L871 268 ZM0 0 L0 317 L1009 317 L1009 0 Z"
      /></clipPath
      ><clipPath clipPathUnits="userSpaceOnUse" id="clipPath75"
      ><path d="M0 0 L259 0 L259 170 L0 170 L0 0 Z"
      /></clipPath
      ><clipPath clipPathUnits="userSpaceOnUse" id="clipPath76"
      ><path d="M0 0 L0 170 L259 170 L259 0 Z"
      /></clipPath
      ><clipPath clipPathUnits="userSpaceOnUse" id="clipPath77"
      ><path d="M0 0 L549 0 L549 129 L0 129 L0 0 Z"
      /></clipPath
      ><clipPath clipPathUnits="userSpaceOnUse" id="clipPath78"
      ><path d="M328 62 L328 77 L273 77 L273 62 ZM0 0 L0 129 L549 129 L549 0 Z"
      /></clipPath
      ><clipPath clipPathUnits="userSpaceOnUse" id="clipPath79"
      ><path d="M0 0 L129 0 L129 237 L0 237 L0 0 Z"
      /></clipPath
      ><clipPath clipPathUnits="userSpaceOnUse" id="clipPath80"
      ><path d="M0 0 L0 237 L129 237 L129 0 Z"
      /></clipPath
      ><clipPath clipPathUnits="userSpaceOnUse" id="clipPath81"
      ><path d="M0 0 L464 0 L464 372 L0 372 L0 0 Z"
      /></clipPath
      ><clipPath clipPathUnits="userSpaceOnUse" id="clipPath82"
      ><path d="M313 53 L313 68 L259 68 L259 53 ZM0 0 L0 372 L464 372 L464 0 Z"
      /></clipPath
      ><clipPath clipPathUnits="userSpaceOnUse" id="clipPath83"
      ><path d="M0 0 L129 0 L129 201 L0 201 L0 0 Z"
      /></clipPath
      ><clipPath clipPathUnits="userSpaceOnUse" id="clipPath84"
      ><path d="M0 0 L0 201 L129 201 L129 0 Z"
      /></clipPath
      ><clipPath clipPathUnits="userSpaceOnUse" id="clipPath85"
      ><path d="M-54 -15 L108 -15 L108 30 L-54 30 L-54 -15 Z"
      /></clipPath
      ><clipPath clipPathUnits="userSpaceOnUse" id="clipPath86"
      ><path d="M-55 -15 L110 -15 L110 30 L-55 30 L-55 -15 Z"
      /></clipPath
      ><clipPath clipPathUnits="userSpaceOnUse" id="clipPath87"
      ><path d="M-63 -15 L126 -15 L126 30 L-63 30 L-63 -15 Z"
      /></clipPath
      ><clipPath clipPathUnits="userSpaceOnUse" id="clipPath88"
      ><path d="M-52 -15 L104 -15 L104 30 L-52 30 L-52 -15 Z"
      /></clipPath
      ><clipPath clipPathUnits="userSpaceOnUse" id="clipPath89"
      ><path d="M-70 -15 L140 -15 L140 30 L-70 30 L-70 -15 Z"
      /></clipPath
      ><clipPath clipPathUnits="userSpaceOnUse" id="clipPath90"
      ><path d="M-62 -15 L124 -15 L124 30 L-62 30 L-62 -15 Z"
      /></clipPath
      ><clipPath clipPathUnits="userSpaceOnUse" id="clipPath91"
      ><path d="M-72 -15 L144 -15 L144 30 L-72 30 L-72 -15 Z"
      /></clipPath
    ></defs
    ><g fill="white" text-rendering="geometricPrecision" fill-opacity="1" stroke-opacity="1" stroke="white"
    ><rect x="0" width="1940" height="1386" y="0" stroke="none"
    /></g
    ><g font-size="11px" transform="translate(93,2)" fill-opacity="1" fill="rgb(122,207,245)" text-rendering="geometricPrecision" image-rendering="optimizeQuality" font-family="sans-serif" stroke="rgb(122,207,245)" font-weight="bold" stroke-opacity="1"
    ><rect x="0" width="105" height="40" y="0" clip-path="url(#clipPath1)" stroke="none"
    /></g
    ><g fill-opacity="1" text-rendering="geometricPrecision" stroke="black" stroke-linecap="butt" transform="translate(93,2)" stroke-miterlimit="0" stroke-opacity="1" fill="black" font-weight="bold" font-family="sans-serif" stroke-linejoin="round" font-size="11px" image-rendering="optimizeQuality"
    ><rect fill="none" x="0" width="105" height="40" y="0" clip-path="url(#clipPath1)"
      /><line y2="15" fill="none" x1="0" clip-path="url(#clipPath1)" x2="105" y1="15"
    /></g
    ><g font-size="11px" transform="translate(93,2)" fill-opacity="1" fill="black" text-rendering="geometricPrecision" image-rendering="optimizeQuality" font-family="sans-serif" stroke="black" font-weight="bold" stroke-opacity="1"
    ><text x="5" xml:space="preserve" y="12" clip-path="url(#clipPath3)" stroke="none"
      >AdjudicarTarefaUI</text
    ></g
    ><g font-size="11px" transform="translate(371,2)" fill-opacity="1" fill="rgb(122,207,245)" text-rendering="geometricPrecision" image-rendering="optimizeQuality" font-family="sans-serif" stroke="rgb(122,207,245)" font-weight="bold" stroke-opacity="1"
    ><rect x="0" width="147" height="67" y="0" clip-path="url(#clipPath4)" stroke="none"
    /></g
    ><g fill-opacity="1" text-rendering="geometricPrecision" stroke="black" stroke-linecap="butt" transform="translate(371,2)" stroke-miterlimit="0" stroke-opacity="1" fill="black" font-weight="bold" font-family="sans-serif" stroke-linejoin="round" font-size="11px" image-rendering="optimizeQuality"
    ><rect fill="none" x="0" width="147" height="67" y="0" clip-path="url(#clipPath4)"
      /><line y2="15" fill="none" x1="0" clip-path="url(#clipPath4)" x2="147" y1="15"
    /></g
    ><g font-size="11px" transform="matrix(1,0,0,1,371,17)" fill-opacity="1" fill="black" text-rendering="geometricPrecision" image-rendering="optimizeQuality" font-family="sans-serif" stroke="black" stroke-opacity="1"
    ><text x="2" xml:space="preserve" y="14" clip-path="url(#clipPath5)" stroke="none"
      >+getAnunciosSeriados()</text
    ></g
    ><g font-size="11px" transform="matrix(1,0,0,1,371,17)" fill-opacity="1" fill="black" text-rendering="geometricPrecision" image-rendering="optimizeQuality" font-family="sans-serif" stroke="black" stroke-opacity="1"
    ><text x="2" xml:space="preserve" y="29" clip-path="url(#clipPath5)" stroke="none"
      >+novaAdjudicacao()</text
    ></g
    ><g font-size="11px" transform="matrix(1,0,0,1,371,17)" fill-opacity="1" fill="black" text-rendering="geometricPrecision" image-rendering="optimizeQuality" font-family="sans-serif" stroke="black" stroke-opacity="1"
    ><text x="2" xml:space="preserve" y="44" clip-path="url(#clipPath5)" stroke="none"
      >+registaAdjudicacao()</text
    ></g
    ><g font-size="11px" transform="translate(371,2)" fill-opacity="1" fill="black" text-rendering="geometricPrecision" image-rendering="optimizeQuality" font-family="sans-serif" stroke="black" font-weight="bold" stroke-opacity="1"
    ><text x="5" xml:space="preserve" y="12" clip-path="url(#clipPath6)" stroke="none"
      >AdjudicarTarefaController</text
    ></g
    ><g font-size="11px" transform="translate(442,113)" fill-opacity="1" fill="rgb(122,207,245)" text-rendering="geometricPrecision" image-rendering="optimizeQuality" font-family="sans-serif" stroke="rgb(122,207,245)" font-weight="bold" stroke-opacity="1"
    ><rect x="0" width="283" height="88" y="0" clip-path="url(#clipPath7)" stroke="none"
    /></g
    ><g fill-opacity="1" text-rendering="geometricPrecision" stroke="black" stroke-linecap="butt" transform="translate(442,113)" stroke-miterlimit="0" stroke-opacity="1" fill="black" font-weight="bold" font-family="sans-serif" stroke-linejoin="round" font-size="11px" image-rendering="optimizeQuality"
    ><rect fill="none" x="0" width="283" height="88" y="0" clip-path="url(#clipPath7)"
      /><line y2="15" fill="none" x1="0" clip-path="url(#clipPath7)" x2="283" y1="15"
    /></g
    ><g font-size="11px" transform="matrix(1,0,0,1,442,128)" fill-opacity="1" fill="black" text-rendering="geometricPrecision" image-rendering="optimizeQuality" font-family="sans-serif" stroke="black" stroke-opacity="1"
    ><text x="2" xml:space="preserve" y="14" clip-path="url(#clipPath8)" stroke="none"
      >-designacao : string</text
    ></g
    ><g stroke-linecap="butt" font-size="11px" transform="matrix(1,0,0,1,442,128)" fill-opacity="1" fill="black" text-rendering="geometricPrecision" image-rendering="optimizeQuality" font-family="sans-serif" stroke-linejoin="bevel" stroke="black" stroke-opacity="1" stroke-miterlimit="0"
    ><line y2="19" fill="none" x1="0" clip-path="url(#clipPath8)" x2="283" y1="19"
    /></g
    ><g font-size="11px" transform="matrix(1,0,0,1,442,128)" fill-opacity="1" fill="black" text-rendering="geometricPrecision" image-rendering="optimizeQuality" font-family="sans-serif" stroke="black" stroke-opacity="1"
    ><text x="2" xml:space="preserve" y="33" clip-path="url(#clipPath8)" stroke="none"
      >+validaAdjudicacao(Adjudicacao adj)</text
    ></g
    ><g font-size="11px" transform="matrix(1,0,0,1,442,128)" fill-opacity="1" fill="black" text-rendering="geometricPrecision" image-rendering="optimizeQuality" font-family="sans-serif" stroke="black" stroke-opacity="1"
    ><text x="2" xml:space="preserve" y="48" clip-path="url(#clipPath8)" stroke="none"
      >+registaAdjudicacao(Adjudicacao adj)</text
    ></g
    ><g font-size="11px" transform="translate(442,113)" fill-opacity="1" fill="black" text-rendering="geometricPrecision" image-rendering="optimizeQuality" font-family="sans-serif" stroke="black" font-weight="bold" stroke-opacity="1"
    ><text x="113" xml:space="preserve" y="12" clip-path="url(#clipPath9)" stroke="none"
      >Plataforma</text
    ></g
    ><g font-size="11px" transform="translate(55,144)" fill-opacity="1" fill="rgb(122,207,245)" text-rendering="geometricPrecision" image-rendering="optimizeQuality" font-family="sans-serif" stroke="rgb(122,207,245)" font-weight="bold" stroke-opacity="1"
    ><rect x="0" width="138" height="56" y="0" clip-path="url(#clipPath10)" stroke="none"
    /></g
    ><g fill-opacity="1" text-rendering="geometricPrecision" stroke="black" stroke-linecap="butt" transform="translate(55,144)" stroke-miterlimit="0" stroke-opacity="1" fill="black" font-weight="bold" font-family="sans-serif" stroke-linejoin="round" font-size="11px" image-rendering="optimizeQuality"
    ><rect fill="none" x="0" width="138" height="56" y="0" clip-path="url(#clipPath10)"
      /><line y2="15" fill="none" x1="0" clip-path="url(#clipPath10)" x2="138" y1="15"
    /></g
    ><g font-size="11px" transform="matrix(1,0,0,1,55,159)" fill-opacity="1" fill="black" text-rendering="geometricPrecision" image-rendering="optimizeQuality" font-family="sans-serif" stroke="black" stroke-opacity="1"
    ><text x="2" xml:space="preserve" y="14" clip-path="url(#clipPath11)" stroke="none"
      >-lsOrg : List&lt;Organizacao&gt;</text
    ></g
    ><g font-size="11px" transform="translate(55,144)" fill-opacity="1" fill="black" text-rendering="geometricPrecision" image-rendering="optimizeQuality" font-family="sans-serif" stroke="black" font-weight="bold" stroke-opacity="1"
    ><text x="12" xml:space="preserve" y="12" clip-path="url(#clipPath12)" stroke="none"
      >RegistoOrganizacoes</text
    ></g
    ><g font-size="11px" transform="translate(2,565)" fill-opacity="1" fill="rgb(122,207,245)" text-rendering="geometricPrecision" image-rendering="optimizeQuality" font-family="sans-serif" stroke="rgb(122,207,245)" font-weight="bold" stroke-opacity="1"
    ><rect x="0" width="319" height="222" y="0" clip-path="url(#clipPath13)" stroke="none"
    /></g
    ><g fill-opacity="1" text-rendering="geometricPrecision" stroke="black" stroke-linecap="butt" transform="translate(2,565)" stroke-miterlimit="0" stroke-opacity="1" fill="black" font-weight="bold" font-family="sans-serif" stroke-linejoin="round" font-size="11px" image-rendering="optimizeQuality"
    ><rect fill="none" x="0" width="319" height="222" y="0" clip-path="url(#clipPath13)"
      /><line y2="15" fill="none" x1="0" clip-path="url(#clipPath13)" x2="319" y1="15"
    /></g
    ><g font-size="11px" transform="matrix(1,0,0,1,2,580)" fill-opacity="1" fill="black" text-rendering="geometricPrecision" image-rendering="optimizeQuality" font-family="sans-serif" stroke="black" stroke-opacity="1"
    ><text x="2" xml:space="preserve" y="14" clip-path="url(#clipPath14)" stroke="none"
      >-nome : string</text
    ></g
    ><g font-size="11px" transform="matrix(1,0,0,1,2,580)" fill-opacity="1" fill="black" text-rendering="geometricPrecision" image-rendering="optimizeQuality" font-family="sans-serif" stroke="black" stroke-opacity="1"
    ><text x="2" xml:space="preserve" y="29" clip-path="url(#clipPath14)" stroke="none"
      >-NIF : string</text
    ></g
    ><g font-size="11px" transform="matrix(1,0,0,1,2,580)" fill-opacity="1" fill="black" text-rendering="geometricPrecision" image-rendering="optimizeQuality" font-family="sans-serif" stroke="black" stroke-opacity="1"
    ><text x="2" xml:space="preserve" y="44" clip-path="url(#clipPath14)" stroke="none"
      >-website : string</text
    ></g
    ><g font-size="11px" transform="matrix(1,0,0,1,2,580)" fill-opacity="1" fill="black" text-rendering="geometricPrecision" image-rendering="optimizeQuality" font-family="sans-serif" stroke="black" stroke-opacity="1"
    ><text x="2" xml:space="preserve" y="59" clip-path="url(#clipPath14)" stroke="none"
      >-telefone : string</text
    ></g
    ><g font-size="11px" transform="matrix(1,0,0,1,2,580)" fill-opacity="1" fill="black" text-rendering="geometricPrecision" image-rendering="optimizeQuality" font-family="sans-serif" stroke="black" stroke-opacity="1"
    ><text x="2" xml:space="preserve" y="74" clip-path="url(#clipPath14)" stroke="none"
      >-email : string</text
      ><line stroke-linecap="butt" clip-path="url(#clipPath14)" fill="none" x1="0" x2="319" y1="79" y2="79" stroke-linejoin="bevel" stroke-miterlimit="0"
    /></g
    ><g font-size="11px" transform="matrix(1,0,0,1,2,580)" fill-opacity="1" fill="black" text-rendering="geometricPrecision" image-rendering="optimizeQuality" font-family="sans-serif" stroke="black" stroke-opacity="1"
    ><text x="2" xml:space="preserve" y="93" clip-path="url(#clipPath14)" stroke="none"
      >+novoColaborador(nome, funcao, telefone, email) : Colaborador</text
    ></g
    ><g font-size="11px" transform="matrix(1,0,0,1,2,580)" fill-opacity="1" fill="black" text-rendering="geometricPrecision" image-rendering="optimizeQuality" font-family="sans-serif" stroke="black" stroke-opacity="1"
    ><text x="2" xml:space="preserve" y="108" clip-path="url(#clipPath14)" stroke="none"
      >+adicionaColaborador(colab : Colaborador) : boolean</text
    ></g
    ><g font-size="11px" transform="matrix(1,0,0,1,2,580)" fill-opacity="1" fill="black" text-rendering="geometricPrecision" image-rendering="optimizeQuality" font-family="sans-serif" stroke="black" stroke-opacity="1"
    ><text x="2" xml:space="preserve" y="123" clip-path="url(#clipPath14)" stroke="none"
      >+registaColaborador(colab : Colaborador) : boolean</text
    ></g
    ><g font-size="11px" transform="matrix(1,0,0,1,2,580)" fill-opacity="1" fill="black" text-rendering="geometricPrecision" image-rendering="optimizeQuality" font-family="sans-serif" stroke="black" stroke-opacity="1"
    ><text x="2" xml:space="preserve" y="138" clip-path="url(#clipPath14)" stroke="none"
      >+validaColaborador(colab : Colaborador) : boolean</text
    ></g
    ><g font-size="11px" transform="matrix(1,0,0,1,2,580)" fill-opacity="1" fill="black" text-rendering="geometricPrecision" image-rendering="optimizeQuality" font-family="sans-serif" stroke="black" stroke-opacity="1"
    ><text x="2" xml:space="preserve" y="153" clip-path="url(#clipPath14)" stroke="none"
      >+getRegistoTarefa() : RegistoTarefa</text
    ></g
    ><g font-size="11px" transform="matrix(1,0,0,1,2,580)" fill-opacity="1" fill="black" text-rendering="geometricPrecision" image-rendering="optimizeQuality" font-family="sans-serif" stroke="black" stroke-opacity="1"
    ><text x="2" xml:space="preserve" y="168" clip-path="url(#clipPath14)" stroke="none"
      >+getRegistoColaborador() : RegistoColaborador</text
    ></g
    ><g font-size="11px" transform="matrix(1,0,0,1,2,580)" fill-opacity="1" fill="black" text-rendering="geometricPrecision" image-rendering="optimizeQuality" font-family="sans-serif" stroke="black" stroke-opacity="1"
    ><text x="2" xml:space="preserve" y="183" clip-path="url(#clipPath14)" stroke="none"
      >-generateRandomPwd() : string</text
    ></g
    ><g font-size="11px" transform="matrix(1,0,0,1,2,580)" fill-opacity="1" fill="black" text-rendering="geometricPrecision" image-rendering="optimizeQuality" font-family="sans-serif" stroke="black" stroke-opacity="1"
    ><text x="2" xml:space="preserve" y="198" clip-path="url(#clipPath14)" stroke="none"
      >+tensColaboradorComEmail(email : string)</text
    ></g
    ><g font-size="11px" transform="translate(2,565)" fill-opacity="1" fill="black" text-rendering="geometricPrecision" image-rendering="optimizeQuality" font-family="sans-serif" stroke="black" font-weight="bold" stroke-opacity="1"
    ><text x="125" xml:space="preserve" y="12" clip-path="url(#clipPath15)" stroke="none"
      >Organizacao</text
    ></g
    ><g font-size="11px" transform="translate(538,259)" fill-opacity="1" fill="rgb(122,207,245)" text-rendering="geometricPrecision" image-rendering="optimizeQuality" font-family="sans-serif" stroke="rgb(122,207,245)" font-weight="bold" stroke-opacity="1"
    ><rect x="0" width="212" height="88" y="0" clip-path="url(#clipPath16)" stroke="none"
    /></g
    ><g fill-opacity="1" text-rendering="geometricPrecision" stroke="black" stroke-linecap="butt" transform="translate(538,259)" stroke-miterlimit="0" stroke-opacity="1" fill="black" font-weight="bold" font-family="sans-serif" stroke-linejoin="round" font-size="11px" image-rendering="optimizeQuality"
    ><rect fill="none" x="0" width="212" height="88" y="0" clip-path="url(#clipPath16)"
      /><line y2="15" fill="none" x1="0" clip-path="url(#clipPath16)" x2="212" y1="15"
    /></g
    ><g font-size="11px" transform="matrix(1,0,0,1,538,274)" fill-opacity="1" fill="black" text-rendering="geometricPrecision" image-rendering="optimizeQuality" font-family="sans-serif" stroke="black" stroke-opacity="1"
    ><text x="2" xml:space="preserve" y="14" clip-path="url(#clipPath17)" stroke="none"
      >-lsAnun : List&lt;Anuncio&gt;</text
    ></g
    ><g stroke-linecap="butt" font-size="11px" transform="matrix(1,0,0,1,538,274)" fill-opacity="1" fill="black" text-rendering="geometricPrecision" image-rendering="optimizeQuality" font-family="sans-serif" stroke-linejoin="bevel" stroke="black" stroke-opacity="1" stroke-miterlimit="0"
    ><line y2="19" fill="none" x1="0" clip-path="url(#clipPath17)" x2="212" y1="19"
    /></g
    ><g font-size="11px" transform="matrix(1,0,0,1,538,274)" fill-opacity="1" fill="black" text-rendering="geometricPrecision" image-rendering="optimizeQuality" font-family="sans-serif" stroke="black" stroke-opacity="1"
    ><text x="2" xml:space="preserve" y="33" clip-path="url(#clipPath17)" stroke="none"
      >+getAnuncioBySeriacaoManualOpcional()</text
    ></g
    ><g font-size="11px" transform="matrix(1,0,0,1,538,274)" fill-opacity="1" fill="black" text-rendering="geometricPrecision" image-rendering="optimizeQuality" font-family="sans-serif" stroke="black" stroke-opacity="1"
    ><text x="2" xml:space="preserve" y="48" clip-path="url(#clipPath17)" stroke="none"
      >+getAnuncioByID()</text
    ></g
    ><g font-size="11px" transform="translate(538,259)" fill-opacity="1" fill="black" text-rendering="geometricPrecision" image-rendering="optimizeQuality" font-family="sans-serif" stroke="black" font-weight="bold" stroke-opacity="1"
    ><text x="60" xml:space="preserve" y="12" clip-path="url(#clipPath18)" stroke="none"
      >RegistoAnuncios</text
    ></g
    ><g font-size="11px" transform="translate(477,420)" fill-opacity="1" fill="rgb(122,207,245)" text-rendering="geometricPrecision" image-rendering="optimizeQuality" font-family="sans-serif" stroke="rgb(122,207,245)" font-weight="bold" stroke-opacity="1"
    ><rect x="0" width="321" height="230" y="0" clip-path="url(#clipPath19)" stroke="none"
    /></g
    ><g fill-opacity="1" text-rendering="geometricPrecision" stroke="black" stroke-linecap="butt" transform="translate(477,420)" stroke-miterlimit="0" stroke-opacity="1" fill="black" font-weight="bold" font-family="sans-serif" stroke-linejoin="round" font-size="11px" image-rendering="optimizeQuality"
    ><rect fill="none" x="0" width="321" height="230" y="0" clip-path="url(#clipPath19)"
      /><line y2="15" fill="none" x1="0" clip-path="url(#clipPath19)" x2="321" y1="15"
    /></g
    ><g font-size="11px" transform="matrix(1,0,0,1,477,435)" fill-opacity="1" fill="black" text-rendering="geometricPrecision" image-rendering="optimizeQuality" font-family="sans-serif" stroke="black" stroke-opacity="1"
    ><text x="2" xml:space="preserve" y="14" clip-path="url(#clipPath20)" stroke="none"
      >-dataInicioPublicacao : xs:date</text
    ></g
    ><g font-size="11px" transform="matrix(1,0,0,1,477,435)" fill-opacity="1" fill="black" text-rendering="geometricPrecision" image-rendering="optimizeQuality" font-family="sans-serif" stroke="black" stroke-opacity="1"
    ><text x="2" xml:space="preserve" y="29" clip-path="url(#clipPath20)" stroke="none"
      >-dataFimPublicacao : xs:date</text
    ></g
    ><g font-size="11px" transform="matrix(1,0,0,1,477,435)" fill-opacity="1" fill="black" text-rendering="geometricPrecision" image-rendering="optimizeQuality" font-family="sans-serif" stroke="black" stroke-opacity="1"
    ><text x="2" xml:space="preserve" y="44" clip-path="url(#clipPath20)" stroke="none"
      >-dataInicioCandidatura : xs:date</text
    ></g
    ><g font-size="11px" transform="matrix(1,0,0,1,477,435)" fill-opacity="1" fill="black" text-rendering="geometricPrecision" image-rendering="optimizeQuality" font-family="sans-serif" stroke="black" stroke-opacity="1"
    ><text x="2" xml:space="preserve" y="59" clip-path="url(#clipPath20)" stroke="none"
      >-dataFimCandidatura : xs:date</text
    ></g
    ><g font-size="11px" transform="matrix(1,0,0,1,477,435)" fill-opacity="1" fill="black" text-rendering="geometricPrecision" image-rendering="optimizeQuality" font-family="sans-serif" stroke="black" stroke-opacity="1"
    ><text x="2" xml:space="preserve" y="74" clip-path="url(#clipPath20)" stroke="none"
      >-dataInicioSeriacao : xs:date</text
    ></g
    ><g font-size="11px" transform="matrix(1,0,0,1,477,435)" fill-opacity="1" fill="black" text-rendering="geometricPrecision" image-rendering="optimizeQuality" font-family="sans-serif" stroke="black" stroke-opacity="1"
    ><text x="2" xml:space="preserve" y="89" clip-path="url(#clipPath20)" stroke="none"
      >-dataFimSeriacao : xs:date</text
    ></g
    ><g font-size="11px" transform="matrix(1,0,0,1,477,435)" fill-opacity="1" fill="black" text-rendering="geometricPrecision" image-rendering="optimizeQuality" font-family="sans-serif" stroke="black" stroke-opacity="1"
    ><text x="2" xml:space="preserve" y="104" clip-path="url(#clipPath20)" stroke="none"
      >-codigoAnuncio : string</text
    ></g
    ><g font-size="11px" transform="matrix(1,0,0,1,477,435)" fill-opacity="1" fill="black" text-rendering="geometricPrecision" image-rendering="optimizeQuality" font-family="sans-serif" stroke="black" stroke-opacity="1"
    ><text x="2" xml:space="preserve" y="119" clip-path="url(#clipPath20)" stroke="none"
      >-codigoTarefa : string</text
    ></g
    ><g font-size="11px" transform="matrix(1,0,0,1,477,435)" fill-opacity="1" fill="black" text-rendering="geometricPrecision" image-rendering="optimizeQuality" font-family="sans-serif" stroke="black" stroke-opacity="1"
    ><text x="2" xml:space="preserve" y="134" clip-path="url(#clipPath20)" stroke="none"
      >-tipoRegimento : TipoRegimento</text
      ><line stroke-linecap="butt" clip-path="url(#clipPath20)" fill="none" x1="0" x2="321" y1="139" y2="139" stroke-linejoin="bevel" stroke-miterlimit="0"
    /></g
    ><g font-size="11px" transform="matrix(1,0,0,1,477,435)" fill-opacity="1" fill="black" text-rendering="geometricPrecision" image-rendering="optimizeQuality" font-family="sans-serif" stroke="black" stroke-opacity="1"
    ><text x="2" xml:space="preserve" y="153" clip-path="url(#clipPath20)" stroke="none"
      >+getRegistoCandidaturas() : RegistoCandidatura</text
    ></g
    ><g font-size="11px" transform="matrix(1,0,0,1,477,435)" fill-opacity="1" fill="black" text-rendering="geometricPrecision" image-rendering="optimizeQuality" font-family="sans-serif" stroke="black" stroke-opacity="1"
    ><text x="2" xml:space="preserve" y="168" clip-path="url(#clipPath20)" stroke="none"
      >+getRegistoClassificacao() : RegistoClassificacao</text
    ></g
    ><g font-size="11px" transform="matrix(1,0,0,1,477,435)" fill-opacity="1" fill="black" text-rendering="geometricPrecision" image-rendering="optimizeQuality" font-family="sans-serif" stroke="black" stroke-opacity="1"
    ><text x="2" xml:space="preserve" y="183" clip-path="url(#clipPath20)" stroke="none"
      >+createAdjudicacao(Organizacao org, Freelancer fl, DateInicio...</text
    ></g
    ><g font-size="11px" transform="translate(477,420)" fill-opacity="1" fill="black" text-rendering="geometricPrecision" image-rendering="optimizeQuality" font-family="sans-serif" stroke="black" font-weight="bold" stroke-opacity="1"
    ><text x="139" xml:space="preserve" y="12" clip-path="url(#clipPath21)" stroke="none"
      >Anuncio</text
    ></g
    ><g font-size="11px" transform="translate(233,1150)" fill-opacity="1" fill="rgb(122,207,245)" text-rendering="geometricPrecision" image-rendering="optimizeQuality" font-family="sans-serif" stroke="rgb(122,207,245)" font-weight="bold" stroke-opacity="1"
    ><rect x="0" width="386" height="147" y="0" clip-path="url(#clipPath22)" stroke="none"
    /></g
    ><g fill-opacity="1" text-rendering="geometricPrecision" stroke="black" stroke-linecap="butt" transform="translate(233,1150)" stroke-miterlimit="0" stroke-opacity="1" fill="black" font-weight="bold" font-family="sans-serif" stroke-linejoin="round" font-size="11px" image-rendering="optimizeQuality"
    ><rect fill="none" x="0" width="386" height="147" y="0" clip-path="url(#clipPath22)"
      /><line y2="15" fill="none" x1="0" clip-path="url(#clipPath22)" x2="386" y1="15"
    /></g
    ><g font-size="11px" transform="matrix(1,0,0,1,233,1165)" fill-opacity="1" fill="black" text-rendering="geometricPrecision" image-rendering="optimizeQuality" font-family="sans-serif" stroke="black" stroke-opacity="1"
    ><text x="2" xml:space="preserve" y="14" clip-path="url(#clipPath23)" stroke="none"
      >-codigo : string</text
    ></g
    ><g font-size="11px" transform="matrix(1,0,0,1,233,1165)" fill-opacity="1" fill="black" text-rendering="geometricPrecision" image-rendering="optimizeQuality" font-family="sans-serif" stroke="black" stroke-opacity="1"
    ><text x="2" xml:space="preserve" y="29" clip-path="url(#clipPath23)" stroke="none"
      >-design : string</text
    ></g
    ><g font-size="11px" transform="matrix(1,0,0,1,233,1165)" fill-opacity="1" fill="black" text-rendering="geometricPrecision" image-rendering="optimizeQuality" font-family="sans-serif" stroke="black" stroke-opacity="1"
    ><text x="2" xml:space="preserve" y="44" clip-path="url(#clipPath23)" stroke="none"
      >-descInf : string</text
    ></g
    ><g font-size="11px" transform="matrix(1,0,0,1,233,1165)" fill-opacity="1" fill="black" text-rendering="geometricPrecision" image-rendering="optimizeQuality" font-family="sans-serif" stroke="black" stroke-opacity="1"
    ><text x="2" xml:space="preserve" y="59" clip-path="url(#clipPath23)" stroke="none"
      >-descTec : string</text
    ></g
    ><g font-size="11px" transform="matrix(1,0,0,1,233,1165)" fill-opacity="1" fill="black" text-rendering="geometricPrecision" image-rendering="optimizeQuality" font-family="sans-serif" stroke="black" stroke-opacity="1"
    ><text x="2" xml:space="preserve" y="74" clip-path="url(#clipPath23)" stroke="none"
      >-duracao : float</text
    ></g
    ><g font-size="11px" transform="matrix(1,0,0,1,233,1165)" fill-opacity="1" fill="black" text-rendering="geometricPrecision" image-rendering="optimizeQuality" font-family="sans-serif" stroke="black" stroke-opacity="1"
    ><text x="2" xml:space="preserve" y="89" clip-path="url(#clipPath23)" stroke="none"
      >-custo : float</text
    ></g
    ><g font-size="11px" transform="matrix(1,0,0,1,233,1165)" fill-opacity="1" fill="black" text-rendering="geometricPrecision" image-rendering="optimizeQuality" font-family="sans-serif" stroke="black" stroke-opacity="1"
    ><text x="2" xml:space="preserve" y="104" clip-path="url(#clipPath23)" stroke="none"
      >-colaboradorEmail : string</text
      ><line stroke-linecap="butt" clip-path="url(#clipPath23)" fill="none" x1="0" x2="386" y1="109" y2="109" stroke-linejoin="bevel" stroke-miterlimit="0"
    /></g
    ><g font-size="11px" transform="matrix(1,0,0,1,233,1165)" fill-opacity="1" fill="black" text-rendering="geometricPrecision" image-rendering="optimizeQuality" font-family="sans-serif" stroke="black" stroke-opacity="1"
    ><text x="2" xml:space="preserve" y="123" clip-path="url(#clipPath23)" stroke="none"
      >+Tarefa(design : string, descInf : string, descTec : string, duracao : float, cust...</text
    ></g
    ><g font-size="11px" transform="translate(233,1150)" fill-opacity="1" fill="black" text-rendering="geometricPrecision" image-rendering="optimizeQuality" font-family="sans-serif" stroke="black" font-weight="bold" stroke-opacity="1"
    ><text x="176" xml:space="preserve" y="12" clip-path="url(#clipPath24)" stroke="none"
      >Tarefa</text
    ></g
    ><g font-size="11px" transform="translate(1448,454)" fill-opacity="1" fill="rgb(122,207,245)" text-rendering="geometricPrecision" image-rendering="optimizeQuality" font-family="sans-serif" stroke="rgb(122,207,245)" font-weight="bold" stroke-opacity="1"
    ><rect x="0" width="488" height="236" y="0" clip-path="url(#clipPath25)" stroke="none"
    /></g
    ><g fill-opacity="1" text-rendering="geometricPrecision" stroke="black" stroke-linecap="butt" transform="translate(1448,454)" stroke-miterlimit="0" stroke-opacity="1" fill="black" font-weight="bold" font-family="sans-serif" stroke-linejoin="round" font-size="11px" image-rendering="optimizeQuality"
    ><rect fill="none" x="0" width="488" height="236" y="0" clip-path="url(#clipPath25)"
      /><line y2="15" fill="none" x1="0" clip-path="url(#clipPath25)" x2="488" y1="15"
    /></g
    ><g font-size="11px" transform="matrix(1,0,0,1,1448,469)" fill-opacity="1" fill="black" text-rendering="geometricPrecision" image-rendering="optimizeQuality" font-family="sans-serif" stroke="black" stroke-opacity="1"
    ><text x="2" xml:space="preserve" y="14" clip-path="url(#clipPath26)" stroke="none"
      >-nome : String</text
    ></g
    ><g font-size="11px" transform="matrix(1,0,0,1,1448,469)" fill-opacity="1" fill="black" text-rendering="geometricPrecision" image-rendering="optimizeQuality" font-family="sans-serif" stroke="black" stroke-opacity="1"
    ><text x="2" xml:space="preserve" y="29" clip-path="url(#clipPath26)" stroke="none"
      >-NIF : int</text
    ></g
    ><g font-size="11px" transform="matrix(1,0,0,1,1448,469)" fill-opacity="1" fill="black" text-rendering="geometricPrecision" image-rendering="optimizeQuality" font-family="sans-serif" stroke="black" stroke-opacity="1"
    ><text x="2" xml:space="preserve" y="44" clip-path="url(#clipPath26)" stroke="none"
      >-telefone : int</text
    ></g
    ><g font-size="11px" transform="matrix(1,0,0,1,1448,469)" fill-opacity="1" fill="black" text-rendering="geometricPrecision" image-rendering="optimizeQuality" font-family="sans-serif" stroke="black" stroke-opacity="1"
    ><text x="2" xml:space="preserve" y="59" clip-path="url(#clipPath26)" stroke="none"
      >-email : String</text
    ></g
    ><g font-size="11px" transform="matrix(1,0,0,1,1448,469)" fill-opacity="1" fill="black" text-rendering="geometricPrecision" image-rendering="optimizeQuality" font-family="sans-serif" stroke="black" stroke-opacity="1"
    ><text x="2" xml:space="preserve" y="74" clip-path="url(#clipPath26)" stroke="none"
      >-endP : EnderecoPostal</text
    ></g
    ><g font-size="11px" transform="matrix(1,0,0,1,1448,469)" fill-opacity="1" fill="black" text-rendering="geometricPrecision" image-rendering="optimizeQuality" font-family="sans-serif" stroke="black" stroke-opacity="1"
    ><text x="2" xml:space="preserve" y="89" clip-path="url(#clipPath26)" stroke="none"
      >-lsCT : List&lt;CompetenciaTecnica&gt;</text
    ></g
    ><g font-size="11px" transform="matrix(1,0,0,1,1448,469)" fill-opacity="1" fill="black" text-rendering="geometricPrecision" image-rendering="optimizeQuality" font-family="sans-serif" stroke="black" stroke-opacity="1"
    ><text x="2" xml:space="preserve" y="104" clip-path="url(#clipPath26)" stroke="none"
      >-lsReCT : List&lt;ReconhecimentoTecnico&gt;</text
    ></g
    ><g font-size="11px" transform="matrix(1,0,0,1,1448,469)" fill-opacity="1" fill="black" text-rendering="geometricPrecision" image-rendering="optimizeQuality" font-family="sans-serif" stroke="black" stroke-opacity="1"
    ><text x="2" xml:space="preserve" y="119" clip-path="url(#clipPath26)" stroke="none"
      >-lsHab : List&lt;HabilitacaoAcademica&gt;</text
      ><line stroke-linecap="butt" clip-path="url(#clipPath26)" fill="none" x1="0" x2="488" y1="124" y2="124" stroke-linejoin="bevel" stroke-miterlimit="0"
    /></g
    ><g font-size="11px" transform="matrix(1,0,0,1,1448,469)" fill-opacity="1" fill="black" text-rendering="geometricPrecision" image-rendering="optimizeQuality" font-family="sans-serif" stroke="black" stroke-opacity="1"
    ><text x="2" xml:space="preserve" y="138" clip-path="url(#clipPath26)" stroke="none"
      >+Freelancer(nome_compl : string, NIF : int, end : EnderecoPostal, telefone : int, email : string)</text
    ></g
    ><g font-size="11px" transform="matrix(1,0,0,1,1448,469)" fill-opacity="1" fill="black" text-rendering="geometricPrecision" image-rendering="optimizeQuality" font-family="sans-serif" stroke="black" stroke-opacity="1"
    ><text x="2" xml:space="preserve" y="153" clip-path="url(#clipPath26)" stroke="none"
      >+addHabilitacaoAcademica(grau : string, designacao : string, instituicao : string, media : float)</text
    ></g
    ><g font-size="11px" transform="matrix(1,0,0,1,1448,469)" fill-opacity="1" fill="black" text-rendering="geometricPrecision" image-rendering="optimizeQuality" font-family="sans-serif" stroke="black" stroke-opacity="1"
    ><text x="2" xml:space="preserve" y="168" clip-path="url(#clipPath26)" stroke="none"
      >+validaHabilitacaoAcademica(hab : HabiliatacaoAcademica)</text
    ></g
    ><g font-size="11px" transform="matrix(1,0,0,1,1448,469)" fill-opacity="1" fill="black" text-rendering="geometricPrecision" image-rendering="optimizeQuality" font-family="sans-serif" stroke="black" stroke-opacity="1"
    ><text x="2" xml:space="preserve" y="183" clip-path="url(#clipPath26)" stroke="none"
      >+getLsCT() : List&lt;CompetenciaTecnica&gt;</text
    ></g
    ><g font-size="11px" transform="matrix(1,0,0,1,1448,469)" fill-opacity="1" fill="black" text-rendering="geometricPrecision" image-rendering="optimizeQuality" font-family="sans-serif" stroke="black" stroke-opacity="1"
    ><text x="2" xml:space="preserve" y="198" clip-path="url(#clipPath26)" stroke="none"
      >+getLsReCT() : List&lt;ReconhecimentoTecnico&gt;</text
    ></g
    ><g font-size="11px" transform="matrix(1,0,0,1,1448,469)" fill-opacity="1" fill="black" text-rendering="geometricPrecision" image-rendering="optimizeQuality" font-family="sans-serif" stroke="black" stroke-opacity="1"
    ><text x="2" xml:space="preserve" y="213" clip-path="url(#clipPath26)" stroke="none"
      >+addReconhecimentoTecnico(comp : CompetenciaTecnica, gp : GrauProficiencia, data_rec : date)</text
    ></g
    ><g font-size="11px" transform="translate(1448,454)" fill-opacity="1" fill="black" text-rendering="geometricPrecision" image-rendering="optimizeQuality" font-family="sans-serif" stroke="black" font-weight="bold" stroke-opacity="1"
    ><text x="217" xml:space="preserve" y="12" clip-path="url(#clipPath27)" stroke="none"
      >Freelancer</text
    ></g
    ><g font-size="11px" transform="translate(835,739)" fill-opacity="1" fill="rgb(122,207,245)" text-rendering="geometricPrecision" image-rendering="optimizeQuality" font-family="sans-serif" stroke="rgb(122,207,245)" font-weight="bold" stroke-opacity="1"
    ><rect x="0" width="138" height="99" y="0" clip-path="url(#clipPath28)" stroke="none"
    /></g
    ><g fill-opacity="1" text-rendering="geometricPrecision" stroke="black" stroke-linecap="butt" transform="translate(835,739)" stroke-miterlimit="0" stroke-opacity="1" fill="black" font-weight="bold" font-family="sans-serif" stroke-linejoin="round" font-size="11px" image-rendering="optimizeQuality"
    ><rect fill="none" x="0" width="138" height="99" y="0" clip-path="url(#clipPath28)"
      /><line y2="15" fill="none" x1="0" clip-path="url(#clipPath28)" x2="138" y1="15"
    /></g
    ><g font-size="11px" transform="matrix(1,0,0,1,835,754)" fill-opacity="1" fill="black" text-rendering="geometricPrecision" image-rendering="optimizeQuality" font-family="sans-serif" stroke="black" stroke-opacity="1"
    ><text x="2" xml:space="preserve" y="14" clip-path="url(#clipPath29)" stroke="none"
      >-dataRealizacao : date</text
    ></g
    ><g font-size="11px" transform="matrix(1,0,0,1,835,754)" fill-opacity="1" fill="black" text-rendering="geometricPrecision" image-rendering="optimizeQuality" font-family="sans-serif" stroke="black" stroke-opacity="1"
    ><text x="2" xml:space="preserve" y="29" clip-path="url(#clipPath29)" stroke="none"
      >-codigoAnuncio : string</text
    ></g
    ><g font-size="11px" transform="matrix(1,0,0,1,835,754)" fill-opacity="1" fill="black" text-rendering="geometricPrecision" image-rendering="optimizeQuality" font-family="sans-serif" stroke="black" stroke-opacity="1"
    ><text x="2" xml:space="preserve" y="44" clip-path="url(#clipPath29)" stroke="none"
      >-lsCls : List&lt;Classificacao&gt;</text
      ><line stroke-linecap="butt" clip-path="url(#clipPath29)" fill="none" x1="0" x2="138" y1="49" y2="49" stroke-linejoin="bevel" stroke-miterlimit="0"
    /></g
    ><g font-size="11px" transform="matrix(1,0,0,1,835,754)" fill-opacity="1" fill="black" text-rendering="geometricPrecision" image-rendering="optimizeQuality" font-family="sans-serif" stroke="black" stroke-opacity="1"
    ><text x="2" xml:space="preserve" y="63" clip-path="url(#clipPath29)" stroke="none"
      >+getCodigoAnuncio()</text
    ></g
    ><g font-size="11px" transform="matrix(1,0,0,1,835,754)" fill-opacity="1" fill="black" text-rendering="geometricPrecision" image-rendering="optimizeQuality" font-family="sans-serif" stroke="black" stroke-opacity="1"
    ><text x="2" xml:space="preserve" y="78" clip-path="url(#clipPath29)" stroke="none"
      >+getPrimeiroColocado()</text
    ></g
    ><g font-size="11px" transform="translate(835,739)" fill-opacity="1" fill="black" text-rendering="geometricPrecision" image-rendering="optimizeQuality" font-family="sans-serif" stroke="black" font-weight="bold" stroke-opacity="1"
    ><text x="21" xml:space="preserve" y="12" clip-path="url(#clipPath12)" stroke="none"
      >ProcessoSeriacao</text
    ></g
    ><g font-size="11px" transform="translate(1218,772)" fill-opacity="1" fill="rgb(122,207,245)" text-rendering="geometricPrecision" image-rendering="optimizeQuality" font-family="sans-serif" stroke="rgb(122,207,245)" font-weight="bold" stroke-opacity="1"
    ><rect x="0" width="115" height="70" y="0" clip-path="url(#clipPath30)" stroke="none"
    /></g
    ><g fill-opacity="1" text-rendering="geometricPrecision" stroke="black" stroke-linecap="butt" transform="translate(1218,772)" stroke-miterlimit="0" stroke-opacity="1" fill="black" font-weight="bold" font-family="sans-serif" stroke-linejoin="round" font-size="11px" image-rendering="optimizeQuality"
    ><rect fill="none" x="0" width="115" height="70" y="0" clip-path="url(#clipPath30)"
      /><line y2="15" fill="none" x1="0" clip-path="url(#clipPath30)" x2="115" y1="15"
    /></g
    ><g font-size="11px" transform="matrix(1,0,0,1,1218,787)" fill-opacity="1" fill="black" text-rendering="geometricPrecision" image-rendering="optimizeQuality" font-family="sans-serif" stroke="black" stroke-opacity="1"
    ><text x="2" xml:space="preserve" y="14" clip-path="url(#clipPath31)" stroke="none"
      >-posicao : int</text
    ></g
    ><g font-size="11px" transform="matrix(1,0,0,1,1218,787)" fill-opacity="1" fill="black" text-rendering="geometricPrecision" image-rendering="optimizeQuality" font-family="sans-serif" stroke="black" stroke-opacity="1"
    ><text x="2" xml:space="preserve" y="29" clip-path="url(#clipPath31)" stroke="none"
      >-candidaturaID : string</text
    ></g
    ><g font-size="11px" transform="translate(1218,772)" fill-opacity="1" fill="black" text-rendering="geometricPrecision" image-rendering="optimizeQuality" font-family="sans-serif" stroke="black" font-weight="bold" stroke-opacity="1"
    ><text x="21" xml:space="preserve" y="12" clip-path="url(#clipPath32)" stroke="none"
      >Classificacao</text
    ></g
    ><g font-size="11px" transform="translate(985,400)" fill-opacity="1" fill="rgb(122,207,245)" text-rendering="geometricPrecision" image-rendering="optimizeQuality" font-family="sans-serif" stroke="rgb(122,207,245)" font-weight="bold" stroke-opacity="1"
    ><rect x="0" width="153" height="160" y="0" clip-path="url(#clipPath33)" stroke="none"
    /></g
    ><g fill-opacity="1" text-rendering="geometricPrecision" stroke="black" stroke-linecap="butt" transform="translate(985,400)" stroke-miterlimit="0" stroke-opacity="1" fill="black" font-weight="bold" font-family="sans-serif" stroke-linejoin="round" font-size="11px" image-rendering="optimizeQuality"
    ><rect fill="none" x="0" width="153" height="160" y="0" clip-path="url(#clipPath33)"
      /><line y2="15" fill="none" x1="0" clip-path="url(#clipPath33)" x2="153" y1="15"
    /></g
    ><g font-size="11px" transform="matrix(1,0,0,1,985,415)" fill-opacity="1" fill="black" text-rendering="geometricPrecision" image-rendering="optimizeQuality" font-family="sans-serif" stroke="black" stroke-opacity="1"
    ><text x="2" xml:space="preserve" y="14" clip-path="url(#clipPath34)" stroke="none"
      >-org : Organizacao</text
    ></g
    ><g font-size="11px" transform="matrix(1,0,0,1,985,415)" fill-opacity="1" fill="black" text-rendering="geometricPrecision" image-rendering="optimizeQuality" font-family="sans-serif" stroke="black" stroke-opacity="1"
    ><text x="2" xml:space="preserve" y="29" clip-path="url(#clipPath34)" stroke="none"
      >-descTarefa : String</text
    ></g
    ><g font-size="11px" transform="matrix(1,0,0,1,985,415)" fill-opacity="1" fill="black" text-rendering="geometricPrecision" image-rendering="optimizeQuality" font-family="sans-serif" stroke="black" stroke-opacity="1"
    ><text x="2" xml:space="preserve" y="44" clip-path="url(#clipPath34)" stroke="none"
      >-idAdjudicacao : String</text
    ></g
    ><g font-size="11px" transform="matrix(1,0,0,1,985,415)" fill-opacity="1" fill="black" text-rendering="geometricPrecision" image-rendering="optimizeQuality" font-family="sans-serif" stroke="black" stroke-opacity="1"
    ><text x="2" xml:space="preserve" y="59" clip-path="url(#clipPath34)" stroke="none"
      >-idAnuncio : String</text
    ></g
    ><g font-size="11px" transform="matrix(1,0,0,1,985,415)" fill-opacity="1" fill="black" text-rendering="geometricPrecision" image-rendering="optimizeQuality" font-family="sans-serif" stroke="black" stroke-opacity="1"
    ><text x="2" xml:space="preserve" y="74" clip-path="url(#clipPath34)" stroke="none"
      >-fl : Freelancer</text
    ></g
    ><g font-size="11px" transform="matrix(1,0,0,1,985,415)" fill-opacity="1" fill="black" text-rendering="geometricPrecision" image-rendering="optimizeQuality" font-family="sans-serif" stroke="black" stroke-opacity="1"
    ><text x="2" xml:space="preserve" y="89" clip-path="url(#clipPath34)" stroke="none"
      >-valorRemun : double</text
    ></g
    ><g font-size="11px" transform="matrix(1,0,0,1,985,415)" fill-opacity="1" fill="black" text-rendering="geometricPrecision" image-rendering="optimizeQuality" font-family="sans-serif" stroke="black" stroke-opacity="1"
    ><text x="2" xml:space="preserve" y="104" clip-path="url(#clipPath34)" stroke="none"
      >-dtInicioExec : Date</text
    ></g
    ><g font-size="11px" transform="matrix(1,0,0,1,985,415)" fill-opacity="1" fill="black" text-rendering="geometricPrecision" image-rendering="optimizeQuality" font-family="sans-serif" stroke="black" stroke-opacity="1"
    ><text x="2" xml:space="preserve" y="119" clip-path="url(#clipPath34)" stroke="none"
      >-dtFimExec : Date</text
    ></g
    ><g font-size="11px" transform="translate(985,400)" fill-opacity="1" fill="black" text-rendering="geometricPrecision" image-rendering="optimizeQuality" font-family="sans-serif" stroke="black" font-weight="bold" stroke-opacity="1"
    ><text x="43" xml:space="preserve" y="12" clip-path="url(#clipPath35)" stroke="none"
      >Adjudicacao</text
    ></g
    ><g font-size="11px" transform="translate(1218,547)" fill-opacity="1" fill="rgb(122,207,245)" text-rendering="geometricPrecision" image-rendering="optimizeQuality" font-family="sans-serif" stroke="rgb(122,207,245)" font-weight="bold" stroke-opacity="1"
    ><rect x="0" width="141" height="116" y="0" clip-path="url(#clipPath36)" stroke="none"
    /></g
    ><g fill-opacity="1" text-rendering="geometricPrecision" stroke="black" stroke-linecap="butt" transform="translate(1218,547)" stroke-miterlimit="0" stroke-opacity="1" fill="black" font-weight="bold" font-family="sans-serif" stroke-linejoin="round" font-size="11px" image-rendering="optimizeQuality"
    ><rect fill="none" x="0" width="141" height="116" y="0" clip-path="url(#clipPath36)"
      /><line y2="15" fill="none" x1="0" clip-path="url(#clipPath36)" x2="141" y1="15"
    /></g
    ><g font-size="11px" transform="matrix(1,0,0,1,1218,562)" fill-opacity="1" fill="black" text-rendering="geometricPrecision" image-rendering="optimizeQuality" font-family="sans-serif" stroke="black" stroke-opacity="1"
    ><text x="2" xml:space="preserve" y="14" clip-path="url(#clipPath37)" stroke="none"
      >-codigo : string</text
    ></g
    ><g font-size="11px" transform="matrix(1,0,0,1,1218,562)" fill-opacity="1" fill="black" text-rendering="geometricPrecision" image-rendering="optimizeQuality" font-family="sans-serif" stroke="black" stroke-opacity="1"
    ><text x="2" xml:space="preserve" y="29" clip-path="url(#clipPath37)" stroke="none"
      >-dataCandidatura : date</text
    ></g
    ><g font-size="11px" transform="matrix(1,0,0,1,1218,562)" fill-opacity="1" fill="black" text-rendering="geometricPrecision" image-rendering="optimizeQuality" font-family="sans-serif" stroke="black" stroke-opacity="1"
    ><text x="2" xml:space="preserve" y="44" clip-path="url(#clipPath37)" stroke="none"
      >-valorPretendido : float</text
    ></g
    ><g font-size="11px" transform="matrix(1,0,0,1,1218,562)" fill-opacity="1" fill="black" text-rendering="geometricPrecision" image-rendering="optimizeQuality" font-family="sans-serif" stroke="black" stroke-opacity="1"
    ><text x="2" xml:space="preserve" y="59" clip-path="url(#clipPath37)" stroke="none"
      >-numeroDias : int</text
    ></g
    ><g font-size="11px" transform="matrix(1,0,0,1,1218,562)" fill-opacity="1" fill="black" text-rendering="geometricPrecision" image-rendering="optimizeQuality" font-family="sans-serif" stroke="black" stroke-opacity="1"
    ><text x="2" xml:space="preserve" y="74" clip-path="url(#clipPath37)" stroke="none"
      >-cartaApresentacao : String</text
    ></g
    ><g font-size="11px" transform="matrix(1,0,0,1,1218,562)" fill-opacity="1" fill="black" text-rendering="geometricPrecision" image-rendering="optimizeQuality" font-family="sans-serif" stroke="black" stroke-opacity="1"
    ><text x="2" xml:space="preserve" y="89" clip-path="url(#clipPath37)" stroke="none"
      >-cartaMotivacao : String</text
    ></g
    ><g font-size="11px" transform="translate(1218,547)" fill-opacity="1" fill="black" text-rendering="geometricPrecision" image-rendering="optimizeQuality" font-family="sans-serif" stroke="black" font-weight="bold" stroke-opacity="1"
    ><text x="38" xml:space="preserve" y="12" clip-path="url(#clipPath38)" stroke="none"
      >Candidatura</text
    ></g
    ><g font-size="11px" transform="translate(275,780)" fill-opacity="1" fill="black" text-rendering="geometricPrecision" image-rendering="optimizeQuality" font-family="sans-serif" stroke="black" stroke-opacity="1"
    ><text x="16" xml:space="preserve" y="24" clip-path="url(#clipPath40)" stroke="none"
      >1</text
    ></g
    ><g font-size="11px" transform="translate(282,1115)" fill-opacity="1" fill="black" text-rendering="geometricPrecision" image-rendering="optimizeQuality" font-family="sans-serif" stroke="black" stroke-opacity="1"
    ><text x="17" xml:space="preserve" y="24" clip-path="url(#clipPath40)" stroke="none"
      >*</text
    ></g
    ><g font-size="11px" transform="translate(605,635)" fill-opacity="1" fill="black" text-rendering="geometricPrecision" image-rendering="optimizeQuality" font-family="sans-serif" stroke="black" stroke-opacity="1"
    ><text x="16" xml:space="preserve" y="24" clip-path="url(#clipPath40)" stroke="none"
      >1</text
    ></g
    ><g font-size="11px" transform="translate(792,767)" fill-opacity="1" fill="black" text-rendering="geometricPrecision" image-rendering="optimizeQuality" font-family="sans-serif" stroke="black" stroke-opacity="1"
    ><text x="10" xml:space="preserve" y="24" clip-path="url(#clipPath40)" stroke="none"
      >0..1</text
    ></g
    ><g font-size="11px" transform="translate(1105,550)" fill-opacity="1" fill="black" text-rendering="geometricPrecision" image-rendering="optimizeQuality" font-family="sans-serif" stroke="black" stroke-opacity="1"
    ><text x="10" xml:space="preserve" y="12" clip-path="url(#clipPath42)" stroke="none"
      >0..1</text
    ></g
    ><g font-size="11px" transform="translate(625,1147)" fill-opacity="1" fill="black" text-rendering="geometricPrecision" image-rendering="optimizeQuality" font-family="sans-serif" stroke="black" stroke-opacity="1"
    ><text x="10" xml:space="preserve" y="12" clip-path="url(#clipPath44)" stroke="none"
      >1</text
    ></g
    ><g font-size="11px" transform="translate(947,419)" fill-opacity="1" fill="black" text-rendering="geometricPrecision" image-rendering="optimizeQuality" font-family="sans-serif" stroke="black" stroke-opacity="1"
    ><text x="10" xml:space="preserve" y="12" clip-path="url(#clipPath42)" stroke="none"
      >0..1</text
    ></g
    ><g font-size="11px" transform="translate(803,407)" fill-opacity="1" fill="black" text-rendering="geometricPrecision" image-rendering="optimizeQuality" font-family="sans-serif" stroke="black" stroke-opacity="1"
    ><text x="10" xml:space="preserve" y="12" clip-path="url(#clipPath44)" stroke="none"
      >1</text
    ></g
    ><g font-size="11px" transform="translate(469,1117)" fill-opacity="1" fill="black" text-rendering="geometricPrecision" image-rendering="optimizeQuality" font-family="sans-serif" stroke="black" stroke-opacity="1"
    ><text x="16" xml:space="preserve" y="24" clip-path="url(#clipPath40)" stroke="none"
      >1</text
    ></g
    ><g font-size="11px" transform="translate(422,926)" fill-opacity="1" fill="black" text-rendering="geometricPrecision" image-rendering="optimizeQuality" font-family="sans-serif" stroke="black" stroke-opacity="1"
    ><text x="16" xml:space="preserve" y="24" clip-path="url(#clipPath40)" stroke="none"
      >1</text
    ></g
    ><g font-size="11px" transform="translate(1622,684)" fill-opacity="1" fill="black" text-rendering="geometricPrecision" image-rendering="optimizeQuality" font-family="sans-serif" stroke="black" stroke-opacity="1"
    ><text x="16" xml:space="preserve" y="24" clip-path="url(#clipPath40)" stroke="none"
      >1</text
    ></g
    ><g font-size="11px" transform="translate(350,1317)" fill-opacity="1" fill="black" text-rendering="geometricPrecision" image-rendering="optimizeQuality" font-family="sans-serif" stroke="black" stroke-opacity="1"
    ><text x="17" xml:space="preserve" y="24" clip-path="url(#clipPath40)" stroke="none"
      >*</text
    ></g
    ><g font-size="11px" transform="translate(970,749)" fill-opacity="1" fill="black" text-rendering="geometricPrecision" image-rendering="optimizeQuality" font-family="sans-serif" stroke="black" stroke-opacity="1"
    ><text x="16" xml:space="preserve" y="24" clip-path="url(#clipPath40)" stroke="none"
      >1</text
    ></g
    ><g font-size="11px" transform="translate(1180,779)" fill-opacity="1" fill="black" text-rendering="geometricPrecision" image-rendering="optimizeQuality" font-family="sans-serif" stroke="black" stroke-opacity="1"
    ><text x="17" xml:space="preserve" y="24" clip-path="url(#clipPath40)" stroke="none"
      >*</text
    ></g
    ><g font-size="11px" transform="translate(795,555)" fill-opacity="1" fill="black" text-rendering="geometricPrecision" image-rendering="optimizeQuality" font-family="sans-serif" stroke="black" stroke-opacity="1"
    ><text x="16" xml:space="preserve" y="24" clip-path="url(#clipPath40)" stroke="none"
      >1</text
    ></g
    ><g font-size="11px" transform="translate(1178,570)" fill-opacity="1" fill="black" text-rendering="geometricPrecision" image-rendering="optimizeQuality" font-family="sans-serif" stroke="black" stroke-opacity="1"
    ><text x="17" xml:space="preserve" y="24" clip-path="url(#clipPath40)" stroke="none"
      >*</text
    ></g
    ><g font-size="11px" transform="translate(1145,402)" fill-opacity="1" fill="black" text-rendering="geometricPrecision" image-rendering="optimizeQuality" font-family="sans-serif" stroke="black" stroke-opacity="1"
    ><text x="10" xml:space="preserve" y="12" clip-path="url(#clipPath42)" stroke="none"
      >0..1</text
    ></g
    ><g font-size="11px" transform="translate(1658,432)" fill-opacity="1" fill="black" text-rendering="geometricPrecision" image-rendering="optimizeQuality" font-family="sans-serif" stroke="black" stroke-opacity="1"
    ><text x="10" xml:space="preserve" y="12" clip-path="url(#clipPath44)" stroke="none"
      >1</text
    ></g
    ><g fill-opacity="1" text-rendering="geometricPrecision" stroke="black" stroke-linecap="butt" transform="translate(135,-33)" stroke-opacity="1" fill="black" stroke-dasharray="5" font-family="sans-serif" stroke-linejoin="round" font-size="11px" stroke-dashoffset="1" image-rendering="optimizeQuality"
    ><line y2="63" fill="none" x1="63" clip-path="url(#clipPath46)" x2="235" y1="63"
      /><line clip-path="url(#clipPath46)" stroke-dashoffset="0" fill="none" x1="235" x2="223" y1="63" y2="57" stroke-dasharray="none"
      /><line clip-path="url(#clipPath46)" stroke-dashoffset="0" fill="none" x1="235" x2="223" y1="63" y2="69" stroke-dasharray="none"
    /></g
    ><g fill-opacity="1" text-rendering="geometricPrecision" stroke="black" stroke-linecap="butt" transform="translate(423,7)" stroke-opacity="1" fill="black" stroke-dasharray="5" font-family="sans-serif" stroke-linejoin="round" font-size="11px" stroke-dashoffset="1" image-rendering="optimizeQuality"
    ><line y2="105" fill="none" x1="62" clip-path="url(#clipPath48)" x2="62" y1="63"
      /><line clip-path="url(#clipPath48)" stroke-dashoffset="0" fill="none" x1="62" x2="68" y1="105" y2="93" stroke-dasharray="none"
      /><line clip-path="url(#clipPath48)" stroke-dashoffset="0" fill="none" x1="62" x2="56" y1="105" y2="93" stroke-dasharray="none"
    /></g
    ><g fill-opacity="1" text-rendering="geometricPrecision" stroke="black" stroke-linecap="butt" transform="translate(455,-40)" stroke-opacity="1" fill="black" stroke-dasharray="5" font-family="sans-serif" stroke-linejoin="round" font-size="11px" stroke-dashoffset="1" image-rendering="optimizeQuality"
    ><line y2="62" fill="none" x1="63" clip-path="url(#clipPath50)" x2="440" y1="62"
      /><line y2="360" fill="none" x1="440" clip-path="url(#clipPath50)" x2="440" y1="62"
      /><line y2="360" fill="none" x1="440" clip-path="url(#clipPath50)" x2="295" y1="360"
      /><line clip-path="url(#clipPath50)" stroke-dashoffset="0" fill="none" x1="295" x2="307" y1="360" y2="366" stroke-dasharray="none"
      /><line clip-path="url(#clipPath50)" stroke-dashoffset="0" fill="none" x1="295" x2="307" y1="360" y2="354" stroke-dasharray="none"
    /></g
    ><g stroke-linecap="butt" font-size="11px" transform="translate(558,139)" fill-opacity="1" fill="black" text-rendering="geometricPrecision" image-rendering="optimizeQuality" font-family="sans-serif" stroke-linejoin="round" stroke="black" stroke-opacity="1"
    ><line y2="120" fill="none" x1="62" clip-path="url(#clipPath52)" x2="62" y1="62"
    /></g
    ><g stroke-linecap="butt" font-size="11px" transform="translate(130,90)" fill-opacity="1" fill="black" text-rendering="geometricPrecision" image-rendering="optimizeQuality" font-family="sans-serif" stroke-linejoin="round" stroke="black" stroke-opacity="1"
    ><line y2="62" fill="none" x1="312" clip-path="url(#clipPath54)" x2="63" y1="62"
    /></g
    ><g stroke-linecap="butt" font-size="11px" transform="translate(27,117)" fill-opacity="1" fill="black" text-rendering="geometricPrecision" image-rendering="optimizeQuality" font-family="sans-serif" stroke-linejoin="round" stroke="black" stroke-opacity="1"
    ><line y2="448" fill="none" x1="83" clip-path="url(#clipPath56)" x2="83" y1="83"
    /></g
    ><g stroke-linecap="butt" font-size="11px" transform="translate(447,587)" fill-opacity="1" fill="black" text-rendering="geometricPrecision" image-rendering="optimizeQuality" font-family="sans-serif" stroke-linejoin="round" stroke="black" stroke-opacity="1"
    ><line y2="63" fill="none" x1="62" clip-path="url(#clipPath58)" x2="62" y1="563"
    /></g
    ><g stroke-linecap="butt" font-size="11px" transform="translate(302,607)" fill-opacity="1" fill="black" text-rendering="geometricPrecision" image-rendering="optimizeQuality" font-family="sans-serif" stroke-linejoin="round" stroke="black" stroke-opacity="1"
    ><line y2="760" fill="none" x1="1335" clip-path="url(#clipPath60)" x2="1335" y1="83"
      /><line y2="760" fill="none" x1="1335" clip-path="url(#clipPath60)" x2="83" y1="760"
      /><line y2="690" fill="none" x1="83" clip-path="url(#clipPath60)" x2="83" y1="760"
    /></g
    ><g stroke-linecap="butt" font-size="11px" transform="translate(558,587)" fill-opacity="1" fill="black" text-rendering="geometricPrecision" image-rendering="optimizeQuality" font-family="sans-serif" stroke-linejoin="round" stroke="black" stroke-opacity="1"
    ><line y2="209" fill="none" x1="62" clip-path="url(#clipPath62)" x2="62" y1="63"
      /><line y2="209" fill="none" x1="62" clip-path="url(#clipPath62)" x2="277" y1="209"
    /></g
    ><g stroke-linecap="butt" font-size="11px" transform="translate(910,729)" fill-opacity="1" fill="black" text-rendering="geometricPrecision" image-rendering="optimizeQuality" font-family="sans-serif" stroke-linejoin="round" stroke="black" stroke-opacity="1"
    ><line y2="62" fill="none" x1="63" clip-path="url(#clipPath64)" x2="308" y1="62"
    /></g
    ><g stroke-linecap="butt" font-size="11px" transform="translate(1075,359)" fill-opacity="1" fill="black" text-rendering="geometricPrecision" image-rendering="optimizeQuality" font-family="sans-serif" stroke-linejoin="round" stroke="black" stroke-opacity="1"
    ><line y2="62" fill="none" x1="63" clip-path="url(#clipPath66)" x2="617" y1="62"
      /><line y2="95" fill="none" x1="617" clip-path="url(#clipPath66)" x2="617" y1="62"
    /></g
    ><g stroke-linecap="butt" font-size="11px" transform="translate(557,497)" fill-opacity="1" fill="black" text-rendering="geometricPrecision" image-rendering="optimizeQuality" font-family="sans-serif" stroke-linejoin="round" stroke="black" stroke-opacity="1"
    ><line y2="673" fill="none" x1="556" clip-path="url(#clipPath68)" x2="556" y1="63"
      /><line y2="673" fill="none" x1="556" clip-path="url(#clipPath68)" x2="62" y1="673"
    /></g
    ><g stroke-linecap="butt" font-size="11px" transform="translate(735,359)" fill-opacity="1" fill="black" text-rendering="geometricPrecision" image-rendering="optimizeQuality" font-family="sans-serif" stroke-linejoin="round" stroke="black" stroke-opacity="1"
    ><line y2="62" fill="none" x1="250" clip-path="url(#clipPath70)" x2="63" y1="62"
    /></g
    ><g stroke-linecap="butt" font-size="11px" transform="translate(153,704)" fill-opacity="1" fill="black" text-rendering="geometricPrecision" image-rendering="optimizeQuality" font-family="sans-serif" stroke-linejoin="round" stroke="black" stroke-opacity="1"
    ><line y2="446" fill="none" x1="84" clip-path="url(#clipPath72)" x2="84" y1="83"
    /></g
    ><g stroke-linecap="butt" font-size="11px" transform="translate(137,314)" fill-opacity="1" fill="black" text-rendering="geometricPrecision" image-rendering="optimizeQuality" font-family="sans-serif" stroke-linejoin="round" stroke="black" stroke-opacity="1"
    ><line y2="62" fill="none" x1="942" clip-path="url(#clipPath74)" x2="942" y1="86"
      /><line y2="62" fill="none" x1="942" clip-path="url(#clipPath74)" x2="62" y1="62"
      /><line y2="251" fill="none" x1="62" clip-path="url(#clipPath74)" x2="62" y1="62"
    /></g
    ><g stroke-linecap="butt" font-size="11px" transform="translate(1277,522)" fill-opacity="1" fill="black" text-rendering="geometricPrecision" image-rendering="optimizeQuality" font-family="sans-serif" stroke-linejoin="round" stroke="black" stroke-opacity="1"
    ><line y2="83" fill="none" x1="83" clip-path="url(#clipPath76)" x2="171" y1="83"
    /></g
    ><g stroke-linecap="butt" font-size="11px" transform="translate(735,520)" fill-opacity="1" fill="black" text-rendering="geometricPrecision" image-rendering="optimizeQuality" font-family="sans-serif" stroke-linejoin="round" stroke="black" stroke-opacity="1"
    ><line y2="62" fill="none" x1="63" clip-path="url(#clipPath78)" x2="483" y1="62"
    /></g
    ><g stroke-linecap="butt" font-size="11px" transform="translate(1227,601)" fill-opacity="1" fill="black" text-rendering="geometricPrecision" image-rendering="optimizeQuality" font-family="sans-serif" stroke-linejoin="round" stroke="black" stroke-opacity="1"
    ><line y2="63" fill="none" x1="62" clip-path="url(#clipPath80)" x2="62" y1="171"
    /></g
    ><g stroke-linecap="butt" font-size="11px" transform="translate(663,94)" fill-opacity="1" fill="black" text-rendering="geometricPrecision" image-rendering="optimizeQuality" font-family="sans-serif" stroke-linejoin="round" stroke="black" stroke-opacity="1"
    ><line y2="62" fill="none" x1="62" clip-path="url(#clipPath82)" x2="397" y1="62"
      /><line y2="306" fill="none" x1="397" clip-path="url(#clipPath82)" x2="397" y1="62"
    /></g
    ><g stroke-linecap="butt" font-size="11px" transform="translate(563,285)" fill-opacity="1" fill="black" text-rendering="geometricPrecision" image-rendering="optimizeQuality" font-family="sans-serif" stroke-linejoin="round" stroke="black" stroke-opacity="1"
    ><line y2="135" fill="none" x1="62" clip-path="url(#clipPath84)" x2="62" y1="62"
    /></g
    ><g font-size="11px" transform="translate(922,147)" fill-opacity="1" fill="black" text-rendering="geometricPrecision" image-rendering="optimizeQuality" font-family="sans-serif" stroke="black" stroke-opacity="1"
    ><text x="9" xml:space="preserve" y="12" clip-path="url(#clipPath85)" stroke="none"
      >regista</text
    ></g
    ><g font-size="11px" transform="translate(1008,582)" fill-opacity="1" fill="black" text-rendering="geometricPrecision" image-rendering="optimizeQuality" font-family="sans-serif" stroke="black" stroke-opacity="1"
    ><text x="10" xml:space="preserve" y="12" clip-path="url(#clipPath86)" stroke="none"
      >recebe</text
    ></g
    ><g font-size="11px" transform="translate(307,364)" fill-opacity="1" fill="black" text-rendering="geometricPrecision" image-rendering="optimizeQuality" font-family="sans-serif" stroke="black" stroke-opacity="1"
    ><text x="9" xml:space="preserve" y="12" clip-path="url(#clipPath87)" stroke="none"
      >Adjudica</text
    ></g
    ><g font-size="11px" transform="translate(237,969)" fill-opacity="1" fill="black" text-rendering="geometricPrecision" image-rendering="optimizeQuality" font-family="sans-serif" stroke="black" stroke-opacity="1"
    ><text x="10" xml:space="preserve" y="12" clip-path="url(#clipPath88)" stroke="none"
      >possui</text
    ></g
    ><g font-size="11px" transform="translate(985,802)" fill-opacity="1" fill="black" text-rendering="geometricPrecision" image-rendering="optimizeQuality" font-family="sans-serif" stroke="black" stroke-opacity="1"
    ><text x="10" xml:space="preserve" y="12" clip-path="url(#clipPath89)" stroke="none"
      >da lugar a</text
    ></g
    ><g font-size="11px" transform="translate(655,797)" fill-opacity="1" fill="black" text-rendering="geometricPrecision" image-rendering="optimizeQuality" font-family="sans-serif" stroke="black" stroke-opacity="1"
    ><text x="10" xml:space="preserve" y="12" clip-path="url(#clipPath90)" stroke="none"
      >espoleta</text
    ></g
    ><g font-size="11px" transform="translate(1313,1367)" fill-opacity="1" fill="black" text-rendering="geometricPrecision" image-rendering="optimizeQuality" font-family="sans-serif" stroke="black" stroke-opacity="1"
    ><text x="10" xml:space="preserve" y="12" clip-path="url(#clipPath85)" stroke="none"
      >realiza</text
    ></g
    ><g font-size="11px" transform="translate(472,866)" fill-opacity="1" fill="black" text-rendering="geometricPrecision" image-rendering="optimizeQuality" font-family="sans-serif" stroke="black" stroke-opacity="1"
    ><text x="9" xml:space="preserve" y="12" clip-path="url(#clipPath91)" stroke="none"
      >resulta em</text
    ></g
    ><g font-size="8px" fill-opacity="1" fill="rgb(120,120,120)" text-rendering="geometricPrecision" image-rendering="optimizeQuality" stroke="rgb(120,120,120)" stroke-opacity="1"
    ><text x="0" xml:space="preserve" y="10" stroke="none"
      >Visual Paradigm Standard(Marcel Gavioli(Instituto Superior de Engenharia do Porto))</text
    ></g
  ></g
></svg
>
